3;180
4;230
5;180
6;770
7;770
11;420
12;440
13;480
14;1090
15;180
16;290
17;350
18;410
19;480
20;530
21;590
22;1090
25;259
26;127
27;230
28;148
29;299
38;103
39;82
40;39
42;85
43;95
44;59
45;111
46;111
47;143
48;35
49;42
50;49
51;59
52;72
53;78
54;82
55;59
56;75
57;34
58;48
59;130
60;143
61;20
62;299
64;759
65;679
66;569
67;788
68;719
69;604
70;111
72;95
73;95
74;725
75;656
76;771
77;707
79;150
398;103
399;790
401;460
691;150
694;280
695;150
696;114
697;45
698;114
700;978
701;878
702;878
703;349
704;349
705;349
706;349
707;349
708;349
709;399
710;399
711;399
712;399
713;399
714;399
715;199
716;439
717;439
718;399
719;399
720;199
721;199
722;199
847;110
940;16
941;7
943;13
944;28
945;6
946;14
947;12
949;14
952;22
953;14
954;20
955;13
956;15
957;14
965;320
997;878
998;878
999;439
1000;439
1001;399
1002;399
1003;199
1004;199
1005;199
1006;199
1029;129
1030;59
1031;103
1045;349
1046;399
1050;25,5579514693
1051;25,5579514693
1052;9,584231801
1053;11,5010781612
1054;13,96559491
1055;17,5254524361
1056;22,1806507395
1057;9,4929534029
1058;13,1440893271
1059;14,6045436968
1060;16,7952252513
1061;18,9859068058
1062;19,551832874
1063;21,3591451565
1064;25,4666730712
1065;28,8804851604
1066;42,3623045604
1072;89,7084096574
1073;110,0817481144
1074;80,3249903322
1075;90,3656141238
1076;100,4062379153
1077;6,5720446635
1078;9,0365614124
1079;10,1866692285
1080;12,9615325309
1081;14,6045436968
1082;6,0243742749
1083;7,1197150522
1084;8,6349364607
1085;8,3976126256
1086;12,6511859773
1087;13,052810929
1088;15,1522140854
1089;16,5432968725
1090;25,7587639452
1091;25,9915238603
1092;16,4301116589
1093;16,758713892
1093;46,5519830335
1094;22,8542853175
1095;29,6015845054
1096;39,3592452628
1097;43,8136310903
1098;46,5519830335
1099;48,3702487237
1100;57,7929177601
1101;61,0469926525
1102;43,8136310903
1104;50,3856757539
1105;57,2425090195
1106;66,8303919564
1107;52,25
1108;82,5613110858
1109;96,3899883987
1110;85,3635579076
1111;106,9326433798
1112;14,6045436968
1113;15,0609356873
1114;40,5002252391
1115;52,3709809126
1135;1740
1136;2790
1137;199
1138;399
1139;349
1147;20
1150;39,9
1151;43,136710895
1152;49,3020270708
1153;65,7698683312
1154;76,2534635471
1266;168
1267;116
1359;124
1360;163
1361;202
1376;111
1387;575
1388;610
1389;702
1390;748
1391;748
1392;794
1393;673
1394;719
1395;725
1396;782
1400;219
1436;771
1441;144
1443;1490
1446;1490
1477;345
1528;98
1531;130
1537;143
1573;111
1618;450
1619;550
1621;45,45
1622;50
1623;54,54
1624;600
1625;900
1626;35,9
1627;79,9
1628;38
1629;41,08
1630;46,95
1631;62,64
1632;72,92
1633;76,1
1634;16,2
1635;52,92
1636;43,4
1637;69,5
1638;42,35
1639;79,92
1641;52,31
1642;63,41
1643;72,35
1644;54,65
1645;65,45
1646;74,52
1647;5,89
1648;13,85
1649;24,88
1650;26,85
1651;29,95
1652;33,05
1653;35,52
1654;19,89
1655;27,5
1656;35,45
1657;44,31
1658;50,34
1659;18,95
1660;31,54
1661;24,24
1662;19,85
1663;23,45
1664;27,65
1665;42,25
1666;43,92
1667;49,34
1668;49,34
1669;181
1756;199
1757;199
1758;199
1759;199
1760;89
1761;89
1762;89
1763;89
1764;549
1765;549
1766;549
1767;549
1817;144
1831;78
1833;10
1850;249
1851;249
1856;429
1857;429
1858;429
1859;429
1863;598
1864;506
1902;360,62
1903;414,94
1904;481,33
1905;414,94
1906;390,8
1907;390,8
1908;390,8
1909;390,8
1910;390,8
1911;67,9
1912;67,9
1913;90,38
1914;379
1915;379
1916;379
1917;379
1918;91
1919;40
1920;24
1921;45
1923;15
1924;6
1925;7
1926;14
1927;36
1928;5
1929;16
1930;13
1932;13
1933;20
1934;15
1935;24
1936;22
1937;16
1938;24
1939;12
1940;13
1941;13
1942;13
1943;36
1944;45
1945;22
1946;26
1947;98
1948;22
1949;36
1950;33
1951;33
1952;16
1953;18
1954;15
1955;15
1956;20
1957;24
1958;33
1960;290
1972;102
1988;30
2028;1799
2029;1799
2030;1999
2031;1999
2052;91
2053;1270
2133;399
2135;499
2138;699
2140;499
2141;499
2142;499
2143;499
2146;699
2148;499
2149;499
2150;499
2171;129
2185;481,33
2186;149,38
2187;149,38
2214;249
2215;249
2216;599
2217;599
2219;599
2220;599
2221;189
2222;189
2223;189
2224;189
2225;2100
2226;2100
2227;2100
2228;2100
2229;2100
2230;2100
2231;2100
2232;2100
2233;2200
2234;2200
2235;1800
2236;980
2237;850
2238;950
2239;249
2240;249
2241;249
2242;249
2243;239
2244;239
2245;239
2246;239
2331;17
2345;399
2346;399
2350;790
2354;111
2362;199
2363;199
2364;199
2365;199
2370;299
2373;219
2375;249
2376;249
2377;249
2378;249
2392;799
2393;799
2394;799
2395;799
2396;249
2416;1490
2426;2290
2441;350
2443;31,9029343965
2444;31,9029343965
2445;34,4551691482
2446;34,4551691482
2447;35,7312865241
2448;35,7312865241
2449;37,6454625878
2450;37,6454625878
2451;39,5596386516
2452;39,5596386516
2453;439
2454;439
2455;439
2456;439
2457;149
2476;8
2477;10
2488;707
2489;399
2490;399
2491;399
2492;399
2493;499
2494;299
2495;549
2496;949
2497;329
2498;299
2499;189
2500;179
2546;1499
2563;169
2569;279
2571;610
2612;47
2613;47
2614;150
2620;115
