1;0
2;3
3;1
4;8
5;8
6;0
7;1
8;0
9;0
10;0
11;11
12;12
13;9
14;7
15;5
16;8
17;7
18;7
19;10
20;10
21;8
22;17
23;0
25;34
26;7
27;11
28;1
29;1
30;0
31;0
32;0
33;0
34;0
35;0
36;0
37;0
38;4
39;21
40;39
41;125
42;12
43;15
44;105
45;43
46;58
47;12
48;20
49;57
50;23
51;54
52;11
53;20
54;10
55;177
56;98
57;17
58;17
59;115
60;32
61;248
62;10
63;0
64;2
65;1
66;5
67;2
68;1
69;3
70;11
71;0
72;19
73;27
74;6
75;2
76;3
77;5
78;0
79;19
80;0
81;57
82;33
83;11
84;3
85;5
87;0
88;0
89;0
90;13
91;38
92;5
93;19
94;31
95;13
96;23
97;21
98;3
99;1
100;36
101;0
102;0
103;4679
104;812
105;205
106;0
107;939
108;1634
109;537
110;518
111;385
112;0
113;0
114;0
115;0
116;0
117;0
118;0
119;0
120;0
121;0
122;0
123;0
124;0
126;0
127;0
128;0
129;17
130;0
131;980
132;375
133;1000
134;720
135;3543
136;592
137;63
138;839
139;868
140;2966
141;686
142;0
143;769
144;66
145;899
146;1750
147;205
148;160
149;800
150;511
151;763
152;549
153;1674
154;0
155;656
156;1310
157;910
158;2310
159;665
160;325
161;0
162;0
163;0
164;0
166;0
167;0
168;0
169;0
170;0
171;0
172;0
173;0
174;0
175;0
176;0
177;0
178;0
179;0
180;0
181;0
182;0
183;0
185;0
186;0
187;0
188;0
189;0
190;0
191;0
192;0
193;0
195;0
196;0
197;0
198;0
199;0
200;0
201;0
202;0
203;0
204;0
205;0
206;0
207;0
208;0
209;0
210;0
211;0
212;0
213;0
214;0
215;0
216;0
217;0
218;0
219;0
220;0
221;0
222;0
223;0
224;0
225;0
226;0
227;0
228;0
229;0
230;0
231;0
232;0
233;0
234;4890
235;508
236;307
237;604
239;870
240;0
241;0
242;0
243;0
244;0
245;0
246;0
247;0
248;0
249;0
250;0
251;0
253;0
254;0
255;0
256;0
257;0
258;0
259;0
260;0
261;834
262;843
263;766
264;255
265;0
266;75
267;122
268;469
269;153
270;670
271;0
272;0
273;0
274;0
275;0
276;0
277;0
278;0
279;0
280;0
281;0
282;0
283;0
284;0
285;0
286;0
287;0
288;0
289;0
290;0
291;0
292;0
293;0
294;0
295;0
296;0
297;0
298;0
299;0
300;0
301;0
302;0
303;0
304;0
305;0
306;0
307;0
308;0
309;0
310;0
311;0
312;0
313;0
314;0
315;0
318;0
319;0
320;0
321;0
322;0
323;0
324;0
325;0
326;0
327;0
328;0
329;0
330;0
331;0
332;0
333;0
334;0
335;0
336;435
337;445
338;445
339;361
340;0
341;0
342;102
343;0
344;0
345;349
346;18
347;0
348;0
349;0
350;0
351;0
353;0
354;0
355;0
356;0
357;0
358;0
359;0
360;0
361;0
362;0
363;0
364;0
365;0
366;0
367;0
368;0
369;0
370;0
371;0
372;0
373;0
374;0
375;0
376;0
377;0
378;0
379;0
380;0
381;0
382;0
383;0
384;0
385;0
386;0
387;0
388;0
389;0
390;0
391;0
392;0
393;0
394;0
395;0
397;0
398;6
399;7
400;62
401;0
402;0
403;0
404;0
405;0
406;0
407;0
408;0
409;0
410;0
411;0
412;0
413;0
414;0
415;0
416;0
417;0
418;0
419;0
420;0
421;0
422;0
423;0
424;0
425;0
426;0
427;0
428;0
429;0
430;0
431;0
432;0
433;0
434;0
435;0
436;0
437;0
438;0
439;0
442;0
443;0
444;0
445;0
446;0
447;0
448;0
449;0
451;221
452;117
453;134
454;79
455;95
456;184
457;239
458;470
459;152
460;45
461;56
462;253
463;75
464;102
465;234
466;0
467;28
468;36
469;106
470;104
471;68
472;0
473;229
503;0
504;0
505;0
506;0
507;0
508;0
509;0
510;12
511;12
512;0
516;0
517;0
518;32
519;0
526;0
527;0
528;0
529;113
539;139
540;28
541;238
542;47
543;495
544;0
545;1246
546;996
547;431
548;49
549;0
550;386
551;478
552;64
553;165
554;1093
555;958
556;39
557;100
558;423
559;409
560;288
561;497
562;110
563;113
564;424
565;144
566;98
567;3
568;0
569;0
570;0
571;149
572;0
573;121
574;700
575;0
576;0
577;0
578;0
579;0
580;0
581;0
582;500
583;0
584;1000
585;100
586;318
587;0
588;194
589;2501
590;284,90
591;60
592;151
593;206
594;87
595;25
596;37
597;56
598;37
599;30
600;60
601;203
602;73
603;98
604;42
605;336
606;155
607;0
608;179
609;101
610;174
611;99
612;186
613;189
614;308
615;1336
616;8000
617;0
618;0
619;18000
620;0
621;1540
622;0
623;0
624;0
625;0
626;0
627;0
628;0
629;6508
630;622
631;0
632;80
633;393
634;381
635;214
636;0
637;372
638;0
639;145
640;380
641;0
642;271
643;212
644;500
645;284
646;897
647;256
648;63
649;675
650;0
651;406
652;384
653;70
654;2646
655;33
656;1530
657;88
658;0
659;0
660;211
661;1137
662;0
664;0
665;0
666;0
667;0
668;0
669;0
670;0
671;0
672;0
673;0
674;0
675;80
676;80
677;11
678;0
679;0
680;0
681;0
682;45
683;0
684;0
685;0
686;79
687;75
689;0
691;2
692;0
693;0
694;97
695;15
696;8
697;13
698;7
699;0
700;0
701;2
702;3
703;8
704;1
705;2
706;3
707;4
708;2
709;1
710;2
711;2
712;2
713;5
714;1
715;2
716;3
717;2
718;2
719;3
720;3
721;3
722;2
723;0
724;0
725;0
726;0
727;0
728;1
729;0
730;0
731;0
732;0
733;0
734;0
735;0
736;0
737;0
738;0
739;0
740;0
741;0
742;1428
743;0
744;0
745;0
746;0
747;0
748;0
749;0
750;0
751;0
752;0
753;0
754;0
755;1
756;0
757;0
758;0
759;0
760;0
761;0
762;0
763;0
764;0
765;0
766;0
767;0
768;0
769;0
770;0
771;0
772;0
773;0
774;0
775;0
776;0
777;0
778;0
779;0
780;0
781;0
782;0
783;1
784;0
785;0
786;0
787;0
788;0
789;0
790;0
791;0
792;0
793;0
794;20,777784
795;0
796;0
797;0
798;0
799;0
800;0
801;0
802;0
803;0
804;0
805;0
806;0
807;0
808;0
809;0
810;0
811;0
812;0
813;0
814;0
815;0
816;0
817;0
818;0
819;0
820;0
821;0
822;0
823;0
824;0
825;0
826;0
827;20
828;14
829;20
830;20
831;4
832;5
833;0
834;8
835;173
836;18
837;0
838;71
839;60
840;19
841;13
842;0
843;0
844;0
845;12
846;0
847;17
848;1
849;0
850;0
851;0
852;0
853;0
854;0
855;0
856;0
857;0
858;0
859;0
860;0
861;0
862;0
863;29
864;9
865;9
866;0
867;0
868;0
869;0
870;0
871;0
872;0
873;0
874;0
875;0
876;0
877;0
879;0
880;0
881;0
882;0
883;0
884;0
885;0
886;0
887;0
888;0
889;0
890;0
891;0
892;0
893;0
894;0
895;0
896;0
897;0
898;0
899;0
900;0
901;0
902;0
903;0
904;0
905;0
906;0
907;0
908;0
909;0
910;0
911;0
912;0
913;0
914;0
915;0
916;0
917;0
918;0
919;0
920;0
921;0
922;0
923;0
924;0
925;0
926;0
939;3
940;279
941;17
942;58
943;22
944;54
945;28
946;52
947;26
948;24
949;27
950;15
951;23
952;59
953;25
954;125
955;41
956;64
957;57
958;16
959;0
960;0
961;0
962;48
963;0
964;92
965;37
966;0
967;0
968;0
969;0
970;0
971;0
972;0
973;0
974;0
975;0
976;0
977;0
978;0
979;0
980;0
981;4000
982;0
983;0
984;0
985;0
986;0
987;0
988;0
989;0
990;0
991;0
992;1
993;0
994;0
995;0
996;0
997;2
998;2
999;4
1000;11
1001;3
1002;1
1003;9
1004;3
1005;2
1006;3
1008;62
1009;30
1010;0
1011;0
1012;269
1013;129
1014;123
1015;339
1016;317
1017;64
1018;451
1019;303
1020;3767
1021;623
1022;0
1023;362
1024;85
1025;0
1026;0
1027;0
1028;0
1029;701
1030;334
1031;231
1032;0
1033;0
1034;128
1035;0
1036;2730
1037;2000
1038;97
1042;0
1043;1
1044;0
1045;3
1046;2
1047;1
1048;0
1049;1
1050;217
1051;174
1052;216
1053;188
1054;168
1055;173
1056;135
1057;203
1058;141
1059;29
1060;76
1061;126
1062;107
1063;152
1064;54
1065;110
1066;10
1067;1
1068;0
1069;0
1070;0
1071;0
1072;51
1073;44
1074;133
1075;83
1076;84
1077;103
1078;92
1079;65
1080;30
1081;128
1082;111
1083;21
1084;100
1085;98
1086;53
1087;115
1088;100
1089;135
1090;55
1091;70
1092;122
1093;140
1094;130
1095;112
1096;92
1097;85
1098;129
1099;97
1100;170
1101;67
1102;116
1103;80
1104;111
1105;211
1106;193
1107;60
1108;25
1109;145
1110;66
1111;64
1112;69
1113;91
1114;260
1115;190
1125;0
1126;26
1127;27
1128;0
1129;0
1130;0
1131;2
1132;72
1133;157
1134;0
1135;21
1136;21
1137;0
1138;2
1139;4
1141;0
1142;0
1143;0
1144;0
1145;0
1146;0
1147;595
1148;3596
1149;66
1150;227
1151;532
1152;112
1153;274
1154;124
1155;0
1156;0
1157;0
1158;0
1159;0
1160;0
1161;0
1162;0
1163;0
1165;0
1166;0
1167;0
1168;172
1169;128
1170;11
1171;1
1175;0
1176;0
1179;0
1180;0
1181;0
1182;0
1183;79
1184;0
1185;21
1186;190
1187;326
1188;30
1189;0
1190;10
1191;3
1192;3
1193;131
1194;62
1195;3001
1196;55
1197;88
1198;85
1199;105
1200;94
1201;157
1202;286
1203;89
1204;268
1205;252
1206;251
1207;132
1208;172
1209;114
1210;115
1211;0
1212;173
1213;117
1214;0
1215;2
1216;0
1217;0
1218;0
1219;0
1221;0
1222;0
1223;0
1224;0
1225;0
1226;0
1227;0
1228;0
1229;0
1230;0
1231;0
1232;0
1233;0
1234;0
1235;0
1236;0
1237;0
1238;0
1239;0
1240;0
1241;0
1242;0
1243;0
1244;0
1245;0
1246;0
1247;0
1248;2403
1249;0
1250;0
1251;0
1252;0
1253;0
1254;0
1255;0
1256;0
1257;0
1258;0
1259;0
1260;0
1261;0
1262;0
1263;0
1264;0
1265;0
1266;44
1267;51
1268;0
1269;1396
1270;0
1271;0
1272;54
1273;0
1274;545
1275;0
1276;0
1278;0
1279;0
1280;0
1281;0
1282;0
1283;0
1284;0
1285;0
1286;0
1287;0
1288;0
1289;0
1290;0
1291;0
1292;0
1293;0
1295;220
1296;0
1297;0
1298;0
1299;0
1300;0
1301;0
1302;0
1303;0
1304;0
1305;0
1306;0
1307;0
1308;0
1309;0
1310;0
1311;0
1312;0
1313;0
1314;0
1315;0
1316;0
1317;0
1318;0
1319;0
1320;0
1321;0
1322;3198
1324;949
1325;0
1326;0
1327;0
1328;0
1329;0
1330;0
1331;0
1332;0
1333;0
1334;0
1335;0
1336;0
1337;0
1338;0
1339;0
1340;0
1341;0
1342;0
1343;0
1344;0
1345;0
1346;0
1347;444
1348;235
1350;0
1351;0
1352;0
1353;0
1355;1142
1356;0
1357;0
1358;0
1359;28
1360;23
1361;40
1362;0
1366;9750
1367;2362
1368;0
1369;3386
1370;2698
1371;187
1373;0
1374;228
1376;22
1377;0
1378;0
1379;0
1380;0
1381;0
1382;0
1383;0
1384;0
1385;0
1386;0
1387;21
1388;3
1389;6
1390;7
1391;4
1392;3
1393;3
1394;3
1395;4
1396;4
1397;0
1398;0
1399;0
1400;23
1401;0
1403;0
1404;0
1405;0
1406;0
1407;1873
1408;566
1409;749
1410;2206
1411;302
1412;0
1413;0
1414;226
1415;0
1416;0
1417;0
1418;0
1419;54
1420;0
1421;0
1423;0
1424;0
1425;0
1426;1280
1427;0
1428;0
1429;1
1430;0
1431;0
1432;0
1433;0
1434;0
1435;0
1436;0
1437;904
1438;0
1439;0
1440;0
1441;65
1442;0
1443;1
1444;3
1445;66
1446;6
1447;38
1448;221
1449;0
1450;5
1451;0
1452;0
1453;0
1454;0
1455;0
1457;0
1458;0
1459;0
1460;2895
1461;0
1462;0
1463;0
1464;0
1465;242
1466;59
1467;2
1468;100
1469;200
1470;0
1471;0
1472;544
1473;379
1476;0
1477;8
1478;0
1479;462
1480;0
1481;0
1482;10
1484;0
1485;0
1486;0
1487;0
1488;0
1489;0
1490;0
1491;0
1492;0
1493;10
1494;10
1495;10
1496;12
1497;10
1498;10
1499;12
1500;12
1501;50
1502;50
1503;43
1504;47
1505;6118
1506;0
1507;0
1508;0
1509;0
1510;0
1511;0
1512;0
1513;0
1514;0
1515;0
1516;0
1517;0
1518;0
1519;0
1520;0
1521;0
1522;0
1523;0
1524;0
1525;290
1526;26
1527;50
1528;49
1529;0
1530;0
1531;22
1532;0
1533;0
1534;0
1535;0
1536;0
1537;13
1538;72
1539;70
1540;0
1541;0
1542;0
1543;0
1544;0
1545;0
1547;0
1548;0
1549;0
1550;0
1551;0
1552;0
1553;0
1554;0
1555;0
1556;0
1557;0
1558;0
1559;0
1560;0
1561;0
1562;0
1563;0
1564;0
1565;0
1566;0
1567;0
1568;0
1569;0
1570;0
1571;0
1572;0
1573;19
1574;0
1575;0
1576;0
1577;127
1578;0
1581;232
1582;148
1583;346
1584;250
1585;247
1586;438
1587;68
1588;89
1589;2
1590;150
1591;54
1592;1
1593;93
1594;0
1595;5
1596;0
1597;0
1598;0
1599;0
1600;0
1601;0
1602;0
1603;0
1604;0
1605;339
1606;59
1607;0
1608;0
1609;0
1610;0
1612;0
1613;0
1614;219
1615;12
1616;2
1617;0
1618;0
1619;0
1620;1
1621;0
1622;0
1623;68
1624;0
1625;0
1626;152
1627;0
1628;132
1629;112
1630;22
1631;86
1632;56,50
1633;10,80
1634;185
1635;36
1636;60
1637;17
1638;217
1639;28
1641;32
1642;21
1643;72
1644;93
1645;66
1646;65
1647;187
1648;81
1649;80
1650;58
1651;62
1652;27
1653;33
1654;85
1655;153
1656;141
1657;151
1658;165
1659;134
1660;161
1661;3
1662;109
1663;53
1664;45
1665;68
1666;69
1667;38
1668;33
1669;6
1670;0
1671;4260
1672;0
1673;0
1674;0
1675;0
1676;0
1677;0
1679;0
1680;0
1681;0
1682;3100
1683;0
1684;0
1685;0
1686;0
1687;0
1688;0
1689;0
1691;0
1692;0
1693;0
1694;0
1695;0
1696;0
1697;0
1701;153
1702;0
1703;0
1704;15
1705;0
1706;0
1707;0
1708;0
1709;0
1710;579
1711;0
1712;0
1713;0
1714;0
1715;0
1716;41
1717;30
1718;0
1719;0
1720;0
1721;0
1722;0
1723;0
1724;0
1725;0
1726;0
1727;0
1728;170
1729;159
1730;82
1731;30
1732;45
1733;0
1734;0
1735;0
1736;0
1737;0
1738;0
1739;182
1740;352
1741;0
1745;0
1746;0
1747;0
1748;0
1749;0
1750;0
1751;115
1752;19
1753;500
1754;0
1755;0
1756;0
1757;1
1758;2
1759;1
1760;1
1761;1
1762;0
1763;0
1764;1
1765;3
1766;4
1767;3
1768;0
1769;0
1770;0
1773;0
1774;0
1775;0
1776;0
1777;1
1778;2
1779;0
1780;2
1781;0
1782;1
1783;0
1784;0
1785;0
1786;5
1787;3
1788;0
1789;1556
1790;0
1791;0
1792;78
1793;78
1794;79
1795;74
1796;79
1797;79
1798;63
1799;58
1800;63
1801;46
1802;48
1803;50
1804;36
1805;3952
1806;109
1807;0
1808;0
1809;0
1810;0
1811;23
1812;5
1813;0
1814;0
1815;5
1816;100
1817;2
1818;30
1819;0
1820;0
1821;0
1822;437
1823;0
1824;0
1825;387
1826;0
1827;0
1829;0
1830;0
1831;30
1832;0
1833;21
1834;0
1835;0
1836;0
1837;0
1838;0
1839;2
1840;10
1841;0
1842;0
1843;0
1844;39
1845;239
1846;88
1847;0
1848;1
1849;3
1850;2
1851;5
1852;0
1853;0
1854;0
1855;0
1856;1
1857;1
1858;0
1859;0
1861;0
1862;0
1863;0
1864;2
1865;0
1866;0
1867;0
1868;0
1869;0
1870;0
1872;0
1873;0
1874;0
1875;0
1876;0
1877;0
1878;0
1879;0
1880;0
1881;0
1882;0
1883;0
1884;0
1885;0
1886;0
1887;0
1888;0
1889;0
1890;0
1891;0
1892;0
1893;0
1894;0
1895;0
1896;0
1897;0
1898;0
1899;0
1900;150
1901;0
1902;29
1903;28
1904;19
1905;5
1906;15
1907;4
1908;3
1909;6
1910;1
1911;7
1912;6
1913;12
1914;3
1915;2
1916;2
1917;0
1918;13
1919;27
1920;110
1921;8
1923;26
1924;75
1925;185
1926;53
1927;33
1928;28
1929;26
1930;21
1932;36
1933;17
1934;31
1935;20
1936;21
1937;31
1938;90
1939;122
1940;35
1941;17
1942;17
1943;5
1944;6
1945;27
1946;20
1947;13
1948;81
1949;13
1950;7
1951;60
1952;9
1953;61
1954;26
1955;49
1956;13
1957;13
1958;32
1959;0
1960;0
1961;0
1962;0
1963;1050
1964;1100
1965;0
1966;0
1967;0
1968;0
1969;0
1972;17
1973;0
1974;0
1975;0
1976;0
1977;0
1978;0
1979;0
1980;0
1981;367
1982;344
1983;0
1984;0
1985;0
1986;0
1987;0
1988;32
1989;34
1990;104
1991;94
1992;66
1993;11
1994;19
1995;63
1996;4
1997;64
1998;41
1999;30
2000;34
2001;40
2002;2
2008;4
2009;0
2010;0
2011;0
2012;0
2013;3
2014;0
2015;0
2016;0
2017;0
2018;5
2019;0
2020;0
2021;0
2022;0
2023;6
2024;0
2025;0
2026;0
2027;0
2028;2
2029;0
2030;1
2031;1
2032;0
2033;0
2034;0
2035;0
2036;0
2037;5
2038;7
2039;0
2040;0
2041;229
2042;227
2044;136
2045;39
2047;5
2048;0
2049;0
2050;0
2051;26
2052;36
2053;10
2054;491
2055;183
2056;182
2057;0
2058;0
2059;0
2060;0
2061;0
2062;0
2063;0
2064;0
2065;774
2066;-7
2067;0
2068;250
2069;630
2077;2004
2078;1649
2079;1203
2080;0
2081;0
2082;0
2083;0
2084;0
2085;0
2086;0
2087;0
2088;0
2089;0
2090;0
2091;0
2092;0
2093;0
2094;134
2095;0
2096;0
2097;0
2098;0
2099;0
2100;0
2101;0
2102;0
2103;0
2104;0
2105;0
2106;0
2107;0
2108;0
2109;0
2110;0
2111;0
2112;0
2113;0
2114;0
2115;0
2116;0
2117;0
2118;0
2119;0
2120;0
2121;0
2122;0
2123;0
2124;0
2125;0
2126;0
2127;0
2128;0
2129;0
2130;0
2131;0
2132;0
2133;6
2134;0
2135;3
2136;0
2137;0
2138;2
2139;0
2140;1
2141;1
2142;2
2143;5
2144;0
2145;0
2146;1
2147;0
2148;5
2149;6
2150;3
2152;752
2153;462
2154;496
2155;94
2156;90
2157;103
2158;60
2159;67
2160;82
2161;0
2162;0
2163;0
2164;251
2165;0
2167;1000
2168;554
2169;1457
2170;0
2171;16
2172;0
2173;0
2174;0
2175;0
2176;145
2177;161
2178;1
2179;1
2180;0
2181;0
2182;108
2183;0
2184;0
2185;0
2186;7
2187;8
2188;0
2189;4
2190;0
2191;0
2192;0
2193;0
2194;0
2195;0
2196;0
2197;10
2198;0
2199;0
2202;0
2203;0
2204;0
2205;15
2206;0
2207;0
2208;0
2210;0
2211;0
2213;1487
2214;2
2215;3
2216;5
2217;5
2219;2
2220;5
2221;2
2222;2
2223;2
2224;0
2225;0
2226;0
2227;2
2228;2
2229;1
2230;1
2231;2
2232;1
2233;0
2234;0
2235;2
2236;2
2237;1
2238;2
2239;2
2240;2
2241;2
2242;2
2243;2
2244;2
2245;2
2246;3
2247;0
2248;0
2249;0
2250;0
2251;0
2252;0
2253;0
2254;0
2255;7
2256;8
2257;1
2258;3
2259;2
2260;5
2261;0
2262;0
2263;11
2264;4
2265;8
2266;1
2267;1
2268;0
2269;2
2270;6
2271;0
2272;7
2273;0
2274;0
2275;0
2276;0
2277;0
2278;5
2279;1
2281;0
2282;0
2283;478
2284;404
2285;199
2286;79
2287;522
2288;52
2289;77
2290;115
2291;6
2292;1688
2293;0
2294;210
2295;1
2296;0
2297;0
2298;0
2299;0
2300;0
2301;0
2302;0
2303;0
2304;0
2305;0
2306;0
2307;0
2308;0
2312;21
2313;27
2314;28
2315;43
2316;114
2317;61
2318;43
2319;38
2320;41
2321;17
2322;11
2323;30
2324;10
2325;5
2326;0
2327;0
2328;78
2329;78
2330;0
2331;47
2332;0
2333;0
2334;10
2335;0
2336;0
2337;0
2338;0
2339;0
2340;0
2341;9403
2342;3
2343;0
2344;0
2345;2
2346;2
2347;319
2348;2974
2349;3768
2350;19
2351;62
2352;0
2353;0
2354;98
2355;0
2356;0
2357;0
2358;0
2359;438
2360;20
2361;2285
2362;0
2363;0
2364;0
2365;0
2366;30
2367;40
2368;40
2369;50
2370;0
2371;0
2372;0
2373;3
2374;0
2375;1
2376;2
2377;2
2378;2
2379;584
2380;366
2381;0
2382;0
2383;0
2384;0
2392;2
2393;1
2394;1
2395;3
2396;0
2397;0
2398;0
2399;0
2400;0
2401;0
2402;0
2403;0
2404;0
2405;0
2406;0
2407;0
2408;0
2409;150
2410;100
2411;250
2412;0
2413;0
2414;0
2415;200
2416;26
2417;0
2418;43
2419;206
2420;102
2421;50
2422;0
2423;0
2424;394
2425;5
2426;20
2427;48
2428;147
2429;1
2430;-8
2431;507
2432;0
2433;0
2434;185
2435;20
2436;0
2437;212
2438;0
2439;5
2440;49
2441;1
2442;0
2443;28
2444;49
2445;27
2446;21
2447;25
2448;24
2449;19
2450;17
2451;15
2452;23
2453;1
2454;1
2455;1
2456;1
2457;2
2458;144
2459;143
2460;20
2461;11
2462;9
2463;9
2464;127
2465;108
2466;267
2467;26
2468;89
2469;10
2470;0
2471;5
2473;0
2474;299
2475;1
2476;10
2477;10
2478;27
2479;840
2480;71
2481;282
2482;241
2483;50
2484;0
2485;1
2486;500
2487;2500
2488;5
2489;1
2490;2
2491;2
2492;2
2493;0
2494;0
2495;0
2496;2
2497;2
2498;1
2499;3
2500;1
2501;30
2502;0
2503;284
2504;11
2505;0
2506;260
2507;103
2508;326
2509;0
2510;0
2511;0
2512;0
2513;0
2514;0
2516;0
2517;2
2518;0
2519;0
2520;0
2521;0
2522;0
2523;0
2524;0
2525;0
2526;0
2527;0
2528;0
2529;0
2530;0
2531;0
2532;0
2533;0
2534;0
2536;0
2537;0
2538;0
2539;0
2540;0
2541;0
2542;0
2543;0
2544;161
2545;0
2546;0
2547;5
2548;5
2549;5
2550;5
2551;5
2552;5
2553;5
2554;5
2555;5
2556;5
2557;30
2558;10
2559;10
2560;9
2561;4
2562;4
2563;1
2565;76
2566;378
2567;169
2568;126
2569;1
2570;0
2571;3
2572;0
2573;0
2575;0
2576;2384
2577;0
2579;14
2580;1
2581;1
2582;2
2583;6
2584;16
2585;0
2586;1
2587;1
2588;1
2589;14
2590;20
2591;8
2592;1
2593;1
2594;6
2595;1
2596;1
2597;1
2598;895
2599;591
2600;464
2601;258
2602;0
2603;0
2604;0
2605;0
2606;0
2607;0
2608;2
2609;0
2612;42
2613;42
2614;20
2615;20
2616;20
2617;1
2618;0
2619;114
2620;3
2621;50
2622;40
2628;1
2629;0
2630;0
2631;0
2632;0
2633;0
2634;0
2635;0
2636;0
2637;0
2638;0
2639;0
2640;1
2641;0
2642;0
2643;0
2644;0
2645;0
2646;0
2647;0
2648;0
2649;0
2650;0
2651;0
2652;0
2653;0
2654;0
2655;1
2656;0
2657;0
2658;0
2659;0
2660;0
2661;0
2662;0
2663;0
2664;0
2665;0
2666;0
2667;0
2668;0
2669;0
2670;0
2671;0
2672;0
2673;0
2674;0
2675;0
2676;0
2677;0
2678;0
2679;0
2680;499
2681;0
2682;527
2683;0
2684;469
2685;0
2686;4
2687;0
2688;2
2689;0
2690;0
2691;0
2692;531
2693;0
2694;531
2695;0
2696;556
2697;0
2698;0
2699;0
2700;492
2701;0
2702;477
2703;0
2704;0
2705;0
2706;0
2707;0
2708;0
2709;0
2714;3
2715;9
2716;0
2717;22
2718;21
2719;6
2720;5
2721;6
2722;7
2723;12
2724;7
2726;2
2727;0
2728;1
2729;1
2730;1
2731;1
2732;1
2733;0
2734;0
2735;554
2736;87
2737;367
2738;100
2739;567
2740;100
2741;693
2742;86
2743;0
2744;217
2745;0
2746;0
2747;0
2748;0
2749;0
2750;0
2751;0
2752;0
2753;0
2754;0
2755;0
2756;0
2757;0
2758;0
2759;0
2760;0
2761;0
2762;0
2763;0
2764;1100
2765;0
2766;0
2767;0
2768;0
2769;0
2770;0
2771;0
2772;48
2773;5
2774;48
2775;5
2779;100
2781;0
2782;0
2783;19
2784;0
2785;0
2786;0
2787;0
2788;194
2789;0
2790;0
2791;1
2792;1
2793;1
2794;2
2795;1
2796;1
2797;2
2798;4
2799;3
2800;0
2801;2
2802;1
2803;1
2804;1
2805;1
2806;1
2807;1
2808;8
2809;8
2810;11
2811;22
2812;0
2813;0
2814;0
2815;0
2816;0
2817;0
2818;0
2819;0
2820;0
2821;0
2822;0
2823;0
2824;0
2825;0
2826;0
2827;0
2828;0
2829;0
2830;0
2831;0
2832;0
2833;0
2834;0
2835;0
2836;294
2837;0
2838;0
2839;0
2840;0
2841;0
2842;0
2843;0
2844;2
2845;0
2846;0
2847;0
2848;0
2849;0
2850;0
2851;1
2852;0
2853;0
2854;0
2855;0
2856;0
2857;0
2858;0
2859;0
2860;0
2861;0
2862;0
2863;0
2864;0
2865;0
2866;0
2867;0
2868;0
2869;0
2870;0
2871;0
2872;0
2873;0
2874;0
2875;0
2876;0
2877;0
2878;0
2879;1
2880;0
2881;0
2882;0
2883;0
2884;0
2885;0
2886;2
2887;0
2888;0
2889;0
2890;0
2891;1
2892;0
2893;0
2894;0
2895;0
2896;0
2897;0
2898;0
2899;0
2900;0
2901;0
2902;0
2903;0
2904;0
2905;0
2906;0
2907;0
2908;0
2909;0
2910;0
2911;0
2912;0
2913;0
2914;0
2915;0
2916;0
2917;0
2918;0
2919;0
2920;0
2921;0
2922;0
2923;0
2924;0
2925;0
2926;0
2927;0
2928;0
2929;0
2930;0
2931;0
2932;0
2933;0
2934;290
2935;0
2936;0
2937;28
2938;0
2939;0
2940;0
2941;0
2942;0
2943;0
2944;0
2945;0
2946;0
2947;0
2948;0
2949;0
2950;0
2951;0
2952;0
2954;0
2955;0
2956;0
2957;0
2958;0
2959;0
2960;0
2961;0
2962;0
2963;0
2965;0
2966;0
2967;0
2968;0
2969;0
2972;0
2973;0
2974;0
2975;0
2976;0
2977;0
2978;0
2979;0
2980;0
2981;0
2982;0
2983;0
2984;0
2985;0
2986;0
2987;0
2988;0
2989;0
2990;0
2991;0
2992;0
2993;0
2994;0
2995;0
2996;0
2997;0
2998;0
2999;0
3000;0
3001;0
3002;0
3003;0
3004;0
3005;0
3006;0
3007;0
3008;0
3009;0
3010;0
3011;0
3012;0
3013;0
3014;0
3015;0
3016;0
3017;0
3018;0
3019;0
3020;0
3021;0
3022;0
3023;0
3024;1
3025;1
3026;0
3027;0
3028;0
3029;0
3030;0
3031;0
3032;0
3033;0
3034;0
3035;600
3036;200
3037;0
3038;0
3039;0
3040;0
3041;0
3042;0
3043;0
3044;0
3045;4
3046;3
3047;0
3048;0
3049;699
