1;0
2;3
3;48
4;30
5;6
6;8
7;6
8;0
9;0
10;0
11;8
12;10
13;13
14;7
15;6
16;8
17;7
18;5
19;0
20;10
21;0
22;17
23;0
25;22
26;13
27;12
28;2
29;2
30;0
31;0
32;0
33;0
34;0
35;0
36;0
37;0
38;7
39;19
40;17
41;0
42;14
43;4
44;92
45;0
46;26
47;23
48;54
49;83
50;20
51;61
52;10
53;7
54;20
55;279
56;126
57;18
58;20
59;2
60;29
61;220
62;3
63;0
64;2
65;2
66;3
67;2
68;2
69;2
70;19
71;0
72;29
73;32
74;6
75;2
76;3
77;1
78;0
79;19
80;0
81;13
82;65
83;16
84;12
85;12
87;0
88;0
89;-2
90;27
91;70
92;39
93;19
94;41
95;9
96;5
97;18
98;2
99;12
100;83
101;0
102;0
103;4679
104;812
105;205
106;361
107;939
108;1634
109;537
110;518
111;385
112;0
113;0
114;0
115;0
116;0
117;0
118;0
119;0
120;0
121;0
122;0
123;0
124;0
126;0
127;0
128;0
129;17
130;0
131;980
132;375
133;1000
134;720
135;3543
136;592
137;63
138;839
139;868
140;5932
141;1372
142;0
143;1538
144;132
145;1798
146;3500
147;530
148;320
149;1600
150;1022
151;1526
152;1098
153;2411
154;2330
155;711
156;7860
157;910
158;2320
159;1330
160;650
161;0
162;0
163;0
164;0
166;0
167;0
168;0
169;0
170;0
171;0
172;0
173;0
174;0
175;0
176;0
177;0
178;0
179;0
180;0
181;0
182;0
183;0
185;0
186;0
187;0
188;0
189;0
190;0
191;0
192;0
193;0
195;0
196;0
197;0
198;0
199;0
200;0
201;0
202;0
203;0
204;0
205;0
206;0
207;0
208;0
209;0
210;0
211;0
212;0
213;0
214;0
215;0
216;0
217;0
218;0
219;0
220;0
221;0
222;0
223;0
224;0
225;0
226;0
227;0
228;0
229;0
230;0
231;0
232;0
233;0
234;4890
235;508
236;524
237;604
239;870
240;0
241;0
242;0
243;0
244;0
245;0
246;0
247;0
248;0
249;0
250;0
251;0
253;0
254;0
255;0
256;0
257;0
258;0
259;0
260;0
261;243
262;531
263;494
264;255
265;0
266;75
267;102
268;469
269;138
270;670
271;0
272;0
273;0
274;0
275;0
276;0
277;0
278;0
279;0
280;0
281;0
282;0
283;0
284;0
285;0
286;0
287;0
288;0
289;0
290;0
291;0
292;0
293;0
294;0
295;0
296;0
297;0
298;0
299;0
300;0
301;0
302;0
303;0
304;0
305;0
306;0
307;0
308;0
309;0
310;0
311;0
312;0
313;0
314;0
315;0
318;0
319;0
320;0
321;0
322;0
323;0
324;0
325;0
326;0
327;0
328;0
329;0
330;0
331;0
332;0
333;0
334;0
335;0
336;190
337;200
338;200
339;388
340;0
341;0
342;102
343;0
344;0
345;96
346;18
347;0
348;0
349;0
350;0
351;0
353;0
354;0
355;0
356;0
357;0
358;0
359;0
360;0
361;0
362;0
363;0
364;0
365;0
366;0
367;0
368;0
369;0
370;0
371;0
372;0
373;0
374;0
375;0
376;0
377;0
378;0
379;0
380;0
381;0
382;0
383;0
384;0
385;0
386;0
387;0
388;0
389;0
390;0
391;0
392;0
393;0
394;0
395;0
397;0
398;16
399;3
400;61
401;14
402;0
403;0
404;0
405;0
406;0
407;0
408;0
409;0
410;0
411;0
412;0
413;0
414;0
415;0
416;0
417;0
418;0
419;0
420;0
421;0
422;0
423;0
424;0
425;0
426;0
427;0
428;0
429;0
430;0
431;0
432;0
433;0
434;0
435;0
436;0
437;0
438;0
439;0
442;0
443;0
444;0
445;0
446;0
447;0
448;0
449;0
451;221
452;117
453;134
454;79
455;95
456;184
457;239
458;470
459;152
460;45
461;56
462;253
463;75
464;102
465;234
466;0
467;0
468;96
469;175
470;173
471;69
472;0
473;322
503;0
504;0
505;0
506;0
507;20
508;0
509;0
510;0
511;0
512;0
516;110
517;90
518;0
519;0
526;0
527;42
528;42
529;0
539;319
540;28
541;238
542;47
543;495
544;0
545;1246
546;996
547;431
548;49
549;0
550;184
551;195
552;78
553;246
554;1103
555;958
556;39
557;170
558;423
559;243
560;203
561;214
562;91
563;113
564;312
565;324
566;98
567;3
568;0
569;0
570;0
571;149
572;0
573;121
574;0
575;5
576;0
577;0
578;0
579;0
580;0
581;0
582;500
583;0
584;1000
585;100
586;318
587;0
588;194
589;2501
590;284,90
591;60
592;151
593;206
594;87
595;25
596;37
597;56
598;37
599;30
600;60
601;203
602;73
603;98
604;42
605;256
606;155
607;0
608;39
609;75
610;155
611;120
612;112
613;378
614;380
615;1404
616;8000
617;0
618;0
619;12000
620;0
621;1540
622;0
623;0
624;0
625;0
626;0
627;0
628;0
629;19903
630;3662
631;0
632;80
633;393
634;551
635;428
636;0
637;480
638;0
639;362
640;442
641;0
642;443
643;429
644;500
645;284
646;281
647;256
648;103
649;62
650;0
651;406
652;384
653;350
654;1762
655;50
656;1341
657;88
658;0
659;0
660;71
661;1137
662;110
664;0
665;0
666;0
667;-20
668;0
669;0
670;0
671;0
672;0
673;0
674;0
675;0
676;0
677;1
678;0
679;0
680;0
681;0
682;0
683;2
684;0
685;0
686;0
687;0
689;0
691;4
692;0
693;0
694;27
695;5
696;13
697;11
698;15
699;0
700;0
701;2
702;3
703;8
704;1
705;2
706;3
707;3
708;2
709;1
710;2
711;2
712;2
713;5
714;2
715;2
716;3
717;2
718;2
719;3
720;4
721;2
722;3
723;0
724;0
725;0
726;0
727;0
728;1
729;0
730;0
731;0
732;0
733;0
734;0
735;0
736;0
737;0
738;0
739;0
740;0
741;0
742;540
743;0
744;0
745;0
746;0
747;0
748;0
749;0
750;0
751;0
752;0
753;0
754;0
755;1
756;0
757;0
758;0
759;0
760;0
761;0
762;0
763;0
764;0
765;0
766;0
767;0
768;0
769;0
770;0
771;0
772;0
773;0
774;0
775;0
776;0
777;0
778;0
779;0
780;0
781;0
782;0
783;1
784;0
785;0
786;0
787;0
788;0
789;0
790;0
791;0
792;0
793;0
794;18,822223
795;0
796;0
797;0
798;0
799;0
800;0
801;0
802;0
803;0
804;0
805;0
806;0
807;0
808;0
809;0
810;0
811;0
812;0
813;0
814;0
815;0
816;0
817;0
818;0
819;0
820;0
821;0
822;0
823;0
824;0
825;0
826;0
827;20
828;14
829;20
830;20
831;4
832;5
833;0
834;8
835;173
836;18
837;0
838;71
839;60
840;19
841;13
842;0
843;0
844;0
845;12
846;0
847;44
848;1
849;0
850;0
851;0
852;0
853;0
854;0
855;0
856;0
857;0
858;0
859;0
860;0
861;0
862;0
863;29
864;19
865;19
866;0
867;0
868;0
869;0
870;0
871;0
872;0
873;0
874;0
875;0
876;0
877;0
879;0
880;0
881;0
882;0
883;0
884;0
885;0
886;0
887;200
888;0
889;0
890;0
891;50
892;0
893;0
894;0
895;50
896;0
897;0
898;20
899;20
900;0
901;0
902;100
903;0
904;0
905;19
906;0
907;0
908;0
909;0
910;0
911;0
912;0
913;0
914;0
915;0
916;0
917;0
918;0
919;0
920;0
921;0
922;0
923;0
924;0
925;0
926;0
939;3
940;279
941;112
942;58
943;23
944;54
945;36
946;53
947;50
948;24
949;31
950;15
951;23
952;33
953;25
954;125
955;55
956;68
957;19
958;16
959;0
960;0
961;0
962;6
963;0
964;100
965;3
966;0
967;0
968;0
969;0
970;0
971;0
972;0
973;0
974;0
975;0
976;0
977;0
978;0
979;0
980;0
981;4000
982;0
983;0
984;0
985;0
986;0
987;0
988;0
989;0
990;0
991;0
992;1
993;0
994;0
995;0
996;0
997;2
998;2
999;5
1000;12
1001;2
1002;2
1003;9
1004;3
1005;2
1006;3
1008;62
1009;46
1010;0
1011;0
1012;269
1013;134
1014;129
1015;523
1016;317
1017;597
1018;94
1019;770
1020;3767
1021;623
1022;0
1023;367
1024;85
1025;0
1026;0
1027;0
1028;0
1029;531
1030;152
1031;136
1032;0
1033;0
1034;128
1035;0
1036;559
1037;0
1038;97
1042;0
1043;0
1044;0
1045;2
1046;1
1047;1
1048;0
1049;1
1050;226
1051;175
1052;216
1053;188
1054;186
1055;188
1056;147
1057;203
1058;149
1059;68
1060;62
1061;207
1062;107
1063;201
1064;72
1065;0
1066;0
1067;1
1068;0
1069;0
1070;0
1071;0
1072;26
1073;45
1074;145
1075;114
1076;96
1077;103
1078;100
1079;4
1080;1
1081;159
1082;31
1083;74
1084;106
1085;211
1086;10
1087;0
1088;0
1089;77
1090;82
1091;1
1092;77
1093;24
1094;0
1095;0
1096;0
1097;12
1098;123
1099;38
1100;0
1101;13
1102;114
1103;36
1104;1
1105;149
1106;83
1107;62
1108;0
1109;28
1110;86
1111;102
1112;46
1113;101
1114;261
1115;214
1125;0
1126;8
1127;2
1128;90
1129;80
1130;0
1131;2
1132;126
1133;267
1134;0
1135;19
1136;10
1137;21
1138;2
1139;4
1141;0
1142;0
1143;0
1144;0
1145;0
1146;0
1147;508
1148;5182
1149;156
1150;0
1151;53
1152;0
1153;0
1154;75
1155;0
1156;0
1157;0
1158;0
1159;0
1160;0
1161;0
1162;0
1163;0
1165;0
1166;0
1167;0
1168;1610
1169;42
1170;141
1171;1
1175;0
1176;0
1179;0
1180;0
1181;0
1182;0
1183;79
1184;0
1185;66
1186;428
1187;850
1188;32
1189;0
1190;10
1191;3
1192;3
1193;162
1194;240
1195;3054
1196;55
1197;88
1198;70
1199;111
1200;99
1201;95
1202;359
1203;62
1204;268
1205;26
1206;26
1207;94
1208;6
1209;29
1210;78
1211;0
1212;184
1213;107
1214;0
1215;2
1216;0
1217;0
1218;0
1219;0
1221;0
1222;0
1223;0
1224;0
1225;0
1226;0
1227;0
1228;0
1229;0
1230;0
1231;0
1232;0
1233;0
1234;0
1235;0
1236;0
1237;0
1238;0
1239;0
1240;0
1241;0
1242;0
1243;0
1244;0
1245;0
1246;0
1247;0
1248;1556
1249;0
1250;0
1251;0
1252;0
1253;0
1254;0
1255;0
1256;0
1257;0
1258;0
1259;0
1260;0
1261;0
1262;0
1263;0
1264;0
1265;0
1266;127
1267;84
1268;0
1269;1397
1270;0
1271;0
1272;0
1273;0
1274;547
1275;0
1276;0
1278;0
1279;0
1280;0
1281;0
1282;0
1283;0
1284;0
1285;0
1286;0
1287;0
1288;0
1289;0
1290;0
1291;0
1292;0
1293;0
1295;0
1296;0
1297;0
1298;0
1299;0
1300;0
1301;0
1302;0
1303;0
1304;0
1305;0
1306;0
1307;0
1308;0
1309;0
1310;0
1311;0
1312;0
1313;0
1314;0
1315;0
1316;0
1317;48000
1318;0
1319;0
1320;0
1321;0
1322;5018
1324;2712
1325;0
1326;0
1327;0
1328;0
1329;0
1330;0
1331;0
1332;0
1333;0
1334;0
1335;0
1336;0
1337;0
1338;0
1339;0
1340;0
1341;0
1342;0
1343;0
1344;0
1345;0
1346;0
1347;458
1348;235
1350;0
1351;0
1352;0
1353;0
1355;2051
1356;0
1357;0
1358;0
1359;41
1360;23
1361;41
1362;0
1366;0
1367;876
1368;0
1369;685
1370;802
1371;189
1373;0
1374;473
1376;28
1377;0
1378;0
1379;0
1380;0
1381;0
1382;0
1383;0
1384;0
1385;0
1386;0
1387;2
1388;3
1389;4
1390;3
1391;7
1392;3
1393;3
1394;3
1395;4
1396;4
1397;0
1398;0
1399;0
1400;13
1401;0
1403;0
1404;0
1405;0
1406;0
1407;1983
1408;587
1409;786
1410;2084
1411;472
1412;0
1413;0
1414;106
1415;500
1416;3000
1417;500
1418;500
1419;54
1420;0
1421;0
1423;0
1424;0
1425;0
1426;0
1427;0
1428;0
1429;1
1430;0
1431;0
1432;0
1433;0
1434;0
1435;0
1436;0
1437;159
1438;0
1439;0
1440;0
1441;76
1442;12000
1443;1
1444;0
1445;66
1446;9
1447;16
1448;221
1449;0
1450;5
1451;0
1452;0
1453;0
1454;0
1455;0
1457;0
1458;0
1459;0
1460;2895
1461;0
1462;0
1463;0
1464;0
1465;68
1466;59
1467;2
1468;100
1469;200
1470;0
1471;0
1472;0
1473;123
1476;0
1477;6
1478;0
1479;0
1480;0
1481;0
1482;10
1483;0
1484;0
1485;0
1486;0
1487;0
1488;0
1489;0
1490;0
1491;0
1492;0
1493;10
1494;10
1495;10
1496;12
1497;10
1498;10
1499;12
1500;12
1501;50
1502;50
1503;41
1504;51
1505;3089
1506;0
1507;0
1508;0
1509;0
1510;0
1511;0
1512;0
1513;0
1514;0
1515;0
1516;0
1517;0
1518;0
1519;0
1520;0
1521;0
1522;0
1523;0
1524;0
1525;344
1526;0
1527;0
1528;92
1529;0
1530;0
1531;22
1532;0
1533;0
1534;0
1535;0
1536;0
1537;14
1538;107
1539;158
1540;0
1541;0
1542;0
1543;0
1544;0
1545;0
1547;0
1548;0
1549;0
1550;0
1551;0
1552;0
1553;0
1554;0
1555;0
1556;0
1557;0
1558;0
1559;0
1560;0
1561;0
1562;0
1563;0
1564;0
1565;0
1566;0
1567;0
1568;0
1569;0
1570;0
1571;0
1572;0
1573;19
1574;0
1575;0
1576;0
1577;119
1578;0
1581;92
1582;97
1583;327
1584;251
1585;144
1586;462
1587;68
1588;89
1589;2
1590;185
1591;133
1592;1
1593;127
1594;0
1595;5
1596;0
1597;0
1598;0
1599;0
1600;0
1601;0
1602;0
1603;0
1604;0
1605;339
1606;59
1607;10
1608;0
1609;10
1610;0
1612;0
1613;0
1614;279
1615;12
1616;8
1617;0
1618;0
1619;2
1620;1
1621;53
1622;85
1623;87
1624;0
1625;0
1626;115
1627;11,50
1628;62
1629;78
1630;0
1631;0
1632;1
1633;8
1634;59
1635;54
1636;0
1637;48
1638;13
1639;18
1641;36
1642;32
1643;91
1644;44
1645;29
1646;3
1647;0
1648;63
1649;90
1650;65
1651;72
1652;66
1653;24
1654;98
1655;154
1656;143
1657;151
1658;165
1659;135
1660;162
1661;10
1662;114
1663;54
1664;18
1665;11
1666;31
1667;56
1668;70
1669;7
1670;0
1671;4260
1672;0
1673;0
1674;0
1675;0
1676;0
1677;0
1679;0
1680;0
1681;0
1682;3100
1683;0
1684;0
1685;0
1686;0
1687;0
1688;0
1689;0
1691;0
1692;0
1693;0
1694;0
1695;0
1696;0
1697;0
1701;608
1702;0
1703;0
1704;15
1705;0
1706;0
1707;0
1708;0
1709;0
1710;477
1711;0
1712;0
1713;0
1714;0
1715;0
1716;41
1717;30
1718;0
1719;0
1720;0
1721;0
1722;0
1723;0
1724;0
1725;0
1726;0
1727;0
1728;181
1729;164
1730;82
1731;30
1732;45
1733;0
1734;0
1735;0
1736;0
1737;0
1738;0
1739;112
1740;352
1741;0
1745;0
1746;0
1747;0
1748;0
1749;0
1750;0
1751;115
1752;19
1753;500
1754;0
1755;0
1756;1
1757;3
1758;1
1759;1
1760;1
1761;2
1762;2
1763;1
1764;1
1765;2
1766;3
1767;1
1768;0
1769;0
1770;0
1773;0
1774;0
1775;0
1776;0
1777;1
1778;1
1779;0
1780;2
1781;0
1782;1
1783;2
1784;0
1785;0
1786;1
1787;1
1788;0
1789;1907
1790;0
1791;0
1792;78
1793;78
1794;79
1795;74
1796;79
1797;79
1798;63
1799;58
1800;63
1801;46
1802;48
1803;50
1804;48
1805;1366
1806;25
1807;0
1808;0
1809;0
1810;0
1811;30
1812;5
1813;0
1814;0
1815;5
1816;100
1817;28
1818;30
1819;0
1820;0
1821;0
1822;140
1823;0
1824;0
1825;387
1826;0
1827;0
1829;0
1830;0
1831;38
1832;0
1833;29
1834;0
1835;0
1836;0
1837;0
1838;0
1839;2
1840;10
1841;0
1842;0
1843;0
1844;81
1845;300
1846;136
1847;0
1848;1
1849;3
1850;3
1851;6
1852;0
1853;0
1854;0
1855;0
1856;2
1857;1
1858;2
1859;1
1861;0
1862;0
1863;0
1864;3
1865;0
1866;0
1867;0
1868;0
1869;0
1870;0
1872;0
1873;0
1874;0
1875;0
1876;0
1877;0
1878;0
1879;0
1880;0
1881;0
1882;0
1883;0
1884;0
1885;2000
1886;1000
1887;4000
1888;0
1889;0
1890;0
1891;0
1892;0
1893;0
1894;0
1895;0
1896;0
1897;0
1898;0
1899;0
1900;360
1901;0
1902;0
1903;0
1904;0
1905;2
1906;0
1907;5
1908;0
1909;6
1910;3
1911;2
1912;1
1913;0
1914;3
1915;2
1916;2
1917;2
1918;26
1919;8
1920;83
1921;12
1923;26
1924;116
1925;186
1926;53
1927;33
1928;28
1929;27
1930;32
1932;37
1933;21
1934;35
1935;20
1936;21
1937;31
1938;90
1939;133
1940;37
1941;17
1942;17
1943;5
1944;6
1945;27
1946;20
1947;13
1948;81
1949;13
1950;7
1951;60
1952;9
1953;61
1954;27
1955;49
1956;13
1957;13
1958;42
1959;0
1960;0
1961;0
1962;0
1963;1050
1964;1100
1965;0
1966;0
1967;0
1968;0
1969;0
1972;358
1973;0
1974;0
1975;0
1976;0
1977;0
1978;0
1979;0
1980;0
1981;493
1982;0
1983;0
1984;0
1985;0
1986;0
1987;0
1988;36
1989;4
1990;0
1991;0
1992;5
1993;48
1994;4
1995;0
1996;0
1997;3
1998;53
1999;22
2000;0
2001;0
2002;1
2008;4
2009;0
2010;0
2011;0
2012;0
2013;3
2014;0
2015;0
2016;0
2017;0
2018;5
2019;0
2020;0
2021;0
2022;0
2023;6
2024;0
2025;0
2026;0
2027;0
2028;3
2029;0
2030;3
2031;2
2032;0
2033;0
2034;0
2035;0
2036;0
2037;5
2038;7
2039;0
2040;0
2041;229
2042;227
2044;252
2045;39
2047;3
2048;0
2049;0
2050;0
2051;55
2052;35
2053;0
2054;80
2055;29
2056;182
2057;0
2058;0
2059;0
2060;0
2061;0
2062;0
2063;0
2064;0
2065;774
2066;80
2067;12
2068;293
2069;0
2077;1679
2078;846
2079;623
2080;0
2081;0
2082;0
2083;0
2084;0
2085;0
2086;0
2087;0
2088;0
2089;0
2090;0
2091;0
2092;0
2093;0
2094;0
2095;0
2096;0
2097;0
2098;0
2099;0
2100;0
2101;0
2102;0
2103;0
2104;0
2105;0
2106;0
2107;0
2108;0
2109;0
2110;0
2111;0
2112;0
2113;0
2114;0
2115;0
2116;0
2117;0
2118;0
2119;0
2120;0
2121;0
2122;0
2123;0
2124;0
2125;0
2126;0
2127;0
2128;0
2129;0
2130;0
2131;0
2132;0
2133;6
2134;0
2135;3
2136;0
2137;0
2138;2
2139;0
2140;1
2141;1
2142;2
2143;5
2144;0
2145;0
2146;2
2147;0
2148;5
2149;7
2150;3
2152;752
2153;471
2154;509
2155;96
2156;90
2157;103
2158;68
2159;67
2160;82
2161;0
2162;0
2163;0
2164;129
2165;0
2167;1000
2168;46
2169;1280
2170;0
2171;17
2172;0
2173;0
2174;0
2175;0
2176;201
2177;87
2178;1
2179;1
2180;0
2181;0
2182;108
2183;0
2184;0
2185;0
2186;0
2187;0
2188;0
2189;2
2190;0
2191;0
2192;0
2193;0
2194;0
2195;0
2196;0
2197;10
2198;0
2199;0
2202;0
2203;0
2204;0
2205;15
2206;0
2207;0
2208;0
2210;0
2211;0
2213;4781
2214;2
2215;0
2216;2
2217;2
2219;2
2220;1
2221;2
2222;2
2223;2
2224;2
2225;0
2226;2
2227;2
2228;2
2229;0
2230;0
2231;2
2232;1
2233;0
2234;1
2235;2
2236;2
2237;2
2238;2
2239;2
2240;3
2241;2
2242;2
2243;2
2244;2
2245;2
2246;3
2247;0
2248;0
2249;0
2250;0
2251;0
2252;0
2253;0
2254;0
2255;7
2256;8
2257;1
2258;3
2259;2
2260;5
2261;0
2262;0
2263;11
2264;3
2265;8
2266;1
2267;1
2268;0
2269;2
2270;9
2271;0
2272;7
2273;0
2274;0
2275;0
2276;0
2277;0
2278;5
2279;1
2281;0
2282;0
2283;233
2284;174
2285;414
2286;60
2287;305
2288;68
2289;60
2290;15
2291;12
2292;0
2293;0
2294;67
2295;0
2296;6
2297;0
2298;0
2299;0
2300;0
2301;0
2302;0
2303;0
2304;0
2305;0
2306;0
2307;0
2308;0
2312;27
2313;28
2314;28
2315;67
2316;118
2317;115
2318;114
2319;103
2320;74
2321;99
2322;27
2323;23
2324;11
2325;6
2326;0
2327;0
2328;78
2329;78
2330;0
2331;2
2332;0
2333;0
2334;10
2335;0
2336;0
2337;0
2338;0
2339;0
2340;0
2341;3343
2342;375
2343;0
2344;0
2345;2
2346;2
2347;540
2348;4988
2349;5040
2350;9
2351;47
2352;52
2353;0
2354;142
2355;0
2356;0
2357;0
2358;0
2359;138
2360;520
2361;1277
2362;1
2363;0
2364;0
2365;0
2366;30
2367;40
2368;40
2369;50
2370;2
2371;0
2372;1
2373;3
2374;0
2375;1
2376;0
2377;2
2378;1
2379;87
2380;650
2381;0
2382;0
2383;0
2384;0
2392;2
2393;1
2394;2
2395;3
2396;1
2397;0
2398;0
2399;0
2400;0
2401;0
2402;0
2403;0
2404;0
2405;0
2406;0
2407;0
2408;0
2409;150
2410;100
2411;250
2412;0
2413;0
2414;0
2415;200
2416;36
2417;28
2418;357
2419;574
2420;0
2421;0
2422;0
2423;0
2424;364
2425;1
2426;2
2427;2
2428;475
2429;7
2430;249
2431;249
2432;0
2433;0
2434;231
2435;132
2436;0
2437;212
2438;0
2439;1
2440;69
2441;0
2442;0
2443;39
2444;62
2445;38
2446;38
2447;38
2448;39
2449;32
2450;15
2451;27
2452;33
2453;1
2454;1
2455;1
2456;1
2457;2
2458;196
2459;180
2460;20
2461;11
2462;9
2463;11
2464;98
2465;98
2466;270
2467;34
2468;94
2469;10
2470;0
2471;5
2473;0
2474;197
2475;1
2476;12
2477;10
2478;51
2479;1035
2480;86
2481;312
2482;256
2483;50
2484;0
2485;1
2486;500
2487;2500
2488;5
2489;2
2490;2
2491;2
2492;1
2493;0
2494;0
2495;0
2496;2
2497;2
2498;1
2499;1
2500;1
2501;30
2502;0
2503;289
2504;11
2505;0
2506;2
2507;0
2508;362
2509;0
2510;0
2511;0
2512;0
2513;0
2514;0
2516;0
2517;2
2518;0
2519;0
2520;0
2521;0
2522;0
2523;0
2524;0
2525;0
2526;0
2527;0
2528;0
2529;0
2530;0
2531;0
2532;0
2533;0
2534;0
2536;0
2537;0
2538;0
2539;0
2540;0
2541;0
2542;0
2543;0
2544;487
2545;128
2546;0
2547;5
2548;5
2549;5
2550;5
2551;5
2552;5
2553;5
2554;5
2555;5
2556;5
2557;30
2558;10
2559;10
2560;9
2561;4
2562;4
2563;1
2565;151
2566;463
2567;407
2568;142
2569;1
2570;0
2571;3
2572;0
2573;0
2574;0
2575;0
2576;818
2577;76
2579;14
2580;1
2581;1
2582;2
2583;6
2584;16
2585;0
2586;1
2587;1
2588;1
2589;14
2590;20
2591;8
2592;1
2593;1
2594;6
2595;1
2596;1
2597;1
2598;599
2599;607
2600;500
2601;395
2602;0
2603;0
2604;0
2605;0
2606;0
2607;0
2608;2
2609;0
2612;47
2613;44
2614;48
2615;0
2616;0
2617;1
2618;0
2619;0
2620;26
2621;50
2622;0
2628;0
2629;0
2630;8
2631;0
2632;0
2633;0
2634;0
2635;0
2636;0
2637;0
2638;0
2639;0
2640;0
2641;0
2642;0
2643;0
2644;0
2645;0
2646;0
2647;0
2648;0
2649;0
2650;0
2651;0
2652;0
2653;1
2654;0
2655;0
2656;0
2657;0
2658;0
2659;0
2660;0
2661;0
2662;0
2663;0
2664;0
2665;0
2666;0
2667;0
2668;0
2669;0
2670;0
2671;0
2672;0
2673;0
2674;0
2675;0
2676;0
2677;0
2678;0
2679;0
2680;500
2681;0
2682;530
2683;0
2684;512
2685;0
2686;0
2687;0
2688;0
2689;0
2690;0
2691;0
2692;532
2693;0
2694;531
2695;0
2696;556
2697;0
2698;0
2699;0
2700;495
2701;0
2702;488
2703;0
2704;0
2705;0
2706;0
2707;0
2708;0
2709;0
2714;5
2715;17
2716;5
2717;27
2718;23
2719;9
2720;5
2721;9
2722;9
2723;12
2724;7
2726;0
2727;0
2728;1
2729;1
2730;1
2731;1
2732;1
2733;0
2734;0
2735;0
2736;0
2737;0
2738;0
2739;0
2740;0
2741;0
2742;0
2743;0
2744;250
2745;0
2746;0
2747;0
2748;0
2749;0
2750;0
2751;0
2752;0
2753;0
2754;0
2755;0
2756;0
2757;0
2758;0
2759;0
2760;0
2761;0
2762;0
2763;0
2764;1100
2765;0
2766;0
2767;0
2768;0
