1;0
2;0
3;3
4;9
5;17
6;1
7;2
8;0
9;0
10;0
11;17
12;11
13;16
14;1
15;3
16;14
17;9
18;4
19;12
20;5
21;5
22;4
23;0
25;30
26;3
27;8
28;8
29;2
30;0
31;0
32;0
33;0
34;0
35;0
36;0
37;0
38;3
39;9
40;34
41;55
42;12
43;18
44;97
45;56
46;48
47;27
48;20
49;69
50;24
51;55
52;62
53;8
54;7
55;179
56;50
57;11
58;19
59;0
60;18
61;299
62;10
63;0
64;2
65;2
66;2
67;2
68;3
69;2
70;33
71;0
72;22
73;21
74;6
75;2
76;3
77;5
78;0
79;18
80;0
81;23
82;14
83;7
84;0
85;17
87;0
88;0
89;0
90;3
91;16
92;14
93;0
94;38
95;49
96;0
97;0
98;7
99;6
100;23
101;0
102;0
103;4679
104;812
105;205
106;361
107;939
108;1634
109;537
110;518
111;385
112;0
113;0
114;0
115;0
116;0
117;0
118;0
119;0
120;0
121;0
122;0
123;0
124;0
126;0
127;0
128;0
129;17
130;0
131;980
132;375
133;1000
134;720
135;3543
136;592
137;63
138;839
139;868
140;2966
141;686
142;0
143;769
144;66
145;899
146;1750
147;205
148;160
149;800
150;511
151;763
152;549
153;1352
154;1165
155;1000
156;1310
157;910
158;2310
159;665
160;325
161;0
162;0
163;0
164;0
166;0
167;0
168;0
169;0
170;0
171;0
172;0
173;0
174;0
175;0
176;0
177;0
178;0
179;0
180;0
181;0
182;0
183;0
185;0
186;0
187;0
188;0
189;0
190;0
191;0
192;0
193;0
195;0
196;0
197;0
198;0
199;0
200;0
201;0
202;0
203;0
204;0
205;0
206;0
207;0
208;0
209;0
210;0
211;0
212;0
213;0
214;0
215;0
216;0
217;0
218;0
219;0
220;0
221;0
222;0
223;0
224;0
225;0
226;0
227;0
228;0
229;0
230;0
231;0
232;0
233;0
234;4890
235;496
236;197
237;604
239;846
240;0
241;0
242;0
243;0
244;0
245;0
246;0
247;0
248;0
249;0
250;0
251;0
253;0
254;0
255;0
256;0
257;0
258;0
259;0
260;0
261;821
262;396
263;462
264;255
265;0
266;75
267;288
268;469
269;388
270;670
271;0
272;0
273;0
274;0
275;0
276;0
277;0
278;0
279;0
280;0
281;0
282;0
283;0
284;0
285;0
286;0
287;0
288;0
289;0
290;0
291;0
292;0
293;0
294;0
295;0
296;0
297;0
298;0
299;0
300;0
301;0
302;0
303;0
304;0
305;0
306;0
307;0
308;0
309;0
310;0
311;0
312;0
313;0
314;0
315;0
318;0
319;0
320;0
321;0
322;0
323;0
324;0
325;0
326;0
327;0
328;0
329;0
330;0
331;0
332;0
333;0
334;0
335;0
336;665
337;675
338;675
339;328
340;0
341;0
342;102
343;0
344;0
345;838
346;18
347;0
348;0
349;0
350;0
351;0
353;0
354;0
355;0
356;0
357;0
358;0
359;0
360;0
361;0
362;0
363;0
364;0
365;0
366;0
367;0
368;0
369;0
370;0
371;0
372;0
373;0
374;0
375;0
376;0
377;0
378;0
379;0
380;0
381;0
382;0
383;0
384;0
385;0
386;0
387;0
388;0
389;0
390;0
391;0
392;0
393;0
394;0
395;0
397;0
398;10
399;4
400;10
401;27
402;0
403;0
404;0
405;0
406;0
407;0
408;0
409;0
410;0
411;0
412;0
413;0
414;0
415;0
416;0
417;0
418;0
419;0
420;0
421;0
422;0
423;0
424;0
425;0
426;0
427;0
428;0
429;0
430;0
431;0
432;0
433;0
434;0
435;0
436;0
437;0
438;0
439;0
442;0
443;0
444;0
445;0
446;0
447;0
448;0
449;0
451;221
452;117
453;134
454;79
455;95
456;184
457;239
458;470
459;152
460;45
461;56
462;253
463;75
464;102
465;234
466;0
467;28
468;86
469;110
470;107
471;53
472;0
473;716
503;0
504;0
505;48
506;0
507;55
508;0
509;162
510;12
511;0
512;0
516;15
517;15
518;32
519;0
526;0
527;30
528;30
529;0
539;655
540;28
541;238
542;47
543;495
544;0
545;1246
546;996
547;431
548;49
549;0
550;619
551;368
552;53
553;338
554;1069
555;958
556;39
557;95
558;423
559;876
560;272
561;387
562;373
563;113
564;309
565;656
566;98
567;3
568;0
569;0
570;0
571;149
572;0
573;121
574;0
575;309
576;0
577;0
578;0
579;0
580;0
581;0
582;500
583;0
584;997
585;100
586;318
587;0
588;178
589;2501
590;284,90
591;60
592;151
593;206
594;87
595;25
596;37
597;56
598;37
599;30
600;60
601;203
602;73
603;98
604;42
605;303
606;155
607;0
608;179
609;136
610;320
611;190
612;221
613;0
614;609
615;972
616;8000
617;0
618;0
619;30000
620;0
621;1540
622;0
623;0
624;0
625;0
626;0
627;0
628;0
629;14771
630;2223
631;0
632;80
633;393
634;376
635;214
636;3000
637;1500
638;0
639;535
640;380
641;0
642;266
643;602
644;500
645;284
646;620
647;256
648;63
649;557
650;0
651;406
652;384
653;289
654;1446
655;82
656;2106
657;88
658;0
659;0
660;211
661;1137
662;110
664;0
665;0
666;0
667;0
668;0
669;0
670;0
671;0
672;0
673;0
674;0
675;0
676;0
677;11
678;0
679;0
680;0
681;0
682;0
683;0
684;0
685;0
686;0
687;0
689;1
691;5
692;0
693;0
694;31
695;4
696;16
697;9
698;13
699;0
700;0
701;2
702;3
703;8
704;1
705;2
706;1
707;0
708;0
709;0
710;2
711;2
712;1
713;3
714;0
715;1
716;2
717;0
718;0
719;1
720;0
721;0
722;1
723;0
724;0
725;0
726;0
727;0
728;1
729;0
730;0
731;0
732;0
733;0
734;0
735;0
736;0
737;0
738;0
739;0
740;0
741;0
742;1895
743;0
744;0
745;0
746;0
747;0
748;0
749;0
750;0
751;0
752;0
753;0
754;0
755;1
756;0
757;0
758;0
759;0
760;0
761;0
762;0
763;0
764;0
765;0
766;0
767;0
768;0
769;0
770;0
771;0
772;0
773;0
774;0
775;0
776;0
777;0
778;0
779;0
780;0
781;0
782;0
783;1
784;0
785;0
786;0
787;0
788;0
789;0
790;0
791;0
792;0
793;0
794;23,705012
795;0
796;0
797;0
798;0
799;0
800;0
801;0
802;0
803;0
804;0
805;0
806;0
807;0
808;0
809;0
810;0
811;0
812;0
813;0
814;0
815;0
816;0
817;0
818;0
819;0
820;0
821;0
822;0
823;0
824;0
825;0
826;0
827;20
828;14
829;20
830;20
831;4
832;5
833;0
834;8
835;173
836;18
837;0
838;71
839;60
840;19
841;13
842;0
843;0
844;0
845;0
846;0
847;76
848;1
849;0
850;0
851;0
852;0
853;0
854;0
855;0
856;0
857;0
858;0
859;0
860;0
861;0
862;0
863;27
864;18
865;0
866;0
867;0
868;0
869;0
870;0
871;0
872;0
873;0
874;0
875;0
876;0
877;0
879;0
880;0
881;0
882;0
883;0
884;0
885;0
886;0
887;0
888;0
889;0
890;0
891;0
892;0
893;0
894;0
895;0
896;0
897;0
898;0
899;0
900;0
901;0
902;0
903;0
904;0
905;0
906;0
907;0
908;0
909;0
910;0
911;0
912;0
913;0
914;0
915;0
916;0
917;0
918;0
919;0
920;0
921;0
922;0
923;0
924;0
925;0
926;0
939;3
940;269
941;114
942;57
943;21
944;53
945;25
946;50
947;96
948;24
949;23
950;15
951;23
952;30
953;25
954;122
955;149
956;56
957;36
958;16
959;0
960;0
961;0
962;118
963;0
964;262
965;5
966;0
967;0
968;0
969;0
970;0
971;0
972;0
973;0
974;0
975;0
976;0
977;0
978;0
979;0
980;0
981;4000
982;0
983;0
984;0
985;0
986;0
987;0
988;0
989;0
990;0
991;0
992;1
993;0
994;0
995;0
996;0
997;2
998;2
999;3
1000;10
1001;1
1002;1
1003;8
1004;3
1005;2
1006;2
1008;62
1009;74
1010;0
1011;0
1012;269
1013;117
1014;108
1015;261
1016;317
1017;703
1018;215
1019;832
1020;3767
1021;623
1022;0
1023;361
1024;85
1025;0
1026;0
1027;0
1028;0
1029;489
1030;117
1031;137
1032;0
1033;0
1034;128
1035;0
1036;1399
1037;-150
1038;97
1042;0
1043;1
1044;0
1045;0
1046;0
1047;1
1048;0
1049;1
1050;217
1051;173
1052;215
1053;186
1054;161
1055;157
1056;135
1057;198
1058;119
1059;43
1060;10
1061;68
1062;99
1063;118
1064;52
1065;103
1066;29
1067;0
1068;0
1069;0
1070;0
1071;0
1072;33
1073;31
1074;119
1075;50
1076;63
1077;99
1078;74
1079;68
1080;45
1081;79
1082;70
1083;74
1084;0
1085;66
1086;95
1087;47
1088;48
1089;38
1090;3
1091;2
1092;21
1093;123
1094;85
1095;94
1096;17
1097;36
1098;29
1099;83
1100;70
1101;32
1102;43
1103;38
1104;13
1105;64
1106;102
1107;43
1108;23
1109;84
1110;50
1111;32
1112;70
1113;85
1114;245
1115;157
1125;0
1126;17
1127;3
1128;19
1129;100
1130;0
1131;2
1132;124
1133;14
1134;0
1135;18
1136;12
1137;21
1138;2
1139;4
1141;0
1142;0
1143;0
1144;0
1145;0
1146;0
1147;439
1148;2864
1149;368
1150;61,70
1151;0
1152;2
1153;201,50
1154;0
1155;0
1156;0
1157;0
1158;0
1159;0
1160;0
1161;0
1162;0
1163;0
1165;0
1166;0
1167;0
1168;153
1169;28
1170;277
1171;1
1175;0
1176;0
1179;2
1180;0
1181;0
1182;0
1183;79
1184;0
1185;101
1186;451
1187;726
1188;30
1189;0
1190;10
1191;3
1192;3
1193;295
1194;209
1195;7053
1196;55
1197;88
1198;147
1199;90
1200;82
1201;85
1202;116
1203;61
1204;268
1205;141
1206;192
1207;53
1208;227
1209;107
1210;120
1211;0
1212;169
1213;91
1214;0
1215;2
1216;0
1217;0
1218;0
1219;0
1221;0
1222;0
1223;0
1224;0
1225;0
1226;0
1227;0
1228;0
1229;0
1230;0
1231;0
1232;0
1233;0
1234;0
1235;0
1236;0
1237;0
1238;0
1239;0
1240;0
1241;0
1242;0
1243;0
1244;0
1245;0
1246;0
1247;0
1248;2099
1249;0
1250;0
1251;0
1252;0
1253;0
1254;0
1255;0
1256;0
1257;0
1258;0
1259;0
1260;0
1261;0
1262;0
1263;0
1264;0
1265;0
1266;22
1267;16
1268;0
1269;1141
1270;0
1271;0
1272;84
1273;0
1274;545
1275;0
1276;0
1278;0
1279;0
1280;0
1281;0
1282;0
1283;0
1284;0
1285;0
1286;0
1287;0
1288;0
1289;0
1290;0
1291;0
1292;0
1293;0
1295;620
1296;0
1297;0
1298;0
1299;0
1300;0
1301;0
1302;0
1303;0
1304;0
1305;0
1306;0
1307;0
1308;0
1309;0
1310;0
1311;0
1312;0
1313;0
1314;0
1315;0
1316;0
1317;63094
1318;0
1319;0
1320;0
1321;0
1322;1638
1324;3395
1325;0
1326;0
1327;0
1328;0
1329;0
1330;0
1331;0
1332;0
1333;0
1334;0
1335;0
1336;0
1337;0
1338;0
1339;0
1340;0
1341;0
1342;0
1343;0
1344;0
1345;0
1346;0
1347;406
1348;235
1350;0
1351;0
1352;0
1353;0
1355;320
1356;0
1357;0
1358;0
1359;28
1360;22
1361;39
1362;0
1366;140
1367;1082
1368;0
1369;2443
1370;2405
1371;187
1373;0
1374;401
1376;19
1377;0
1378;0
1379;0
1380;0
1381;0
1382;0
1383;0
1384;0
1385;0
1386;0
1387;1
1388;4
1389;5
1390;4
1391;1
1392;5
1393;3
1394;3
1395;4
1396;4
1397;0
1398;0
1399;0
1400;53
1401;0
1403;0
1404;0
1405;0
1406;0
1407;2583
1408;656
1409;1106
1410;1669
1411;297
1412;0
1413;0
1414;442
1415;0
1416;2000
1417;0
1418;2000
1419;54
1420;0
1421;0
1423;0
1424;0
1425;0
1426;700
1427;0
1428;0
1429;1
1430;0
1431;0
1432;0
1433;0
1434;0
1435;0
1436;0
1437;927
1438;0
1439;0
1440;0
1441;42
1442;0
1443;1
1444;0
1445;66
1446;9
1447;15
1448;221
1449;0
1450;5
1451;0
1452;0
1453;0
1454;0
1455;0
1457;0
1458;0
1459;0
1460;2895
1461;0
1462;0
1463;0
1464;0
1465;129
1466;59
1467;2
1468;100
1469;200
1470;0
1471;0
1472;204
1473;159
1476;0
1477;3
1478;0
1479;288
1480;0
1481;70
1482;10
1484;0
1485;0
1486;0
1487;0
1488;0
1489;0
1490;0
1491;0
1492;0
1493;10
1494;10
1495;10
1496;12
1497;10
1498;10
1499;12
1500;12
1501;50
1502;50
1503;39
1504;0
1505;1797
1506;0
1507;0
1508;0
1509;0
1510;0
1511;0
1512;0
1513;0
1514;0
1515;0
1516;0
1517;0
1518;0
1519;0
1520;0
1521;0
1522;0
1523;0
1524;0
1525;182
1526;26
1527;0
1528;42
1529;0
1530;0
1531;17
1532;0
1533;0
1534;0
1535;0
1536;0
1537;20
1538;62
1539;40
1540;0
1541;0
1542;0
1543;0
1544;0
1545;0
1547;0
1548;0
1549;0
1550;0
1551;0
1552;0
1553;0
1554;0
1555;0
1556;0
1557;0
1558;0
1559;0
1560;0
1561;0
1562;0
1563;0
1564;0
1565;0
1566;0
1567;0
1568;0
1569;0
1570;0
1571;0
1572;0
1573;19
1574;0
1575;0
1576;0
1577;229
1578;0
1581;232
1582;182
1583;492
1584;339
1585;282
1586;738
1587;0
1588;80
1589;2
1590;117
1591;26
1592;1
1593;168
1594;0
1595;5
1596;0
1597;0
1598;0
1599;0
1600;0
1601;0
1602;0
1603;0
1604;0
1605;339
1606;59
1607;0
1608;0
1609;0
1610;0
1612;0
1613;0
1614;219
1615;15
1616;0
1617;0
1618;1
1619;0
1620;1
1621;0
1622;45
1623;50
1624;11
1625;21
1626;54
1627;65
1628;38
1629;0
1630;0
1631;0
1632;0
1633;55
1634;56
1635;41
1636;84
1637;64
1638;102
1639;19
1641;32
1642;21
1643;69
1644;93
1645;47
1646;33
1647;53
1648;63
1649;42
1650;33
1651;21
1652;0
1653;16
1654;66
1655;143
1656;134
1657;150
1658;157
1659;132
1660;155
1661;104
1662;104
1663;55
1664;95
1665;55
1666;49
1667;33
1668;95
1669;7
1670;0
1671;4260
1672;0
1673;0
1674;0
1675;0
1676;0
1677;0
1679;0
1680;0
1681;0
1682;3100
1683;0
1684;0
1685;0
1686;0
1687;0
1688;0
1689;0
1691;0
1692;0
1693;0
1694;0
1695;0
1696;0
1697;0
1701;302
1702;0
1703;0
1704;15
1705;0
1706;0
1707;0
1708;0
1709;0
1710;229
1711;0
1712;0
1713;0
1714;0
1715;0
1716;41
1717;30
1718;0
1719;0
1720;0
1721;0
1722;0
1723;0
1724;0
1725;0
1726;0
1727;0
1728;166
1729;154
1730;82
1731;55
1732;70
1733;0
1734;0
1735;0
1736;0
1737;0
1738;0
1739;350
1740;352
1741;0
1745;0
1746;0
1747;0
1748;0
1749;0
1750;0
1751;0
1752;19
1753;500
1754;0
1755;0
1756;0
1757;1
1758;3
1759;1
1760;1
1761;0
1762;0
1763;0
1764;0
1765;3
1766;4
1767;1
1768;0
1769;0
1770;0
1773;0
1774;0
1775;0
1776;0
1777;2
1778;2
1779;0
1780;0
1781;0
1782;0
1783;0
1784;0
1785;0
1786;0
1787;0
1788;0
1789;1832
1790;0
1791;0
1792;78
1793;78
1794;79
1795;65
1796;79
1797;79
1798;63
1799;58
1800;63
1801;46
1802;48
1803;50
1804;20
1805;2438
1806;75
1807;0
1808;0
1809;0
1810;0
1811;21
1812;3
1813;0
1814;185
1815;5
1816;100
1817;48
1818;30
1819;0
1820;0
1821;0
1822;811
1823;0
1824;0
1825;387
1826;0
1827;0
1829;0
1830;0
1831;21
1832;0
1833;37
1834;0
1835;0
1836;0
1837;0
1838;0
1839;2
1840;10
1841;0
1842;0
1843;0
1844;24
1845;184
1846;75
1847;0
1848;1
1849;3
1850;0
1851;0
1852;0
1853;0
1854;0
1855;0
1856;0
1857;0
1858;0
1859;0
1861;0
1862;0
1863;0
1864;2
1865;0
1866;0
1867;0
1868;0
1869;243
1870;0
1872;0
1873;0
1874;0
1875;0
1876;0
1877;0
1878;0
1879;0
1880;0
1881;0
1882;0
1883;0
1884;0
1885;0
1886;0
1887;0
1888;0
1889;0
1890;0
1891;0
1892;0
1893;0
1894;0
1895;0
1896;0
1897;0
1898;0
1899;0
1900;336
1901;0
1902;0
1903;0
1904;6
1905;4
1906;18
1907;3
1908;6
1909;6
1910;0
1911;8
1912;18
1913;0
1914;3
1915;2
1916;2
1917;0
1918;10
1919;4
1920;81
1921;3
1923;26
1924;231
1925;174
1926;52
1927;33
1928;17
1929;26
1930;32
1932;27
1933;37
1934;31
1935;20
1936;21
1937;31
1938;89
1939;80
1940;20
1941;103
1942;28
1943;5
1944;6
1945;20
1946;20
1947;13
1948;66
1949;13
1950;7
1951;60
1952;7
1953;7
1954;22
1955;100
1956;24
1957;24
1958;32
1959;0
1960;3
1961;0
1962;0
1963;1050
1964;1100
1965;0
1966;0
1967;0
1968;0
1969;0
1972;0
1973;0
1974;0
1975;0
1976;0
1977;0
1978;0
1979;0
1980;0
1981;211
1982;30
1983;0
1984;0
1985;0
1986;0
1987;0
1988;30
1989;70
1990;74
1991;19
1992;47
1993;18
1994;33
1995;73
1996;27
1997;24
1998;28
1999;24
2000;61
2001;35
2002;12
2008;4
2009;0
2010;0
2011;0
2012;0
2013;3
2014;0
2015;0
2016;0
2017;0
2018;5
2019;0
2020;0
2021;0
2022;0
2023;6
2024;0
2025;0
2026;0
2027;0
2028;1
2029;0
2030;3
2031;3
2032;0
2033;0
2034;0
2035;0
2036;0
2037;5
2038;7
2039;0
2040;0
2041;229
2042;227
2044;128
2045;39
2047;88
2048;0
2049;0
2050;2
2051;40
2052;57
2053;7
2054;315
2055;211
2056;182
2057;0
2058;0
2059;0
2060;0
2061;0
2062;0
2063;0
2064;0
2065;774
2066;0
2067;0
2068;211
2069;984
2077;1095
2078;1188
2079;858
2080;0
2081;0
2082;0
2083;0
2084;0
2085;0
2086;0
2087;0
2088;0
2089;0
2090;0
2091;0
2092;0
2093;0
2094;364
2095;0
2096;0
2097;0
2098;0
2099;0
2100;0
2101;0
2102;0
2103;0
2104;0
2105;0
2106;0
2107;0
2108;0
2109;0
2110;0
2111;0
2112;0
2113;0
2114;0
2115;0
2116;0
2117;0
2118;0
2119;0
2120;0
2121;0
2122;0
2123;0
2124;0
2125;0
2126;0
2127;0
2128;0
2129;0
2130;0
2131;0
2132;0
2133;6
2134;0
2135;3
2136;0
2137;0
2138;2
2139;0
2140;1
2141;2
2142;2
2143;5
2144;0
2145;0
2146;3
2147;0
2148;5
2149;6
2150;3
2152;752
2153;448
2154;496
2155;87
2156;80
2157;98
2158;18
2159;35
2160;64
2161;0
2162;0
2163;0
2164;126
2165;0
2167;1000
2168;450
2169;3369
2170;0
2171;13
2172;0
2173;0
2174;0
2175;0
2176;100
2177;127
2178;1
2179;1
2180;0
2181;0
2182;108
2183;0
2184;0
2185;9
2186;2
2187;3
2188;0
2189;4
2190;0
2191;0
2192;0
2193;0
2194;0
2195;0
2196;0
2197;10
2198;0
2199;0
2202;0
2203;0
2204;0
2205;15
2206;0
2207;0
2208;0
2210;0
2211;0
2213;4265
2214;1
2215;0
2216;5
2217;5
2219;2
2220;5
2221;2
2222;2
2223;1
2224;3
2225;1
2226;1
2227;1
2228;2
2229;1
2230;1
2231;1
2232;1
2233;0
2234;0
2235;2
2236;2
2237;1
2238;2
2239;2
2240;0
2241;2
2242;1
2243;2
2244;2
2245;1
2246;3
2247;0
2248;0
2249;0
2250;0
2251;0
2252;0
2253;0
2254;0
2255;7
2256;8
2257;1
2258;3
2259;2
2260;4
2261;0
2262;0
2263;11
2264;2
2265;8
2266;1
2267;0
2268;0
2269;1
2270;6
2271;0
2272;7
2273;0
2274;0
2275;0
2276;0
2277;0
2278;5
2279;1
2281;15
2282;-500
2283;430
2284;271
2285;147
2286;182
2287;297
2288;101
2289;62
2290;88
2291;6
2292;992
2293;0
2294;200
2295;16
2296;12
2297;0
2298;0
2299;0
2300;0
2301;0
2302;0
2303;0
2304;0
2305;0
2306;0
2307;0
2308;0
2312;20
2313;60
2314;47
2315;31
2316;21
2317;36
2318;36
2319;64
2320;77
2321;118
2322;50
2323;83
2324;9
2325;5
2326;0
2327;0
2328;78
2329;78
2330;0
2331;18
2332;0
2333;0
2334;10
2335;0
2336;0
2337;0
2338;0
2339;0
2340;0
2341;4443
2342;124
2343;0
2344;0
2345;2
2346;2
2347;772
2348;3097
2349;5868
2350;6
2351;37
2352;0
2353;20
2354;69
2355;0
2356;0
2357;0
2358;0
2359;438
2360;20
2361;959
2362;0
2363;0
2364;0
2365;0
2366;30
2367;40
2368;40
2369;50
2370;1
2371;0
2372;0
2373;5
2374;0
2375;2
2376;2
2377;2
2378;2
2379;1138
2380;196
2381;0
2382;0
2383;0
2384;0
2392;2
2393;1
2394;2
2395;3
2396;2
2397;0
2398;0
2399;0
2400;0
2401;0
2402;0
2403;0
2404;0
2405;0
2406;0
2407;0
2408;0
2409;150
2410;100
2411;250
2412;0
2413;0
2414;0
2415;200
2416;19
2417;20
2418;43
2419;224
2420;0
2421;60
2422;0
2423;0
2424;184
2425;0
2426;14
2427;10
2428;239
2429;1
2430;0
2431;202
2432;1
2433;0
2434;296
2435;3
2436;0
2437;212
2438;0
2439;1
2440;37
2441;0
2442;0
2443;20
2444;34
2445;17
2446;22
2447;17
2448;4
2449;9
2450;17
2451;10
2452;33
2453;1
2454;1
2455;1
2456;1
2457;0
2458;136
2459;119
2460;18
2461;7
2462;7
2463;8
2464;157
2465;149
2466;197
2467;24
2468;84
2469;10
2470;0
2471;10
2473;0
2474;155
2475;1
2476;3
2477;0
2478;27
2479;765
2480;56
2481;252
2482;226
2483;50
2484;0
2485;1
2486;500
2487;2440
2488;5
2489;2
2490;2
2491;1
2492;2
2493;2
2494;1
2495;0
2496;2
2497;0
2498;2
2499;2
2500;1
2501;30
2502;0
2503;297
2504;11
2505;0
2506;260
2507;103
2508;302
2509;0
2510;0
2511;0
2512;0
2514;0
2516;0
2517;2
2518;0
2519;0
2520;0
2521;0
2522;0
2523;0
2524;0
2525;0
2526;0
2527;0
2528;0
2529;0
2530;0
2531;0
2532;0
2533;0
2534;0
2536;0
2537;0
2538;0
2539;0
2540;0
2541;0
2542;0
2543;0
2544;220
2545;128
2546;0
2547;5
2548;5
2549;5
2550;5
2551;5
2552;5
2553;5
2554;5
2555;5
2556;5
2557;30
2558;10
2559;10
2560;9
2561;4
2562;4
2563;1
2565;158
2566;290
2567;385
2568;92
2569;1
2570;0
2571;2
2572;0
2573;0
2575;0
2576;4154
2577;1283
2579;14
2580;1
2581;1
2582;2
2583;6
2584;16
2585;0
2586;1
2587;1
2588;1
2589;14
2590;20
2591;8
2592;1
2593;1
2594;6
2595;1
2596;1
2597;1
2598;109
2599;234
2600;181
2601;514
2602;0
2603;0
2604;0
2605;0
2606;0
2607;0
2608;2
2609;0
2612;42
2613;39
2614;0
2615;8
2616;16
2617;1
2618;0
2619;69
2620;0
2621;0
2622;72
2628;0
2629;1
2630;0
2631;0
2632;0
2633;0
2634;0
2635;0
2636;0
2637;0
2638;0
2639;0
2640;3
2641;0
2642;0
2643;0
2644;0
2645;0
2646;0
2647;0
2648;2
2649;0
2650;0
2651;0
2652;0
2653;2
2654;0
2655;6
2656;3
2657;0
2658;0
2659;0
2660;0
2661;0
2662;9
2663;2
2664;7
2665;2
2666;0
2667;0
2668;0
2669;0
2670;2
2671;1
2672;18
2673;0
2674;0
2675;0
2676;0
2677;0
2678;0
2679;0
2680;499
2681;0
2682;527
2683;0
2684;388
2685;0
2686;56
2687;0
2688;22
2689;0
2690;0
2691;0
2692;531
2693;0
2694;531
2695;0
2696;555
2697;0
2698;15
2699;0
2700;492
2701;0
2702;408
2703;0
2704;0
2705;0
2706;0
2707;0
2708;0
2709;0
2714;3
2715;1
2716;19
2717;16
2718;18
2719;0
2720;2
2721;2
2722;7
2723;12
2724;7
2726;64
2727;0
2728;1
2729;1
2730;1
2731;1
2732;1
2733;0
2734;0
2735;243
2736;48
2737;358
2738;100
2739;383
2740;100
2741;319
2742;68
2743;0
2744;963
2745;0
2746;0
2747;0
2748;0
2749;0
2750;0
2751;0
2752;0
2753;0
2754;0
2755;0
2756;0
2757;0
2758;0
2759;0
2760;0
2761;0
2762;0
2763;0
2764;1100
2765;0
2766;18,5680
2767;0
2768;0
2769;0
2770;0
2771;0
2772;599
2773;26
2774;35
2775;5
2779;0
2781;84
2782;0
2783;226
2784;0
2785;203
2786;0
2787;0
2788;764
2789;0
2790;0
2791;1
2792;1
2793;1
2794;2
2795;1
2796;1
2797;0
2798;1
2799;3
2800;0
2801;2
2802;1
2803;1
2804;1
2805;1
2806;1
2807;1
2808;8
2809;8
2810;49
2811;25
2812;14
2813;0
2814;17
2815;3
2816;0
2817;3
2818;0
2819;0
2820;0
2821;0
2822;0
2823;0
2824;0
2825;0
2826;0
2827;0
2828;0
2829;0
2830;1390
2831;0
2832;0
2833;0
2834;0
2835;0
2836;120
2837;88000
2838;0
2839;0
2840;0
2841;0
2842;0
2843;0
2844;2
2845;0
2846;0
2847;0
2848;1
2849;0
2850;0
2851;3
2852;0
2853;0
2854;0
2855;1
2856;0
2857;0
2858;2
2859;0
2860;0
2861;0
2862;3
2863;0
2864;0
2865;0
2866;0
2867;0
2868;0
2869;2
2870;0
2871;0
2872;0
2873;0
2874;0
2875;0
2876;1
2877;0
2878;0
2879;2
2880;0
2881;0
2882;0
2883;0
2884;0
2885;0
2886;3
2887;0
2888;0
2889;0
2890;1
2891;1
2892;0
2893;0
2894;5
2895;0
2896;0
2897;0
2898;0
2899;3
2900;0
2901;0
2902;0
2903;0
2904;0
2905;0
2906;0
2907;0
2908;0
2909;0
2910;0
2911;0
2912;0
2913;0
2914;5
2915;0
2916;0
2917;0
2918;0
2919;4
2920;0
2921;0
2922;0
2923;0
2924;0
2925;0
2926;0
2927;0
2928;0
2929;4
2930;0
2931;0
2932;0
2933;0
2934;391
2935;174
2936;0
2937;780
2938;0
2939;0
2940;0
2941;0
2942;0
2943;0
2944;0
2945;0
2946;0
2947;0
2948;0
2949;0
2950;0
2951;0
2952;0
2954;0
2955;0
2956;0
2957;0
2958;0
2959;0
2960;0
2961;0
2962;0
2963;0
2965;0
2966;0
2967;0
2968;0
2969;0
2972;0
2973;0
2974;0
2975;0
2976;0
2977;0
2978;0
2979;0
2980;0
2981;0
2982;0
2983;0
2984;0
2985;0
2986;0
2987;0
2988;0
2989;0
2990;0
2991;0
2992;0
2993;0
2994;0
2995;0
2996;0
2997;0
2998;0
2999;4,9960
3000;0
3001;0
3002;0
3003;0
3004;0
3005;0
3006;0
3007;0
3008;0
3009;0
3010;0
3011;0
3012;0
3013;0
3014;0
3015;0
3016;0
3017;0
3018;0
3019;0
3020;0
3021;0
3022;0
3023;0
3024;5
3025;1
3026;0
3027;0
3028;0
3029;0
3030;0
3031;0
3032;0
3033;0
3034;0
3035;603
3036;200
3037;0
3038;0
3039;498
3040;0
3041;401
3042;0
3043;0
3044;0
3045;4
3046;13
3047;0
3048;0
3049;1004
3050;1423
3051;478
3052;33
3053;157
3054;0
3055;0
3056;0
3057;100
3058;0
3059;0
3060;0
3061;0
3062;0
3063;0
3064;0
3065;0
3066;0
3067;83
3068;0
3069;446
3070;0
3071;0
3072;0
3073;0
3074;2000
3075;0
3076;292
3077;0
3078;0
3079;0
3080;0
3081;0
3082;0
3083;0
3084;0
3085;0
3086;1000
3087;0
3088;0
3090;0
3091;0
3092;0
3093;0
3095;439
3096;30
3097;0
3098;3873
3099;3
3100;0
3101;0
3102;48,8480
3103;0
3104;6
3105;50
3106;575
3107;0
3108;0
3109;0
3110;0
3111;0
3112;0
3113;0
3114;20
3115;0
3116;0
3117;0
3118;0
3119;0
3120;0
3121;0
3122;0
3123;0
3124;0
3125;0
3126;2
3127;10
3128;0
3129;0
3130;0
3131;0
3132;0
3133;0
3134;0
3137;0
3138;0
3139;0
3140;0
3141;0
3142;0
3143;153
3144;0
3145;0
3146;0
3147;0
3148;0
3149;0
3150;0
3151;0
3152;0
3153;0
3154;0
3155;0
3156;10
3157;10
3158;112
3159;0
3160;0
3161;0
3162;0
3163;0
3164;0
3165;0
3166;0
3167;0
3168;0
3169;0
3170;0
3171;0
3172;0
3173;0
3174;0
3175;40
3176;10
3177;5
3178;0
3179;500
3180;350
3181;350
3182;350
3183;250
3184;200
3185;200
3186;150
3187;0
3188;0
3189;0
3190;0
3191;0
3192;0
3193;0
3194;0
3195;0
3196;0
3197;130
3198;130
3199;0
3200;0
3201;0
3202;100
3203;25
3204;25
3205;0
3206;0
3207;0
3208;5
3209;5
3210;5
3211;10
3212;5
3213;10
3214;5
3215;5
3216;5
3217;10
3218;5
3219;10
3220;10
3221;10
3222;30
3223;30
3224;840
3225;840
