1;0
2;0
3;2
4;2
5;4
6;4
7;1
8;0
9;0
10;0
11;12
12;0
13;1
14;6
15;2
16;15
17;7
18;2
19;1
20;5
21;11
22;17
23;0
25;34
26;5
27;8
28;2
29;3
30;0
31;0
32;0
33;0
34;0
35;0
36;0
37;0
38;12
39;33
40;32
41;90
42;10
43;11
44;180
45;87
46;38
47;20
48;43
49;111
50;18
51;25
52;18
53;30
54;14
55;110
56;41
57;6
58;7
59;0
60;17
61;392
62;7
63;0
64;2
65;3
66;5
67;2
68;3
69;2
70;28
71;0
72;12
73;18
74;6
75;2
76;3
77;5
78;0
79;17
80;2
81;23
82;27
83;19
84;5
85;28
87;0
88;0
89;0
90;20
91;56
92;7
93;42
94;51
95;15
96;22
97;36
98;7
99;36
100;20
101;0
102;0
103;4679
104;812
105;0
106;361
107;939
108;1634
109;537
110;518
111;385
112;2200
113;2616
114;1800
115;3264
116;1023
117;2876
118;4035
119;509
120;1599
121;2140
122;0
123;1100
124;0
126;3828
127;526
128;1459
129;17
130;0
131;980
132;375
133;1000
134;720
135;3543
136;592
137;63
138;839
139;1196
140;2966
141;1185
142;0
143;769
144;66
145;899
146;1750
147;205
148;160
149;800
150;511
151;763
152;549
153;4804
154;1165
155;724
156;1310
157;860
158;810
159;665
160;325
161;1782
162;2562
163;2098
164;1500
166;5858
167;5914
168;3300
169;2750
170;2625
171;3500
172;3250
173;8000
174;4600
175;4189
176;3440
177;0
178;5800
179;3790
180;270
181;17520
182;3198
183;1467
185;11360
186;4800
187;4829
188;3107
189;7400
190;3500
191;1700
192;4780
193;4000
195;4300
196;6880
197;0
198;3369
199;3840
200;7700
201;4830
202;0
203;10300
204;4807
205;4043
206;0
207;0
208;2299
209;4711
210;4951
211;859
212;4800
213;5000
214;3720
215;4900
216;2259
217;2860
218;4449
219;4600
220;229
221;0
222;0
223;2400
224;4305
225;0
226;2751
227;4619
228;2770
229;4620
230;2823
231;1200
232;5172
233;4800
234;2114
235;191
236;377
237;589
239;3846
240;7258
241;6500
242;0
243;12691
244;600
245;0
246;4720
247;0
248;2458
249;5971
250;0
251;0
253;0
254;0
255;0
256;0
257;0
258;0
259;0
260;0
261;2125
262;1652
263;1672
264;225
265;0
266;75
267;44
268;469
269;231
270;670
271;0
272;0
273;135
274;0
275;261
276;200
277;1767
278;0
279;308
280;6241
281;7559
282;3147
283;1346
284;0
285;16
286;1172
287;529
288;437
289;0
290;0
291;0
292;448
293;2052
294;1020
295;100
296;537
297;0
298;0
299;0
300;0
301;0
302;4330
303;748
304;3520
305;1440
306;0
307;0
308;0
309;11232
310;0
311;91
312;87
313;20
314;0
315;207
318;68
319;1833
320;0
321;0
322;793
323;2
324;0
325;733
326;30
327;0
328;0
329;0
330;2633
331;0
332;0
333;0
334;0
335;1128
336;745
337;832
338;836
339;320
340;0
341;0
342;102
343;0
344;0
345;597
346;18
347;0
348;0
349;0
350;0
351;0
353;0
354;0
355;0
356;200
357;0
358;0
359;5
360;0
361;0
362;0
363;0
364;0
365;0
366;0
367;0
368;0
369;0
370;0
371;0
372;0
373;0
374;0
375;0
376;0
377;0
378;0
379;0
380;0
381;0
382;0
383;0
384;0
385;0
386;0
387;0
388;0
389;0
390;0
391;0
392;0
393;0
394;200
395;0
397;0
398;10
399;3
400;14
401;0
402;4926
403;10490
404;8572
405;42647
406;11877
407;3520
408;7201
409;4794
410;925
411;1605
412;11310
413;4900
414;5000
415;4643
416;0
417;37078
418;5063
419;12362
420;8663
421;13420
422;4862
423;11110
424;47207
425;14185
426;2222
427;4520
428;3610
429;4820
430;8080
431;6094
432;20460
433;1705
434;1402
435;1623
436;2854
437;6358
438;5779
439;5115
442;3000
443;300
444;227
445;78
446;577
447;0
448;239
449;1320
451;221
452;117
453;134
454;79
455;95
456;184
457;239
458;470
459;152
460;45
461;56
462;253
463;75
464;102
465;234
466;0
467;26
468;86
469;115
470;102
471;129
472;0
473;930
503;0
504;0
505;0
506;0
507;1
508;0
509;2
510;0
511;0
512;0
516;0
517;0
518;32
519;0
526;0
527;3
528;3
529;181
539;411
540;28
541;238
542;47
543;495
544;0
545;1246
546;996
547;431
548;49
549;0
550;849
551;361
552;273
553;298
554;1050
555;958
556;39
557;790
558;423
559;1360
560;254
561;469
562;256
563;113
564;552
565;487
566;98
567;3
568;0
569;0
570;0
571;149
572;0
573;121
574;1000
575;119
576;0
577;0
578;0
579;0
580;0
581;0
582;500
583;0
584;997
585;150
586;318
587;0
588;41
589;2501
590;284,90
591;60
592;151
593;206
594;87
595;25
596;37
597;56
598;37
599;30
600;60
601;203
602;73
603;98
604;42
605;285
606;155
607;0
608;131
609;301
610;323
611;228
612;342
613;0
614;1158
615;812
616;6000
617;0
618;0
619;24000
620;0
621;1540
622;0
623;0
624;0
625;30
626;0
627;0
628;0
629;19434
630;6288
631;0
632;80
633;393
634;241
635;214
636;11050
637;1275
638;0
639;528
640;360
641;0
642;331
643;595
644;500
645;284
646;253
647;256
648;63
649;193
650;0
651;406
652;384
653;400
654;3008
655;88
656;1616
657;88
658;0
659;0
660;163
661;2891
662;110
664;0
665;0
666;0
667;5
668;0
669;0
670;0
671;0
672;0
673;2
674;0
675;0
676;0
677;11
678;0
679;0
680;0
681;0
682;1
683;1
684;1
685;0
686;0
687;0
689;0
691;4
692;0
693;0
694;22
695;21
696;14
697;13
698;10
699;0
700;2
701;2
702;3
703;8
704;1
705;2
706;3
707;3
708;3
709;1
710;2
711;1
712;2
713;2
714;2
715;2
716;2
717;2
718;3
719;3
720;3
721;3
722;1
723;0
724;0
725;0
726;0
727;0
728;1
729;0
730;0
731;0
732;0
733;0
734;0
735;0
736;0
737;0
738;0
739;0
740;0
741;0
742;1555
743;0
744;0
745;0
746;0
747;0
748;0
749;0
750;0
751;0
752;0
753;0
754;0
755;1
756;236
757;222
758;0
759;0
760;163
761;885
762;22
763;61
764;0
765;0
766;174
767;0
768;0
769;0
770;0
771;0
772;0
773;0
774;0
775;0
776;0
777;95
778;0
779;0
780;0
781;0
782;0
783;0
784;0
785;0
786;0
787;123
788;121
789;0
790;0
791;304
792;0
793;0
794;25,826685
795;0
796;0
797;0
798;0
799;0
800;0
801;0
802;0
803;0
804;0
805;0
806;0
807;0
808;0
809;0
810;0
811;0
812;0
813;0
814;0
815;0
816;0
817;0
818;0
819;0
820;0
821;0
822;0
823;0
824;0
825;0
826;0
827;20
828;14
829;20
830;20
831;4
832;5
833;0
834;8
835;173
836;18
837;0
838;71
839;60
840;19
841;13
842;0
843;0
844;0
845;0
846;0
847;78
848;1
849;0
850;0
851;0
852;0
853;0
854;0
855;0
856;0
857;0
858;0
859;0
860;0
861;0
862;0
863;27
864;26
865;0
866;0
867;0
868;0
869;7264
870;0
871;0
872;2815
873;0
874;2000
875;0
876;0
877;4305
879;0
880;0
881;0
882;0
883;0
884;0
885;890
886;0
887;0
888;0
889;0
890;0
891;0
892;0
893;0
894;0
895;0
896;0
897;0
898;0
899;0
900;0
901;0
902;0
903;0
904;0
905;0
906;0
907;0
908;0
909;0
910;0
911;0
912;0
913;0
914;0
915;0
916;0
917;0
918;0
919;0
920;0
921;0
922;0
923;0
924;0
925;0
926;0
939;3
940;269
941;92
942;55
943;21
944;53
945;21
946;49
947;64
948;24
949;21
950;15
951;22
952;98
953;25
954;120
955;79
956;50
957;29
958;16
959;0
960;0
961;0
962;102
963;0
964;219
965;15
966;0
967;3950
968;1690
969;4375
970;755
971;3760
972;2458
973;3500
974;1760
975;1124
976;60
977;0
978;0
979;0
980;167
981;6015
982;0
983;0
984;0
985;0
986;0
987;0
988;0
989;0
990;0
991;0
992;1
993;0
994;0
995;0
996;0
997;3
998;2
999;3
1000;9
1001;3
1002;3
1003;8
1004;3
1005;1
1006;1
1008;62
1009;54
1010;4835
1011;5045
1012;269
1013;110
1014;95
1015;444
1016;317
1017;308
1018;442
1019;568
1020;3767
1021;623
1022;0
1023;361
1024;85
1025;0
1026;0
1027;0
1028;0
1029;204
1030;66
1031;11
1032;262
1033;0
1034;128
1035;0
1036;1423
1037;0
1038;97
1042;0
1043;1
1044;0
1045;2
1046;2
1047;1
1048;0
1049;1
1050;200
1051;165
1052;203
1053;180
1054;150
1055;135
1056;111
1057;196
1058;80
1059;58
1060;4
1061;109
1062;88
1063;0
1064;0
1065;0
1066;43
1067;0
1068;0
1069;0
1070;0
1071;0
1072;12
1073;8
1074;94
1075;14
1076;37
1077;96
1078;41
1079;51
1080;43
1081;61
1082;0
1083;45
1084;68
1085;174
1086;87
1087;193
1088;0
1089;109
1090;69
1091;86
1092;0
1093;5
1094;84
1095;0
1096;166
1097;11
1098;34
1099;0
1100;0
1101;43
1102;0
1103;54
1104;133
1105;2
1106;31
1107;31
1108;30
1109;24
1110;11
1111;64
1112;0
1113;83
1114;219
1115;137
1125;0
1126;39
1127;0
1128;103
1129;100
1130;0
1131;2
1132;22
1133;109
1134;0
1135;17
1136;0
1137;9
1138;2
1139;4
1141;0
1142;0
1143;0
1144;0
1145;0
1146;0
1147;581
1148;2371
1149;279
1150;44,70
1151;132
1152;42
1153;209
1154;107,50
1155;0
1156;0
1157;0
1158;0
1159;0
1160;0
1161;0
1162;0
1163;50
1165;0
1166;0
1167;0
1168;208
1169;48
1170;219
1171;1
1175;0
1176;0
1179;3
1180;0
1181;8
1182;0
1183;79
1184;0
1185;51
1186;498
1187;834
1188;30
1189;0
1190;10
1191;3
1192;3
1193;199
1194;440
1195;1290
1196;55
1197;88
1198;46
1199;77
1200;75
1201;115
1202;231
1203;169
1204;268
1205;86
1206;101
1207;66
1208;185
1209;83
1210;33
1211;0
1212;169
1213;102
1214;0
1215;2
1216;0
1217;0
1218;0
1219;0
1221;0
1222;0
1223;0
1224;0
1225;0
1226;0
1227;0
1228;0
1229;0
1230;0
1231;0
1232;0
1233;0
1234;0
1235;0
1236;0
1237;0
1238;0
1239;0
1240;0
1241;0
1242;0
1243;0
1244;0
1245;0
1246;0
1247;3350
1248;1879
1249;887
1250;0
1251;0
1252;0
1253;0
1254;0
1255;0
1256;0
1257;0
1258;0
1259;0
1260;0
1261;0
1262;0
1263;0
1264;0
1265;0
1266;22
1267;13
1268;3277
1269;1947
1270;2948
1271;0
1272;183
1273;0
1274;544
1275;0
1276;0
1278;0
1279;0
1280;0
1281;0
1282;0
1283;0
1284;0
1285;0
1286;0
1287;0
1288;0
1289;0
1290;0
1291;0
1292;0
1293;0
1295;820
1296;0
1297;0
1298;0
1299;0
1300;0
1301;0
1302;0
1303;0
1304;0
1305;0
1306;0
1307;0
1308;0
1309;0
1310;0
1311;0
1312;0
1313;0
1314;0
1315;0
1316;0
1317;87094
1318;0
1319;0
1320;0
1321;0
1322;3294
1324;5628
1325;0
1326;0
1327;0
1328;0
1329;0
1330;0
1331;0
1332;0
1333;0
1334;0
1335;0
1336;0
1337;0
1338;0
1339;0
1340;0
1341;1018
1342;0
1343;0
1344;0
1345;0
1346;0
1347;327
1348;233
1350;0
1351;0
1352;0
1353;0
1355;4192
1356;0
1357;0
1358;0
1359;16
1360;22
1361;39
1362;0
1366;271
1367;1746
1368;0
1369;5302
1370;5186
1371;137
1373;0
1374;0
1376;10
1377;0
1378;0
1379;0
1380;0
1381;0
1382;0
1383;0
1384;0
1385;0
1386;0
1387;2
1388;4
1389;7
1390;3
1391;11
1392;5
1393;3
1394;2
1395;4
1396;4
1397;0
1398;0
1399;0
1400;42
1401;0
1403;2975
1404;959
1405;1124
1406;0
1407;1360
1408;579
1409;462
1410;1560
1411;149
1412;0
1413;0
1414;586
1415;0
1416;500
1417;0
1418;0
1419;42
1420;9468
1421;250
1423;6108
1424;5900
1425;260
1426;6
1427;0
1428;0
1429;0
1430;0
1431;0
1432;0
1433;0
1434;0
1435;0
1436;0
1437;1090
1438;0
1439;0
1440;0
1441;40
1442;0
1443;2
1444;1
1445;66
1446;9
1447;57
1448;221
1449;0
1450;5
1451;500
1452;216
1453;0
1454;0
1455;0
1457;0
1458;0
1459;0
1460;2895
1461;0
1462;0
1463;0
1464;0
1465;151
1466;59
1467;2
1468;100
1469;200
1470;0
1471;9
1472;0
1473;513
1476;0
1477;3
1478;0
1479;291
1480;0
1481;70
1482;0
1484;3021
1485;200
1486;0
1487;0
1488;0
1489;0
1490;0
1491;0
1492;314
1493;10
1494;10
1495;10
1496;12
1497;10
1498;10
1499;12
1500;12
1501;50
1502;50
1503;46
1504;70
1505;6675
1506;0
1507;0
1508;0
1509;0
1510;0
1511;0
1512;0
1513;0
1514;0
1515;0
1516;0
1517;0
1518;0
1519;0
1520;0
1521;0
1522;0
1523;0
1524;0
1525;513
1526;0
1527;0
1528;29
1529;0
1530;4700
1531;24
1532;0
1533;0
1534;0
1535;27
1536;0
1537;29
1538;52
1539;49
1540;7186
1541;4929
1542;6700
1543;3124
1544;2203
1545;3102
1547;1740
1548;5140
1549;3374
1550;6490
1551;2219
1552;4511
1553;1419
1554;5890
1555;6190
1556;4886
1557;808
1558;4084
1559;13270
1560;9100
1561;4957
1562;0
1563;13979
1564;13685
1565;4050
1566;0
1567;3443
1568;13900
1569;14400
1570;4129
1571;0
1572;0
1573;19
1574;8140
1575;3900
1576;4300
1577;188
1578;23
1581;184
1582;297
1583;325
1584;287
1585;401
1586;1098
1587;0
1588;80
1589;1
1590;66
1591;69
1592;1
1593;149
1594;0
1595;5
1596;3600
1597;143
1598;44
1599;24083
1600;4950
1601;4800
1602;4817
1603;0
1604;951
1605;339
1606;59
1607;0
1608;0
1609;0
1610;0
1612;596
1613;0
1614;171
1615;15
1616;0
1617;2979
1618;39
1619;32
1620;1
1621;33
1622;36
1623;28
1624;40
1625;72
1626;100
1627;110
1628;0
1629;8
1630;1
1631;0
1632;58
1633;0
1634;49
1635;0
1636;64
1637;115
1638;44
1639;24
1641;29
1642;52
1643;44
1644;88
1645;26
1646;35
1647;52
1648;106
1649;55
1650;61
1651;80
1652;46
1653;47
1654;43
1655;136
1656;123
1657;144
1658;144
1659;94
1660;154
1661;18
1662;102
1663;7
1664;93
1665;14
1666;98
1667;63
1668;83
1669;6
1670;0
1671;4260
1672;26
1673;23
1674;0
1675;0
1676;0
1677;2516
1679;100
1680;0
1681;50
1682;3100
1683;0
1684;0
1685;0
1686;0
1687;0
1688;0
1689;0
1691;0
1692;0
1693;0
1694;0
1695;0
1696;0
1697;0
1701;386
1702;0
1703;0
1704;15
1705;0
1706;0
1707;0
1708;0
1709;0
1710;489
1711;3
1712;0
1713;800
1714;0
1715;0
1716;41
1717;30
1718;0
1719;0
1720;0
1721;0
1722;0
1723;0
1724;0
1725;0
1726;0
1727;0
1728;166
1729;153
1730;82
1731;80
1732;122
1733;0
1734;0
1735;0
1736;0
1737;0
1738;0
1739;203
1740;352
1741;0
1745;0
1746;0
1747;1110
1748;0
1749;0
1750;0
1751;0
1752;19
1753;500
1754;0
1755;0
1756;0
1757;1
1758;2
1759;0
1760;3
1761;0
1762;0
1763;0
1764;2
1765;2
1766;2
1767;2
1768;0
1769;0
1770;0
1773;0
1774;0
1775;0
1776;0
1777;1
1778;1
1779;0
1780;0
1781;0
1782;0
1783;0
1784;0
1785;0
1786;3
1787;1
1788;0
1789;1311
1790;0
1791;0
1792;78
1793;78
1794;79
1795;65
1796;79
1797;79
1798;63
1799;58
1800;63
1801;46
1802;47
1803;49
1804;49
1805;1633
1806;31
1807;0
1808;0
1809;0
1810;0
1811;15
1812;3
1813;0
1814;185
1815;5
1816;100
1817;42
1818;30
1819;0
1820;0
1821;0
1822;1444
1823;0
1824;0
1825;387
1826;0
1827;0
1829;22
1830;0
1831;12
1832;0
1833;32
1834;717
1835;5560
1836;69
1837;157
1838;0
1839;2
1840;10
1841;0
1842;0
1843;0
1844;46
1845;107
1846;57
1847;3949
1848;1
1849;3
1850;3
1851;2
1852;0
1853;0
1854;0
1855;0
1856;0
1857;0
1858;0
1859;0
1861;0
1862;0
1863;0
1864;2
1865;0
1866;0
1867;0
1868;0
1869;240
1870;0
1872;0
1873;0
1874;0
1875;0
1876;0
1877;0
1878;0
1879;0
1880;0
1881;0
1882;0
1883;0
1884;0
1885;5000
1886;0
1887;0
1888;0
1889;0
1890;0
1891;0
1892;0
1893;0
1894;0
1895;80
1896;0
1897;0
1898;0
1899;200
1900;203
1901;0
1902;10
1903;10
1904;10
1905;5
1906;0
1907;2
1908;3
1909;3
1910;10
1911;2
1912;16
1913;4
1914;2
1915;2
1916;2
1917;0
1918;2
1919;8
1920;39
1921;4
1923;26
1924;120
1925;143
1926;46
1927;27
1928;45
1929;21
1930;103
1932;49
1933;37
1934;31
1935;20
1936;21
1937;31
1938;89
1939;153
1940;33
1941;86
1942;55
1943;5
1944;6
1945;20
1946;20
1947;13
1948;24
1949;13
1950;14
1951;60
1952;7
1953;7
1954;28
1955;100
1956;44
1957;51
1958;32
1959;0
1960;0
1961;0
1962;0
1963;1080
1964;1100
1965;0
1966;0
1967;0
1968;0
1969;0
1972;0
1973;0
1974;0
1975;0
1976;0
1977;0
1978;0
1979;0
1980;0
1981;83
1982;1314
1983;0
1984;0
1985;0
1986;0
1987;0
1988;7
1989;24
1990;65
1991;47
1992;30
1993;26
1994;22
1995;35
1996;22
1997;19
1998;15
1999;36
2000;74
2001;43
2002;17
2008;4
2009;0
2010;0
2011;0
2012;0
2013;3
2014;0
2015;0
2016;0
2017;0
2018;5
2019;0
2020;0
2021;0
2022;0
2023;6
2024;0
2025;0
2026;0
2027;0
2028;1
2029;1
2030;2
2031;3
2032;0
2033;0
2034;0
2035;0
2036;0
2037;5
2038;7
2039;0
2040;0
2041;229
2042;227
2044;384
2045;39
2047;5
2048;0
2049;0
2050;0
2051;168
2052;24
2053;22
2054;106
2055;118
2056;182
2057;0
2058;0
2059;0
2060;0
2061;0
2062;0
2063;0
2064;3856
2065;774
2066;0
2067;0
2068;13
2069;0
2077;479
2078;173
2079;261
2080;0
2081;0
2082;0
2083;0
2084;0
2085;0
2086;0
2087;0
2088;0
2089;0
2090;0
2091;0
2092;0
2093;0
2094;300
2095;0
2096;0
2097;0
2098;0
2099;0
2100;0
2101;0
2102;0
2103;0
2104;0
2105;0
2106;0
2107;0
2108;0
2109;0
2110;0
2111;0
2112;0
2113;0
2114;0
2115;0
2116;0
2117;0
2118;0
2119;0
2120;0
2121;0
2122;0
2123;0
2124;0
2125;0
2126;0
2127;0
2128;0
2129;0
2130;0
2131;0
2132;0
2133;6
2134;0
2135;3
2136;0
2137;0
2138;1
2139;0
2140;2
2141;2
2142;2
2143;5
2144;0
2145;0
2146;3
2147;0
2148;5
2149;6
2150;3
2152;752
2153;396
2154;496
2155;79
2156;80
2157;98
2158;12
2159;34
2160;64
2161;0
2162;4800
2163;0
2164;198
2165;0
2167;1000
2168;757
2169;7073
2170;0
2171;3
2172;0
2173;0
2174;115
2175;0
2176;158
2177;16
2178;1
2179;1
2180;0
2181;0
2182;108
2183;0
2184;1
2185;0
2186;2
2187;0
2188;19
2189;4
2190;0
2191;0
2192;0
2193;19782
2194;0
2195;0
2196;0
2197;10
2198;0
2199;0
2202;0
2203;0
2204;0
2205;15
2206;0
2207;0
2208;0
2210;0
2211;0
2213;2922
2214;2
2215;3
2216;5
2217;5
2219;2
2220;5
2221;2
2222;2
2223;2
2224;3
2225;2
2226;1
2227;2
2228;2
2229;1
2230;1
2231;1
2232;1
2233;1
2234;1
2235;2
2236;2
2237;2
2238;2
2239;2
2240;3
2241;3
2242;2
2243;2
2244;2
2245;1
2246;3
2247;0
2248;0
2249;0
2250;0
2251;0
2252;0
2253;0
2254;0
2255;7
2256;8
2257;1
2258;3
2259;2
2260;4
2261;0
2262;0
2263;11
2264;2
2265;8
2266;1
2267;0
2268;0
2269;1
2270;6
2271;0
2272;7
2273;0
2274;0
2275;0
2276;0
2277;0
2278;5
2279;1
2281;15
2282;100
2283;692
2284;276
2285;299
2286;195
2287;1177
2288;73
2289;303
2290;69
2291;94
2292;1077
2293;0
2294;1
2295;0
2296;0
2297;0
2298;0
2299;0
2300;0
2301;0
2302;0
2303;0
2304;0
2305;0
2306;0
2307;0
2308;0
2312;11
2313;35
2314;27
2315;205
2316;181
2317;98
2318;240
2319;285
2320;139
2321;258
2322;71
2323;133
2324;7
2325;4
2326;0
2327;344
2328;148
2329;78
2330;0
2331;1
2332;0
2333;0
2334;10
2335;0
2336;0
2337;0
2338;0
2339;0
2340;0
2341;6509
2342;446
2343;0
2344;0
2345;2
2346;1
2347;943
2348;10985
2349;18864
2350;9
2351;36
2352;0
2353;0
2354;45
2355;0
2356;118
2357;118
2358;0
2359;418
2360;20
2361;1544
2362;0
2363;0
2364;0
2365;0
2366;30
2367;40
2368;40
2369;50
2370;2
2371;0
2372;0
2373;4
2374;8682
2375;2
2376;3
2377;2
2378;2
2379;714
2380;8430
2381;0
2382;3559
2383;0
2384;4419
2392;2
2393;1
2394;2
2395;3
2396;2
2397;0
2398;0
2399;0
2400;0
2401;0
2402;0
2403;121
2404;3895
2405;100
2406;419
2407;0
2408;350
2409;142
2410;100
2411;250
2412;6991
2413;0
2414;0
2415;200
2416;12
2417;54
2418;43
2419;0
2420;0
2421;0
2422;476
2423;0
2424;186
2425;7
2426;0
2427;8
2428;383
2429;1
2430;0
2431;231
2432;7
2433;0
2434;831
2435;4
2436;680
2437;222
2438;3326
2439;0
2440;9
2441;132
2442;91
2443;16
2444;14
2445;21
2446;11
2447;31
2448;6
2449;5
2450;15
2451;7
2452;20
2453;1
2454;1
2455;1
2456;2
2457;4
2458;114
2459;98
2460;14
2461;0
2462;0
2463;0
2464;81
2465;297
2466;401
2467;23
2468;83
2469;10
2470;0
2471;37
2473;445
2474;332
2475;1
2476;4
2477;2
2478;9
2479;225
2480;8
2481;172
2482;186
2483;50
2484;0
2485;1
2486;500
2487;2440
2488;4
2489;2
2490;2
2491;1
2492;1
2493;3
2494;0
2495;2
2496;2
2497;2
2498;3
2499;3
2500;1
2501;30
2502;0
2503;229
2504;11
2505;0
2506;240
2507;83
2508;281
2509;0
2510;0
2511;0
2512;0
2514;4917
2516;0
2517;2
2518;10000
2519;20000
2520;20000
2521;20000
2522;10000
2523;0
2524;10000
2525;10000
2526;10000
2527;10000
2528;10000
2529;10000
2530;10000
2531;10000
2532;20000
2533;10000
2534;10000
2536;10000
2537;10000
2538;9999
2539;10000
2540;10000
2541;0
2542;1526
2543;0
2544;375
2545;128
2546;0
2547;5
2548;5
2549;5
2550;5
2551;5
2552;5
2553;5
2554;5
2555;5
2556;5
2557;30
2558;10
2559;10
2560;9
2561;4
2562;4
2563;1
2565;221
2566;189
2567;88
2568;48
2569;2
2570;4000
2571;6
2572;0
2573;0
2575;0
2576;1670
2577;881
2579;14
2580;1
2581;1
2582;2
2583;6
2584;16
2585;0
2586;1
2587;1
2588;1
2589;14
2590;20
2591;8
2592;1
2593;1
2594;6
2595;1
2596;1
2597;1
2598;0
2599;179
2600;507
2601;384
2602;1654
2603;0
2604;0
2605;0
2606;0
2607;0
2608;2
2609;0
2612;41
2613;36
2614;16
2615;16
2616;10
2617;1
2618;0
2619;377
2620;0
2621;0
2622;46
2628;0
2629;0
2630;28
2631;-100
2632;0
2633;0
2634;0
2635;0
2636;0
2637;0
2638;0
2639;0
2640;0
2641;0
2642;0
2643;2
2644;0
2645;0
2646;0
2647;0
2648;2
2649;0
2650;0
2651;0
2652;0
2653;0
2654;0
2655;10
2656;0
2657;0
2658;1
2659;0
2660;2
2661;0
2662;0
2663;0
2664;2
2665;0
2666;0
2667;0
2668;0
2669;0
2670;1
2671;34
2672;8
2673;0
2674;0
2675;0
2676;0
2677;0
2678;0
2679;0
2680;497
2681;0
2682;522
2683;0
2684;350
2685;0
2686;21
2687;0
2688;18
2689;0
2690;0
2691;0
2692;523
2693;0
2694;521
2695;0
2696;555
2697;0
2698;65
2699;0
2700;489
2701;0
2702;392
2703;0
2704;4
2705;0
2706;4680
2707;0
2708;0
2709;0
2714;3
2715;0
2716;0
2717;9
2718;6
2719;0
2720;2
2721;2
2722;5
2723;12
2724;7
2726;4
2727;0
2728;1
2729;1
2730;0
2731;1
2732;1
2733;0
2734;0
2735;66
2736;33
2737;307
2738;100
2739;265
2740;100
2741;293
2742;40
2743;2379
2744;483
2745;766
2746;237
2747;240
2748;99
2749;3443
2750;462
2751;16
2752;0
2753;172
2754;165
2755;1040
2756;5
2757;1145
2758;1253
2759;1004
2760;3888
2761;0
2762;7548
2763;0
2764;1100
2765;0
2766;16,6460
2767;5000
2768;0
2769;2974
2770;3380
2771;657
2772;97
2773;21
2774;35
2775;5
2779;0
2781;44
2782;0
2783;175
2784;50
2785;352
2786;0
2787;60
2788;416
2789;0
2790;0
2791;1
2792;1
2793;1
2794;2
2795;1
2796;1
2797;3
2798;0
2799;3
2800;0
2801;2
2802;1
2803;1
2804;1
2805;1
2806;1
2807;1
2808;6
2809;8
2810;0
2811;6
2812;0
2813;0
2814;5
2815;0
2816;1
2817;5
2818;0
2819;0
2820;0
2821;0
2822;0
2823;0
2824;0
2825;0
2826;0
2827;0
2828;0
2829;0
2830;1390
2831;0
2832;0
2833;0
2834;0
2835;0
2836;425
2837;88000
2838;0
2839;0
2840;0
2841;0
2842;0
2843;0
2844;2
2845;0
2846;0
2847;0
2848;1
2849;0
2850;0
2851;3
2852;0
2853;0
2854;0
2855;1
2856;0
2857;0
2858;2
2859;0
2860;0
2861;0
2862;3
2863;0
2864;0
2865;0
2866;0
2867;0
2868;0
2869;2
2870;0
2871;0
2872;0
2873;0
2874;0
2875;0
2876;1
2877;0
2878;0
2879;2
2880;0
2881;0
2882;0
2883;0
2884;0
2885;0
2886;3
2887;0
2888;0
2889;0
2890;1
2891;1
2892;0
2893;0
2894;5
2895;0
2896;0
2897;1
2898;0
2899;3
2900;0
2901;1
2902;0
2903;0
2904;0
2905;0
2906;0
2907;0
2908;0
2909;0
2910;0
2911;0
2912;0
2913;0
2914;5
2915;0
2916;0
2917;1
2918;0
2919;4
2920;0
2921;0
2922;0
2923;0
2924;0
2925;0
2926;0
2927;0
2928;0
2929;4
2930;0
2931;0
2932;0
2933;0
2934;0
2935;1482
2936;0
2937;1115
2938;2028
2939;755
2940;4067
2941;0
2942;798
2943;28
2944;2771
2945;2228
2946;1750
2947;0
2948;0
2949;0
2950;0
2951;0
2952;0
2954;0
2955;0
2956;0
2957;0
2958;0
2959;0
2960;0
2961;0
2962;0
2963;0
2965;0
2966;0
2967;0
2968;0
2969;0
2972;0
2973;0
2974;0
2975;0
2976;0
2977;0
2978;0
2979;0
2980;0
2981;0
2982;0
2983;0
2984;0
2985;0
2986;0
2987;0
2988;0
2989;0
2990;0
2991;0
2992;0
2993;0
2994;0
2995;0
2996;0
2997;0
2998;0
2999;4,9960
3000;0
3001;0
3002;0
3003;0
3004;0
3005;0
3006;0
3007;0
3008;0
3009;0
3010;0
3011;0
3012;0
3013;0
3014;0
3015;0
3016;0
3017;0
3018;0
3019;0
3020;0
3021;0
3022;0
3023;0
3024;4
3025;1
3026;0
3027;0
3028;0
3029;0
3030;0
3031;0
3032;0
3033;0
3034;3115
3035;431
3036;200
3037;0
3038;0
3039;97
3040;0
3041;340
3042;0
3043;0
3044;0
3045;4
3046;6
3047;0
3048;0
3049;4
3050;807
3051;434
3052;26
3053;36
3054;0
3055;200
3056;900
3057;100
3058;0
3059;3212
3060;0
3061;0
3062;0
3063;0
3064;0
3065;0
3066;0
3067;561
3068;0
3069;139
3070;0
3071;0
3072;0
3073;0
3074;2000
3075;0
3076;62
3077;0
3078;0
3079;0
3080;0
3081;0
3082;0
3083;0
3084;0
3085;0
3086;1000
3087;0
3088;0
3090;0
3091;0
3092;0
3093;0
3095;371
3096;10
3097;8
3098;3439
3099;20
3100;0
3101;0
3102;6,4180
3103;0
3104;11
3105;49
3106;1066
3107;0
3108;0
3109;0
3110;0
3111;0
3112;0
3113;0
3114;20
3115;0
3116;0
3117;0
3118;0
3119;0
3120;0
3121;0
3122;0
3123;0
3124;0
3125;0
3126;2
3127;11
3128;0
3129;0
3130;0
3131;0
3132;0
3133;0
3134;0
3137;0
3138;0
3139;0
3140;0
3141;0
3142;2,3240
3143;0
3144;0
3145;0
3146;0
3147;0
3148;0
3149;0
3150;0
3151;0
3152;0
3153;0
3154;0
3155;0
3156;10
3157;10
3158;107
3159;0
3160;0
3161;0
3162;5
3163;0
3164;20
3165;200
3166;95
3167;52
3168;148
3169;0
3170;0
3171;17
3172;0
3173;0
3174;0
3175;40
3176;10
3177;5
3178;0
3179;0
3180;0
3181;0
3182;0
3183;0
3184;0
3185;0
3186;0
3187;0
3188;0
3189;0
3190;0
3191;0
3192;0
3193;30
3194;9
3195;0
3196;0
3197;28
3198;28
3199;0
3200;0
3201;0
3202;0
3203;0
3204;0
3205;0
3206;2,60
3207;3,50
3208;15
3209;15
3210;24
3211;30
3212;0
3213;16
3214;15
3215;13
3216;24
3217;26
3218;0
3219;0
3220;30
3221;28
3222;100
3223;26
3224;1618
3225;1718
3226;0
3227;0
3228;34
3229;0
3230;0
3231;0
3232;0
3233;0
3234;75
3235;0
3236;0
3237;0
3238;0
3239;0
3240;0
3241;0
3242;0
3243;496
3244;0
3245;0
3246;0
3247;0
3248;0
3249;0
3250;0
3251;0
3252;0
3253;0
3254;0
3255;0
3256;0
3257;0
3258;146
3259;0
3260;0
3261;42
3262;2
3263;0
3264;144
3265;64
3266;5
3267;0
3268;0
3269;0
3270;0
3271;0
3272;0
3273;0
3274;0
3275;0
3276;0
3277;0
3278;0
3279;0
3280;42
3281;42
3282;0
3283;4
3284;4
3285;4
3286;2
3287;500
3288;889
3289;0
3290;0
3291;0
3292;3,90
3293;0
3295;0
3296;0
3297;1
3298;1385
3299;1385
3300;446
3301;0
3302;0
3303;0
3304;0
3305;4,6267
3306;0
3307;0
3308;0
3309;0
3310;0
3311;0
3312;0
3313;0
3314;0
3315;0
3316;0
3317;0
3318;0
3319;0
3320;0
3321;0
3322;0
3323;0
3324;0
3325;0
3326;0
3327;0
3328;0
3329;0
3330;0
3331;0
3332;0
3333;0
3334;0
3335;0
3336;0
3337;50
3338;227
3339;400
3340;500
3341;3
3342;0
3343;0
3344;0
3345;0
3346;330
3347;0
3348;0
3349;0
3350;0
3351;250
3352;0
3353;1000
3354;0
3355;0
3356;0
3357;0
3358;0
3359;0
3360;0
3361;0
3362;0
3363;0
3364;0
3365;0
3366;431
3367;0
3368;0
3369;0
3370;30
3372;0
3373;0
3374;0
3375;0
3376;300
3377;0
3378;0
3379;50
3380;0
3381;26
3382;66
3383;19
3384;1
3385;1
3386;50
3389;10
3390;0
3391;0
3392;0
3393;0
3394;0
3395;0
3396;0
3397;0
3398;0
3399;0
3400;0
3401;0
3402;0
3403;0
3404;0
3405;4
3406;0
3407;0
3408;0
3409;0
3410;0
3411;0
3412;0
3413;0
3414;0
3415;0
3416;0
3417;0
3418;0
3419;0
3420;0
3421;0
3422;0
3423;25
3424;1000
3425;30
3427;40
3428;5
3429;0
3430;0
3431;0
3432;0
3433;0
3434;21
3435;3
3436;8
3437;0
3438;0
3440;0
3441;0
3442;0
3443;0
3444;0
3445;0
3446;0
3448;0
3449;0
3450;0
3451;0
