1;0
2;0
3;5
4;4
5;36
6;5
7;5
8;0
9;0
10;0
11;20
12;25
13;23
14;10
15;1
16;20
17;20
18;10
19;18
20;9
21;11
22;29
23;0
25;18
26;5
27;5
28;3
29;3
30;0
31;0
32;0
33;0
34;0
35;0
36;0
37;0
38;14
39;27
40;11
41;75
42;16
43;21
44;75
45;71
46;46
47;26
48;12
49;33
50;31
51;22
52;13
53;29
54;2
55;204
56;35
57;10
58;15
59;0
60;35
61;129
62;6
63;0
64;2
65;4
66;2
67;1
68;3
69;2
70;17
71;0
72;8
73;12
74;6
75;3
76;3
77;5
78;0
79;2
80;0
81;24
82;11
83;6
84;5
85;16
87;0
88;0
89;0
90;10
91;17
92;78
93;14
94;37
95;64
96;7
97;35
98;0
99;13
100;26
101;0
102;0
103;4679
104;812
105;0
106;361
107;939
108;1634
109;537
110;518
111;385
112;1201
113;1968
114;1368
115;3378
116;1443
117;1284
118;3478
119;2915
120;1599
121;6421
122;0
123;1787
124;0
126;3828
127;526
128;5921
129;17
130;0
131;980
132;375
133;1000
134;720
135;3543
136;592
137;63
138;839
139;1096
140;2966
141;1185
142;0
143;769
144;66
145;899
146;1750
147;265
148;160
149;800
150;411
151;763
152;549
153;3063
154;1165
155;562
156;1310
157;860
158;790
159;665
160;325
161;1805
162;2149
163;4567
164;1537
166;5836
167;5730
168;3300
169;1223
170;2664
171;3213
172;5509
173;7503
174;4630
175;4182
176;3440
177;0
178;5886
179;3881
180;10220
181;14124
182;2097
183;1467
185;11758
186;4828
187;4831
188;3243
189;7434
190;3500
191;1784
192;4786
193;4322
195;4387
196;7103
197;0
198;3128
199;3840
200;8233
201;4942
202;0
203;10326
204;4790
205;4043
206;0
207;0
208;2280
209;4860
210;4949
211;853
212;3432
213;3433
214;3496
215;4999
216;442
217;2888
218;2434
219;4698
220;4530
221;0
222;0
223;7850
224;1898
225;0
226;2751
227;2621
228;2668
229;5012
230;3023
231;2520
232;3591
233;4800
234;2113
235;191
236;477
237;589
239;3846
240;7637
241;4477
242;0
243;12603
244;673
245;0
246;6405
247;0
248;2458
249;1639
250;0
251;0
253;0
254;0
255;0
256;0
257;0
258;0
259;0
260;0
261;920
262;948
263;1025
264;89
265;0
266;75
267;118
268;469
269;302
270;670
271;0
272;0
273;152
274;0
275;271
276;155
277;1151
278;0
279;197
280;2583
281;4443
282;2836
283;988
284;0
285;138
286;2692
287;529
288;456
289;0
290;0
291;0
292;430
293;1033
294;412
295;100
296;1452
297;0
298;0
299;0
300;0
301;0
302;2581
303;528
304;669
305;1074
306;0
307;0
308;0
309;8079
310;0
311;170
312;160
313;44
314;0
315;221
318;63
319;1192
320;0
321;0
322;333
323;2
324;0
325;647
326;30
327;0
328;0
329;0
330;1690
331;0
332;0
333;0
334;0
335;430
336;679
337;871
338;766
339;309
340;0
341;0
342;102
343;0
344;0
345;347
346;18
347;0
348;0
349;0
350;0
351;0
353;0
354;0
355;0
356;200
357;0
358;0
359;5
360;0
361;0
362;0
363;0
364;0
365;0
366;0
367;0
368;0
369;0
370;0
371;0
372;0
373;0
374;0
375;0
376;0
377;0
378;0
379;0
380;0
381;0
382;0
383;0
384;0
385;0
386;0
387;0
388;0
389;0
390;0
391;0
392;0
393;0
394;200
395;0
397;0
398;8
399;1
400;68
401;61
402;7637
403;13737
404;4261
405;37191
406;9080
407;1836
408;5575
409;2730
410;6304
411;6797
412;15900
413;5000
414;5000
415;4642
416;0
417;32424
418;4434
419;6766
420;9987
421;6406
422;4862
423;12105
424;45834
425;11685
426;1268
427;5631
428;1545
429;4821
430;6793
431;6114
432;6912
433;1843
434;4589
435;4970
436;3326
437;12142
438;4421
439;11328
442;3000
443;300
444;395
445;299
446;511
447;0
448;566
449;683
451;221
452;117
453;134
454;79
455;95
456;184
457;239
458;470
459;152
460;45
461;56
462;253
463;75
464;102
465;234
466;0
467;17
468;46
469;97
470;82
471;47
472;4
473;432
503;0
504;0
505;0
506;0
507;0
508;0
509;2
510;0
511;0
512;0
516;0
517;0
518;31
519;0
526;0
527;0
528;23
529;0
539;203
540;28
541;238
542;47
543;495
544;0
545;1245
546;996
547;431
548;49
549;0
550;143
551;261
552;293
553;127
554;1054
555;958
556;39
557;1031
558;729
559;605
560;109
561;877
562;182
563;113
564;275
565;304
566;98
567;3
568;0
569;21
570;25
571;149
572;0
573;121
574;500
575;293
576;0
577;0
578;0
579;0
580;0
581;0
582;500
583;0
584;1062
585;150
586;318
587;0
588;41
589;2501
590;284,90
591;60
592;151
593;206
594;87
595;25
596;37
597;56
598;37
599;30
600;60
601;203
602;73
603;98
604;50
605;1
606;181
607;0
608;77
609;309
610;239
611;342
612;282
613;0
614;439
615;18708
616;6000
617;0
618;0
619;6000
620;0
621;529
622;0
623;0
624;0
625;29
626;0
627;0
628;0
629;10000
630;7425
631;0
632;80
633;393
634;325
635;214
636;8244
637;1138
638;0
639;303
640;315
641;0
642;249
643;346
644;500
645;107
646;475
647;126
648;63
649;452
650;0
651;406
652;384
653;275
654;1294
655;10
656;1222
657;88
658;0
659;0
660;93
661;5000
662;110
664;0
665;0
666;0
667;0
668;0
669;0
670;0
671;0
672;0
673;0
674;0
675;0
676;0
677;10
678;0
679;0
680;0
681;0
682;1
683;1
684;1
685;0
686;0
687;0
689;0
691;2
692;0
693;0
694;54
695;6
696;2
697;2
698;0
699;0
700;1
701;2
702;3
703;8
704;1
705;3
706;2
707;2
708;2
709;1
710;2
711;1
712;2
713;4
714;2
715;2
716;2
717;2
718;3
719;2
720;3
721;2
722;2
723;0
724;0
725;0
726;0
727;0
728;1
729;0
730;0
731;0
732;0
733;0
734;0
735;0
736;0
737;0
738;0
739;0
740;0
741;0
742;682
743;0
744;0
745;0
746;0
747;0
748;0
749;0
750;0
751;0
752;0
753;0
754;0
755;1
756;166
757;168
758;0
759;0
760;163
761;1466
762;108
763;61
764;0
765;0
766;174
767;0
768;0
769;0
770;0
771;0
772;0
773;0
774;0
775;0
776;0
777;95
778;0
779;0
780;0
781;0
782;0
783;0
784;0
785;0
786;0
787;235
788;252
789;0
790;0
791;776
792;0
793;0
794;34,077298
795;0
796;0
797;0
798;0
799;0
800;0
801;0
802;0
803;0
804;0
805;0
806;0
807;0
808;0
809;0
810;0
811;0
812;0
813;0
814;0
815;0
816;0
817;0
818;0
819;0
820;0
821;0
822;0
823;0
824;0
825;0
826;0
827;20
828;14
829;20
830;20
831;4
832;5
833;0
834;8
835;173
836;18
837;0
838;71
839;60
840;19
841;13
842;0
843;0
844;0
845;0
846;0
847;60
848;1
849;0
850;0
851;0
852;0
853;0
854;0
855;0
856;0
857;0
858;0
859;0
860;0
861;0
862;0
863;27
864;10
865;0
866;0
867;0
868;0
869;7477
870;0
871;0
872;2815
873;0
874;1980
875;0
876;0
877;4305
879;0
880;0
881;0
882;0
883;0
884;0
885;524
886;0
887;0
888;0
889;0
890;0
891;0
892;0
893;0
894;0
895;0
896;0
897;0
898;0
899;0
900;0
901;0
902;0
903;0
904;0
905;0
906;0
907;0
908;0
909;0
910;0
911;0
912;0
913;0
914;0
915;0
916;0
917;0
918;0
919;0
920;0
921;0
922;0
923;0
924;0
925;0
926;0
939;3
940;269
941;97
942;55
943;21
944;53
945;21
946;48
947;31
948;24
949;17
950;15
951;22
952;73
953;25
954;120
955;96
956;40
957;18
958;16
959;0
960;0
961;0
962;18
963;0
964;186
965;85
966;0
967;3950
968;4106
969;5377
970;6939
971;1794
972;2032
973;3500
974;5377
975;0
976;1393
977;0
978;0
979;0
980;3758
981;6015
982;0
983;0
984;0
985;0
986;0
987;0
988;0
989;0
990;0
991;0
992;1
993;0
994;0
995;0
996;0
997;3
998;2
999;2
1000;9
1001;2
1002;3
1003;8
1004;2
1005;1
1006;2
1008;62
1009;35
1010;2734
1011;3684
1012;269
1013;103
1014;77
1015;541
1016;317
1017;632
1018;261
1019;542
1020;3767
1021;623
1022;0
1023;347
1024;18
1025;0
1026;0
1027;0
1028;0
1029;258
1030;18
1031;227
1032;33
1033;0
1034;128
1035;0
1036;965
1037;0
1038;97
1042;0
1043;1
1044;0
1045;3
1046;2
1047;1
1048;0
1049;1
1050;200
1051;188
1052;191
1053;183
1054;146
1055;135
1056;107
1057;214
1058;75
1059;26
1060;3
1061;72
1062;84
1063;63
1064;0
1065;4
1066;1
1067;0
1068;0
1069;0
1070;0
1071;0
1072;1
1073;0
1074;85
1075;0
1076;33
1077;203
1078;37
1079;0
1080;10
1081;14
1082;0
1083;43
1084;7
1085;149
1086;24
1087;41
1088;2
1089;32
1090;19
1091;36
1092;4
1093;0
1094;0
1095;0
1096;0
1097;4
1098;2
1099;0
1100;1
1101;66
1102;1
1103;0
1104;0
1105;0
1106;8
1107;23
1108;16
1109;9
1110;1
1111;31
1112;2
1113;75
1114;206
1115;130
1125;0
1126;44
1127;34
1128;36
1129;240
1130;0
1131;0
1132;0
1133;0
1134;0
1135;36
1136;36
1137;19
1138;2
1139;4
1141;0
1142;0
1143;0
1144;0
1145;0
1146;0
1147;587
1148;2992
1149;234
1150;57
1151;153,50
1152;334
1153;165
1154;167,50
1155;0
1156;0
1157;0
1158;0
1159;0
1160;0
1161;0
1162;0
1163;50
1165;0
1166;0
1167;0
1168;239
1169;7
1170;188
1171;0
1175;0
1176;112
1179;0
1180;0
1181;103
1182;0
1183;79
1184;0
1185;73
1186;549
1187;541
1188;30
1189;0
1190;10
1191;3
1192;3
1193;87
1194;642
1195;4147
1196;55
1197;88
1198;0
1199;60
1200;68
1201;50
1202;0
1203;32
1204;268
1205;0
1206;0
1207;0
1208;1
1209;58
1210;0
1211;0
1212;166
1213;49
1214;0
1215;2
1216;0
1217;0
1218;0
1219;0
1221;0
1222;0
1223;0
1224;0
1225;0
1226;0
1227;0
1228;0
1229;0
1230;0
1231;0
1232;0
1233;0
1234;0
1235;0
1236;0
1237;0
1238;0
1239;0
1240;0
1241;0
1242;0
1243;0
1244;0
1245;0
1246;0
1247;3348
1248;1496
1249;772
1250;0
1251;0
1252;0
1253;0
1254;0
1255;0
1256;0
1257;0
1258;0
1259;0
1260;0
1261;0
1262;0
1263;0
1264;0
1265;0
1266;108
1267;27
1268;2788
1269;596
1270;2002
1271;0
1272;246
1273;0
1274;537
1275;0
1276;0
1278;0
1279;0
1280;0
1281;0
1282;0
1283;0
1284;0
1285;0
1286;0
1287;0
1288;0
1289;0
1290;0
1291;0
1292;0
1293;0
1295;0
1296;0
1297;0
1298;0
1299;0
1300;0
1301;0
1302;0
1303;0
1304;0
1305;0
1306;0
1307;0
1308;0
1309;0
1310;0
1311;0
1312;0
1313;0
1314;0
1315;0
1316;0
1317;87094
1318;0
1319;0
1320;0
1321;0
1322;2898
1324;2250
1325;0
1326;0
1327;0
1328;0
1329;0
1330;0
1331;0
1332;0
1333;0
1334;0
1335;0
1336;0
1337;0
1338;0
1339;0
1340;0
1341;1421
1342;0
1343;0
1344;0
1345;0
1346;108
1347;169
1348;233
1350;0
1351;0
1352;0
1353;0
1355;1329
1356;0
1357;0
1358;0
1359;15
1360;20
1361;37
1362;0
1366;0
1367;1077
1368;0
1369;3187
1370;3623
1371;137
1373;0
1374;0
1376;6
1377;0
1378;0
1379;0
1380;0
1381;0
1382;0
1383;0
1384;0
1385;0
1386;0
1387;15
1388;6
1389;5
1390;0
1391;7
1392;6
1393;5
1394;2
1395;4
1396;6
1397;0
1398;0
1399;0
1400;46
1401;0
1403;1599
1404;944
1405;782
1406;0
1407;979
1408;499
1409;373
1410;889
1411;107
1412;0
1413;0
1414;187
1415;150
1416;1600
1417;50
1418;0
1419;0
1420;6317
1421;0
1423;5374
1424;5977
1425;322
1426;0
1427;0
1428;0
1429;0
1430;0
1431;0
1432;0
1433;0
1434;0
1435;0
1436;0
1437;1102
1438;0
1439;0
1440;0
1441;29
1442;0
1443;1
1444;1
1445;66
1446;13
1447;5
1448;96
1449;0
1450;5
1451;498
1452;461
1453;0
1454;0
1455;0
1457;0
1458;0
1459;0
1460;2895
1461;0
1462;0
1463;0
1464;0
1465;31
1466;59
1467;2
1468;100
1469;200
1470;0
1471;9
1472;0
1473;412
1476;0
1477;2
1478;0
1479;0
1480;0
1481;70
1482;0
1484;2768
1485;320
1486;0
1487;0
1488;0
1489;0
1490;0
1491;0
1492;101
1493;10
1494;10
1495;10
1496;12
1497;10
1498;10
1499;12
1500;12
1501;50
1502;50
1503;79
1504;96
1505;0
1506;0
1507;0
1508;0
1509;0
1510;0
1511;0
1512;0
1513;0
1514;0
1515;0
1516;0
1517;0
1518;0
1519;0
1520;0
1521;0
1522;0
1523;0
1524;0
1525;164
1526;0
1527;0
1528;63
1529;0
1530;4845
1531;29
1532;0
1533;0
1534;0
1535;27
1536;0
1537;29
1538;71
1539;68
1540;9315
1541;4880
1542;6098
1543;1825
1544;2413
1545;2485
1547;6707
1548;4105
1549;8981
1550;5614
1551;5205
1552;1249
1553;5000
1554;11654
1555;6190
1556;9162
1557;12423
1558;2269
1559;12648
1560;9100
1561;9897
1562;0
1563;14030
1564;13766
1565;4020
1566;0
1567;3197
1568;13809
1569;14378
1570;4033
1571;0
1572;0
1573;18
1574;7312
1575;3900
1576;4300
1577;56
1578;23
1581;130
1582;347
1583;1342
1584;492
1585;304
1586;472
1587;0
1588;80
1589;1
1590;71
1591;108
1592;1
1593;340
1594;0
1595;0
1596;3596
1597;95
1598;44
1599;24030
1600;4948
1601;4798
1602;4809
1603;10000
1604;3925
1605;340
1606;59
1607;0
1608;0
1609;0
1610;0
1612;317
1613;0
1614;40
1615;0
1616;0
1617;2575
1618;26
1619;37
1620;1
1621;73
1622;37
1623;44
1624;25
1625;43
1626;0
1627;79
1628;30,40
1629;165,50
1630;273
1631;164
1632;167
1633;81
1634;0
1635;0
1636;39
1637;93
1638;0
1639;1
1641;15
1642;50
1643;30
1644;84
1645;5
1646;0
1647;3
1648;93
1649;51
1650;55
1651;72
1652;25
1653;33
1654;40
1655;132
1656;136
1657;153
1658;144
1659;88
1660;152
1661;3
1662;97
1663;2
1664;65
1665;0
1666;100
1667;43
1668;66
1669;5
1670;0
1671;4260
1672;26
1673;0
1674;0
1675;0
1676;0
1677;2239
1679;0
1680;0
1681;50
1682;3100
1683;0
1684;0
1685;0
1686;0
1687;0
1688;0
1689;0
1691;0
1692;0
1693;0
1694;0
1695;0
1696;0
1697;0
1701;550
1702;0
1703;0
1704;15
1705;0
1706;0
1707;0
1708;0
1709;0
1710;850
1711;0
1712;0
1713;5193
1714;0
1715;0
1716;0
1717;30
1718;0
1719;0
1720;0
1721;0
1722;0
1723;0
1724;0
1725;0
1726;0
1727;0
1728;166
1729;153
1730;82
1731;19
1732;26
1733;0
1734;0
1735;0
1736;0
1737;0
1738;0
1739;233
1740;352
1741;0
1745;0
1746;0
1747;1400
1748;0
1749;0
1750;200
1751;40
1752;19
1753;500
1754;0
1755;0
1756;0
1757;1
1758;2
1759;0
1760;2
1761;0
1762;0
1763;0
1764;2
1765;2
1766;2
1767;1
1768;0
1769;0
1770;0
1773;0
1774;0
1775;0
1776;0
1777;0
1778;0
1779;0
1780;0
1781;0
1782;0
1783;0
1784;0
1785;0
1786;0
1787;0
1788;0
1789;858
1790;0
1791;0
1792;78
1793;78
1794;79
1795;65
1796;79
1797;79
1798;63
1799;58
1800;63
1801;46
1802;29
1803;241
1804;1
1805;1338
1806;7
1807;0
1808;0
1809;0
1810;0
1811;15
1812;3
1813;3
1814;185
1815;5
1816;100
1817;25
1818;30
1819;0
1820;0
1821;0
1822;692
1823;0
1824;0
1825;428
1826;0
1827;0
1829;22
1830;0
1831;6
1832;0
1833;30
1834;717
1835;1867
1836;69
1837;135
1838;0
1839;2
1840;0
1841;0
1842;0
1843;0
1844;66
1845;83
1846;68
1847;3800
1848;1
1849;3
1850;4
1851;3
1852;0
1853;0
1854;0
1855;0
1856;0
1857;0
1858;0
1859;0
1861;0
1862;0
1863;0
1864;1
1865;0
1866;0
1867;0
1868;0
1869;541
1870;0
1872;0
1873;0
1874;0
1875;0
1876;0
1877;0
1878;0
1879;0
1880;0
1881;0
1882;31500
1883;800
1884;100
1885;32000
1886;0
1887;0
1888;0
1889;0
1890;0
1891;0
1892;0
1893;0
1894;0
1895;79
1896;0
1897;0
1898;0
1899;599
1900;0
1901;0
1902;15
1903;22
1904;8
1905;5
1906;7
1907;3
1908;2
1909;2
1910;6
1911;2
1912;1
1913;2
1914;2
1915;2
1916;2
1917;0
1918;12
1919;31
1920;76
1921;10
1923;26
1924;94
1925;142
1926;46
1927;27
1928;45
1929;21
1930;71
1932;48
1933;37
1934;31
1935;20
1936;21
1937;31
1938;89
1939;70
1940;49
1941;77
1942;54
1943;5
1944;6
1945;20
1946;20
1947;13
1948;10
1949;13
1950;14
1951;60
1952;7
1953;7
1954;27
1955;100
1956;44
1957;51
1958;32
1959;0
1960;0
1961;0
1962;0
1963;1080
1964;1100
1965;0
1966;0
1967;0
1968;0
1969;0
1972;1
1973;0
1974;0
1975;0
1976;0
1977;0
1978;0
1979;0
1980;0
1981;0
1982;1069
1983;0
1984;0
1985;0
1986;0
1987;0
1988;21
1989;27
1990;58
1991;18
1992;46
1993;27
1994;20
1995;35
1996;50
1997;12
1998;16
1999;24
2000;54
2001;31
2002;12
2008;4
2009;0
2010;0
2011;0
2012;0
2013;3
2014;0
2015;0
2016;0
2017;0
2018;5
2019;0
2020;0
2021;0
2022;0
2023;6
2024;0
2025;0
2026;0
2027;0
2028;2
2029;1
2030;1
2031;3
2032;0
2033;0
2034;0
2035;0
2036;0
2037;5
2038;7
2039;0
2040;0
2041;229
2042;227
2044;278
2045;39
2047;0
2048;0
2049;0
2050;0
2051;0
2052;26
2053;16
2054;496
2055;1
2056;182
2057;0
2058;0
2059;0
2060;0
2061;0
2062;0
2063;0
2064;1386
2065;774
2066;0
2067;0
2068;0
2069;0
2077;966
2078;1036
2079;547
2080;0
2081;0
2082;0
2083;0
2084;0
2085;0
2086;0
2087;0
2088;0
2089;0
2090;0
2091;0
2092;0
2093;0
2094;0
2095;0
2096;0
2097;0
2098;0
2099;0
2100;0
2101;0
2102;0
2103;0
2104;0
2105;0
2106;0
2107;0
2108;0
2109;0
2110;0
2111;0
2112;0
2113;0
2114;0
2115;0
2116;0
2117;0
2118;0
2119;0
2120;0
2121;0
2122;0
2123;0
2124;0
2125;0
2126;0
2127;0
2128;0
2129;0
2130;0
2131;0
2132;0
2133;6
2134;0
2135;3
2136;0
2137;0
2138;2
2139;0
2140;2
2141;2
2142;2
2143;5
2144;0
2145;0
2146;3
2147;0
2148;5
2149;5
2150;3
2152;752
2153;380
2154;496
2155;70
2156;80
2157;98
2158;0
2159;24
2160;64
2161;0
2162;4746
2163;0
2164;402
2165;0
2167;1000
2168;259
2169;2545
2170;0
2171;11
2172;0
2173;0
2174;99
2175;0
2176;258
2177;120
2178;1
2179;1
2180;0
2181;0
2182;108
2183;0
2184;1
2185;10
2186;6
2187;6
2188;19
2189;4
2190;0
2191;0
2192;0
2193;19782
2194;0
2195;0
2196;0
2197;10
2198;0
2199;0
2202;0
2203;0
2204;0
2205;15
2206;0
2207;0
2208;0
2210;0
2211;0
2213;3539
2214;2
2215;1
2216;5
2217;5
2219;1
2220;5
2221;2
2222;2
2223;2
2224;3
2225;2
2226;1
2227;2
2228;2
2229;1
2230;1
2231;1
2232;1
2233;1
2234;0
2235;1
2236;2
2237;2
2238;2
2239;2
2240;2
2241;2
2242;3
2243;2
2244;2
2245;1
2246;3
2247;0
2248;0
2249;0
2250;0
2251;0
2252;0
2253;0
2254;0
2255;4
2256;6
2257;0
2258;0
2259;1
2260;1
2261;0
2262;0
2263;10
2264;1
2265;5
2266;0
2267;0
2268;0
2269;0
2270;5
2271;0
2272;2
2273;0
2274;0
2275;0
2276;0
2277;0
2278;2
2279;1
2281;15
2282;100
2283;8
2284;244
2285;131
2286;158
2287;444
2288;56
2289;265
2290;86
2291;104
2292;445
2293;0
2294;106
2295;5
2296;17
2297;0
2298;0
2299;0
2300;0
2301;0
2302;0
2303;0
2304;0
2305;0
2306;0
2307;0
2308;0
2312;11
2313;10
2314;22
2315;72
2316;179
2317;295
2318;177
2319;44
2320;89
2321;121
2322;46
2323;229
2324;6
2325;3
2326;0
2327;371
2328;163
2329;78
2330;0
2331;13
2332;0
2333;0
2334;10
2335;0
2336;0
2337;0
2338;0
2339;0
2340;0
2341;3771
2342;271
2343;0
2344;0
2345;2
2346;1
2347;393
2348;2915
2349;5749
2350;11
2351;23
2352;0
2353;0
2354;27
2355;0
2356;260
2357;260
2358;0
2359;397
2360;20
2361;1197
2362;0
2363;0
2364;0
2365;0
2366;30
2367;40
2368;40
2369;50
2370;1
2371;0
2372;0
2373;3
2374;7778
2375;2
2376;3
2377;2
2378;1
2379;832
2380;2870
2381;0
2382;1473
2383;0
2384;2985
2392;2
2393;1
2394;2
2395;3
2396;2
2397;0
2398;0
2399;0
2400;0
2401;0
2402;0
2403;274
2404;4000
2405;100
2406;418
2407;0
2408;399
2409;143
2410;100
2411;250
2412;6990
2413;0
2414;0
2415;200
2416;40
2417;87
2418;43
2419;0
2420;46
2421;0
2422;225
2423;0
2424;258
2425;0
2426;12
2427;0
2428;277
2429;1
2430;0
2431;379
2432;0
2433;0
2434;517
2435;0
2436;0
2437;0
2438;1605
2439;0
2440;0
2441;112
2442;45
2443;14
2444;7
2445;17
2446;5
2447;25
2448;0
2449;2
2450;5
2451;4
2452;15
2453;1
2454;1
2455;2
2456;2
2457;2
2458;110
2459;95
2460;30
2461;27
2462;4
2463;20
2464;325
2465;204
2466;364
2467;12
2468;83
2469;10
2470;0
2471;34
2473;2
2474;223
2475;1
2476;17
2477;6
2478;65
2479;2175
2480;0
2481;120
2482;160
2483;50
2484;0
2485;1
2486;500
2487;2440
2488;3
2489;2
2490;2
2491;2
2492;2
2493;3
2494;2
2495;4
2496;1
2497;0
2498;3
2499;2
2500;2
2501;30
2502;0
2503;109
2504;11
2505;0
2506;77
2507;83
2508;278
2509;0
2510;0
2511;0
2512;0
2514;4421
2516;0
2517;2
2518;10000
2519;20000
2520;20000
2521;20000
2522;10000
2523;0
2524;10000
2525;9958
2526;10000
2527;10000
2528;10000
2529;10000
2530;10000
2531;10000
2532;20000
2533;10000
2534;10000
2536;10000
2537;10000
2538;9999
2539;10000
2540;10000
2541;0
2542;686
2543;0
2544;242
2545;0
2546;0
2547;5
2548;5
2549;5
2550;5
2551;5
2552;5
2553;5
2554;5
2555;5
2556;5
2557;30
2558;10
2559;10
2560;9
2561;4
2562;4
2563;1
2565;571
2566;110
2567;790
2568;4
2569;2
2570;5000
2571;5
2572;0
2573;0
2575;0
2576;4193
2577;966
2579;14
2580;1
2581;1
2582;2
2583;6
2584;16
2585;0
2586;1
2587;1
2588;1
2589;14
2590;20
2591;8
2592;1
2593;1
2594;6
2595;1
2596;1
2597;2
2598;0
2599;215
2600;346
2601;236
2602;4750
2603;0
2604;0
2605;0
2606;0
2607;0
2608;2
2609;0
2612;35
2613;31
2614;45
2615;45
2616;38
2617;1
2618;0
2619;30
2620;60
2621;0
2622;12
2628;0
2629;5
2630;0
2631;0
2632;0
2633;0
2634;0
2635;0
2636;0
2637;0
2638;0
2639;1
2640;6
2641;0
2642;0
2643;0
2644;4
2645;0
2646;0
2647;0
2648;0
2649;0
2650;0
2651;1
2652;0
2653;0
2654;0
2655;7
2656;0
2657;22
2658;3
2659;2
2660;4
2661;4
2662;20
2663;0
2664;14
2665;0
2666;4
2667;0
2668;0
2669;5
2670;2
2671;15
2672;240
2673;0
2674;0
2675;0
2676;0
2677;0
2678;7
2679;0
2680;493
2681;0
2682;512
2683;0
2684;292
2685;0
2686;215
2687;0
2688;9
2689;0
2690;0
2691;0
2692;406
2693;4
2694;513
2695;0
2696;521
2697;5
2698;65
2699;0
2700;483
2701;0
2702;294
2703;0
2704;0
2705;10
2706;4687
2707;0
2708;0
2709;0
2714;13
2715;11
2716;2
2717;4
2718;2
2719;0
2720;0
2721;0
2722;0
2723;11
2724;7
2726;0
2727;0
2728;0
2729;1
2730;1
2731;1
2732;1
2733;0
2734;0
2735;0
2736;8
2737;0
2738;100
2739;0
2740;100
2741;0
2742;24
2743;1428
2744;212
2745;3707
2746;237
2747;249
2748;283
2749;2564
2750;525
2751;16
2752;0
2753;313
2754;500
2755;276
2756;250
2757;1133
2758;2550
2759;1117
2760;2918
2761;4476
2762;5856
2763;0
2764;1100
2765;0
2766;6,8836
2767;4945
2768;0
2769;1326
2770;2813
2771;428
2772;74
2773;46
2774;0
2775;0
2779;20
2781;29
2782;0
2783;0
2784;253
2785;276
2786;0
2787;60
2788;184
2789;0
2790;0
2791;1
2792;1
2793;1
2794;1
2795;1
2796;1
2797;0
2798;0
2799;3
2800;0
2801;2
2802;1
2803;1
2804;1
2805;1
2806;1
2807;1
2808;8
2809;8
2810;59
2811;0
2812;2
2813;2
2814;13
2815;0
2816;2
2817;0
2818;0
2819;0
2820;0
2821;0
2822;0
2823;0
2824;0
2825;0
2826;0
2827;0
2828;0
2829;0
2830;1390
2831;0
2832;0
2833;0
2834;0
2835;0
2836;655
2837;88000
2838;0
2839;0
2840;0
2841;0
2842;0
2843;0
2844;1
2845;0
2846;0
2847;0
2848;1
2849;0
2850;0
2851;3
2852;0
2853;0
2854;0
2855;1
2856;0
2857;0
2858;1
2859;0
2860;0
2861;0
2862;3
2863;0
2864;0
2865;0
2866;0
2867;0
2868;0
2869;0
2870;0
2871;0
2872;0
2873;0
2874;0
2875;0
2876;1
2877;0
2878;0
2879;1
2880;0
2881;0
2882;0
2883;0
2884;0
2885;0
2886;3
2887;0
2888;0
2889;0
2890;0
2891;0
2892;0
2893;0
2894;5
2895;0
2896;0
2897;1
2898;0
2899;3
2900;0
2901;1
2902;0
2903;0
2904;0
2905;0
2906;0
2907;0
2908;0
2909;0
2910;0
2911;0
2912;0
2913;0
2914;5
2915;0
2916;0
2917;1
2918;0
2919;4
2920;0
2921;0
2922;0
2923;0
2924;0
2925;0
2926;0
2927;0
2928;0
2929;4
2930;0
2931;0
2932;0
2933;0
2934;0
2935;1225
2936;0
2937;96
2938;3322
2939;507
2940;1905
2941;0
2942;693
2943;278
2944;1558
2945;1175
2946;824
2947;0
2948;0
2949;0
2950;0
2951;0
2952;0
2954;0
2955;0
2956;0
2957;0
2958;0
2959;0
2960;0
2961;0
2962;0
2963;0
2965;0
2966;0
2967;0
2968;0
2969;0
2972;0
2973;0
2974;0
2975;0
2976;0
2977;0
2978;0
2979;0
2980;0
2981;0
2982;0
2983;0
2984;0
2985;0
2986;0
2987;0
2988;0
2989;0
2990;0
2991;0
2992;0
2993;0
2994;0
2995;0
2996;0
2997;0
2998;0
2999;4,9960
3000;0
3001;0
3002;0
3003;0
3004;0
3005;0
3006;0
3007;0
3008;0
3009;0
3010;0
3011;0
3012;0
3013;0
3014;0
3015;0
3016;0
3017;0
3018;0
3019;0
3020;0
3021;0
3022;0
3023;0
3024;8
3025;0
3026;0
3027;0
3028;0
3029;0
3030;0
3031;0
3032;0
3033;0
3034;4003
3035;0
3036;200
3037;0
3038;0
3039;666
3040;0
3041;305
3042;0
3043;0
3044;0
3045;4
3046;7
3047;0
3048;0
3049;0
3050;391
3051;385
3052;23
3053;157
3054;0
3055;172
3056;218
3057;100
3058;0
3059;7015
3060;0
3061;0
3062;0
3063;0
3064;0
3065;0
3066;0
3067;756
3068;0
3069;468
3070;0
3071;0
3072;0
3073;0
3074;2016
3075;0
3076;82
3077;0
3078;0
3079;0
3080;0
3081;0
3082;0
3083;0
3084;0
3085;0
3086;1000
3087;0
3088;0
3090;0
3091;0
3092;0
3093;0
3095;197
3096;0
3097;8
3098;2428
3099;15
3100;0
3101;0
3102;62,1490
3103;0
3104;11
3105;49
3106;442
3107;0
3108;0
3109;0
3110;0
3111;0
3112;0
3113;0
3114;20
3115;0
3116;0
3117;0
3118;0
3119;0
3120;0
3121;0
3122;0
3123;0
3124;0
3125;0
3126;3
3127;17
3128;0
3129;0
3130;0
3131;0
3132;0
3133;0
3134;0
3137;0
3138;0
3139;0
3140;0
3141;0
3142;1,52
3143;0
3144;0
3145;0
3146;0
3147;0
3148;0
3149;0
3150;0
3151;0
3152;0
3153;0
3154;0
3155;0
3156;10
3157;10
3158;82
3159;0
3160;0
3161;6
3162;0
3163;0
3164;3
3165;200
3166;73
3167;28
3168;148
3169;0
3170;0
3171;0
3172;5
3173;0
3174;0
3175;40
3176;10
3177;5
3178;0
3179;0
3180;0
3181;0
3182;0
3183;0
3184;0
3185;0
3186;0
3187;0
3188;0
3189;0
3190;0
3191;0
3192;0
3193;30
3194;9
3195;0
3196;0
3197;337
3198;258
3199;0
3200;0
3201;0
3202;0
3203;0
3204;0
3205;0
3206;2,60
3207;753,50
3208;35
3209;29
3210;44
3211;46
3212;90
3213;61
3214;35
3215;27
3216;44
3217;42
3218;30
3219;35
3220;70
3221;56
3222;172
3223;26
3224;830
3225;930
3226;0
3227;0
3228;12
3229;0
3230;0
3231;0
3232;0
3233;0
3234;73
3235;0
3236;0
3237;0
3238;0
3239;0
3240;0
3241;0
3242;0
3243;400
3244;10
3245;10
3246;10
3247;6
3248;0
3249;3
3250;0
3251;17600
3252;31500
3253;0
3254;0
3255;0
3256;0
3257;0
3258;141
3259;0
3260;0
3261;55
3262;2
3263;0
3264;728
3265;32
3266;18
3267;0
3268;0
3269;0
3270;0
3271;0
3272;0
3273;0
3274;0
3275;0
3276;0
3277;0
3278;0
3279;0
3280;39
3281;32
3282;0
3283;4
3284;4
3285;4
3286;2
3287;500
3288;946
3289;40
3290;0
3291;0
3292;3,90
3293;68
3295;0
3296;0
3297;1
3298;908
3299;911
3300;288
3301;7
3302;0
3303;0
3304;300
3305;0,012470
3306;0
3307;0
3308;5
3309;0
3310;0
3311;5
3312;0
3313;0
3314;5
3315;0
3316;0
3317;4
3318;0
3319;0
3320;4
3321;0
3322;0
3323;2
3324;0
3325;1
3326;0
3327;2
3328;0
3329;2
3330;0
3331;0
3332;0
3333;0
3334;0
3335;0
3336;4
3337;70
3338;227
3339;400
3340;800
3341;0
3342;0
3343;0
3344;0
3345;0
3346;569
3347;0
3348;0
3349;0
3350;0
3351;250
3352;0
3353;0
3354;0
3355;0
3356;0
3357;0
3358;0
3359;0
3360;0
3361;0
3362;0
3363;0
3364;0
3365;0
3366;360
3367;0
3368;0
3369;0
3370;19
3372;0
3373;0
3374;0
3375;0
3376;0
3377;0
3378;0
3379;50
3380;0
3381;0
3382;0
3383;0
3384;1
3385;101
3386;300
3389;10
3390;0
3391;0
3392;0
3393;0
3394;300
3395;0
3396;0
3397;0
3398;0
3399;0
3400;0
3401;0
3402;0
3403;0
3404;0
3405;4
3406;0
3407;0
3408;0
3409;0
3410;0
3411;0
3412;0
3413;0
3414;0
3415;0
3416;2250
3417;0
3418;0
3419;0
3420;0
3421;0
3422;0
3423;0
3424;60
3425;390
3427;0
3428;5
3429;0
3430;0
3431;0
3432;0
3433;1160
3434;0
3435;1
3436;0
3437;0
3438;0
3440;3670
3441;176
3442;0
3443;0
3444;0
3445;0
3446;0
3448;0
3449;0
3450;0
3451;0
3452;1578
3453;0
3454;0
3455;0
3456;0
3457;0
3458;0
3459;0
3460;0
3461;0
3462;0
3463;0
3464;0
3465;0
3466;0
3467;0
3468;0
3469;0
3470;0
3471;0
3472;0
3473;0
3474;0
3475;22
3476;25
3477;384
3478;93
3479;100
3480;613
3481;50
3482;100
3483;25
3484;79
3485;495
3486;90
3487;79
3488;51
3489;200
3490;150
3491;25
3492;38
3493;100
3494;100
3495;0
3496;0
3497;0
3498;0
3499;0
3500;0
3501;0
3502;0
3503;0
3504;0
3506;0
3507;0
3508;0
3509;0
3510;0
3511;0
3512;0
3513;0
3514;0
3515;0
3516;0
3517;0
3518;0
3519;0
3520;0
3521;0
3522;0
3523;0
3524;0
3526;0
3527;0
3528;0
3529;0
3530;0
3531;0
3532;0
3533;0
3534;0
3535;0
3536;0
3537;0
3538;0
3539;0
3540;0
3541;0
3542;0
3543;0
3544;0
3545;0
3546;0
3547;0
3548;0
3549;0
3550;0
3551;0
3552;0
3553;0
3554;0
3555;0
3556;0
3557;0
3558;0
3559;0
3560;0
3561;0
3562;0
3563;0
3564;0
3565;0
3566;0
3567;0
3568;0
3569;0
3570;0
3571;0
3572;0
3573;0
3574;0
3575;0
3576;0
3577;0
3578;0
3579;0
3580;0
3581;0
3582;0
3583;0
3584;0
3585;0
3586;0
3587;0
3588;0
3589;0
3590;0
3591;0
3592;0
3593;0
3594;0
3595;0
3596;0
3597;0
3598;0
3599;0
3600;0
3601;0
3602;0
3603;0
3604;0
3605;0
3606;0
3607;0
3608;0
3609;0
3610;0
3611;0
3612;5000
3613;0
3614;0
3615;0
3616;0
3617;0
3618;0
3619;0
3620;0
3621;0
3622;0
3623;0
3624;0
3625;0
3626;0
3627;0
3628;0
3629;0
3630;0
3631;0
3632;0
3633;0
3634;108
3635;0
3636;0
3637;0
3638;0
3639;0
3640;0
3641;0
3642;0
3643;800
3644;0
3645;1600
3646;0
3647;0
3648;0
3649;0
3650;0
3651;0
3652;0
3653;0
3654;0
3655;0
3656;0
3657;0
3658;0
3659;0
3660;0
3661;0
3662;0
3663;0
3664;0
3665;0
3666;0
3667;0
3668;0
3669;0
3670;0
3671;0
3672;87
3673;35
3674;15
3675;50
3676;0
3677;0
3678;0
3679;200
3680;200
3681;0
3682;0
3683;0
3684;0
3685;0
3686;0
3687;0
3688;10
3689;0
3690;0
3691;0
3692;0
3693;0
3694;0
3695;0
3696;0
3697;43
3698;0
3699;0
3700;0
3701;0
3702;0
3703;0
3704;0
3705;0
3706;0
3707;0
3708;0
3709;0
3710;0
3711;0
3712;0
3714;0
3715;463
3716;0
3717;0
3718;64
3719;0
3720;0
3721;0
3722;462
3723;0
3724;0
3725;15
3726;32
3727;29
3728;0
3729;0
3730;15
3731;28
3732;18
3733;2
3734;0
3735;16
3736;25
3737;20
3738;0
3739;0
3740;0
3741;0
3742;0
3743;0
3744;0
3745;19
3746;22
3747;26
3748;5
3749;0
3750;12
3751;5
3752;1
3753;21
3754;0
3755;180
3756;0
3757;0
3758;0
3759;0
3760;0
3761;0
3762;0
3763;0
3764;0
3765;100
3766;0
3767;0
3768;0
3769;0
3770;0
3771;0
3772;0
3773;0
3774;0
3775;0
3776;0
3777;0
3778;0
3779;0
3780;0
3781;0
3782;0
3783;0
3784;0
3785;0
3786;0
3787;0
3788;0
3789;0
3790;0
3791;0
3792;0
3793;397
3794;0
3795;0
3796;0
3797;100
3798;0
3799;0
3800;0
3801;0
3802;0
3803;0
3804;16
3805;15
3806;0
3807;0
3808;0
3809;0
3810;0
3811;0
3812;0
3813;0
3814;0
3815;0
3816;0
3817;0
3818;0
3819;0
3820;0
3821;0
3822;0
3823;0
3824;0
3825;0
3826;0
3827;0
3828;0
