1;0
2;0
3;10
4;7
5;0
6;0
7;5
8;0
9;0
10;0
11;15
12;10
13;4
14;0
15;2
16;9
17;10
18;5
19;10
20;5
21;8
22;14
23;0
25;34
26;5
27;8
28;4
29;3
30;0
31;0
32;0
33;0
34;0
35;0
36;0
37;0
38;12
39;21
40;28
41;90
42;5
43;16
44;40
45;74
46;31
47;20
48;27
49;60
50;24
51;57
52;12
53;29
54;14
55;116
56;71
57;6
58;7
59;0
60;53
61;350
62;7
63;0
64;2
65;3
66;5
67;2
68;3
69;2
70;26
71;0
72;10
73;18
74;6
75;1
76;3
77;5
78;0
79;17
80;2
81;9
82;4
83;19
84;3
85;23
87;0
88;0
89;0
90;37
91;74
92;83
93;42
94;87
95;37
96;29
97;68
98;9
99;43
100;5
101;0
102;0
103;4679
104;812
105;0
106;361
107;939
108;1634
109;537
110;518
111;385
112;2200
113;2616
114;1800
115;3264
116;1516
117;2176
118;3835
119;4016
120;1599
121;7394
122;0
123;1100
124;0
126;3828
127;526
128;3995
129;17
130;0
131;980
132;375
133;1000
134;720
135;3543
136;592
137;63
138;839
139;1196
140;2966
141;1185
142;0
143;769
144;66
145;899
146;1750
147;205
148;160
149;800
150;511
151;763
152;549
153;4274
154;1165
155;724
156;1310
157;860
158;790
159;665
160;325
161;1782
162;2562
163;1420
164;1500
166;5373
167;5914
168;3300
169;1803
170;2625
171;3500
172;2478
173;8000
174;4600
175;4189
176;3440
177;0
178;6057
179;3790
180;270
181;16870
182;3198
183;1467
185;13133
186;4800
187;4829
188;3342
189;7281
190;3500
191;1700
192;4780
193;4000
195;4300
196;6880
197;0
198;3369
199;3840
200;8205
201;4830
202;0
203;10300
204;4807
205;4043
206;0
207;0
208;2299
209;4711
210;4951
211;804
212;4800
213;3433
214;3720
215;4900
216;1643
217;2892
218;4099
219;4698
220;5029
221;0
222;0
223;2879
224;3955
225;0
226;2751
227;3887
228;2842
229;4899
230;2823
231;1200
232;4796
233;4800
234;2114
235;191
236;577
237;589
239;3846
240;5633
241;5227
242;0
243;12691
244;600
245;0
246;6680
247;0
248;2458
249;4303
250;0
251;0
253;0
254;0
255;0
256;0
257;0
258;0
259;0
260;0
261;1555
262;945
263;984
264;225
265;0
266;75
267;194
268;469
269;271
270;670
271;0
272;0
273;233
274;0
275;252
276;196
277;1767
278;0
279;207
280;5163
281;5622
282;3350
283;1156
284;0
285;16
286;1167
287;529
288;587
289;0
290;0
291;0
292;446
293;2230
294;767
295;100
296;1246
297;0
298;0
299;0
300;0
301;0
302;3740
303;492
304;3274
305;1089
306;0
307;0
308;0
309;7924
310;0
311;67
312;114
313;20
314;0
315;166
318;68
319;1648
320;0
321;0
322;730
323;2
324;0
325;443
326;30
327;0
328;0
329;0
330;1986
331;0
332;0
333;0
334;0
335;1762
336;745
337;832
338;836
339;315
340;0
341;0
342;102
343;0
344;0
345;569
346;18
347;0
348;0
349;0
350;0
351;0
353;0
354;0
355;0
356;200
357;0
358;0
359;5
360;0
361;0
362;0
363;0
364;0
365;0
366;0
367;0
368;0
369;0
370;0
371;0
372;0
373;0
374;0
375;0
376;0
377;0
378;0
379;0
380;0
381;0
382;0
383;0
384;0
385;0
386;0
387;0
388;0
389;0
390;0
391;0
392;0
393;0
394;200
395;0
397;0
398;10
399;3
400;97
401;70
402;5683
403;9255
404;6557
405;46836
406;9065
407;3158
408;7269
409;4152
410;317
411;1093
412;7312
413;4852
414;5000
415;3825
416;0
417;57756
418;4773
419;9268
420;9178
421;15604
422;4862
423;15222
424;46623
425;13581
426;1975
427;4158
428;3304
429;4844
430;11403
431;4932
432;18412
433;10749
434;1136
435;1264
436;2514
437;4509
438;5779
439;3919
442;3000
443;300
444;727
445;78
446;434
447;0
448;328
449;1042
451;221
452;117
453;134
454;79
455;95
456;184
457;239
458;470
459;152
460;45
461;56
462;253
463;75
464;102
465;234
466;0
467;24
468;86
469;162
470;149
471;119
472;4
473;1100
503;0
504;0
505;0
506;0
507;69
508;0
509;2
510;0
511;0
512;0
516;0
517;0
518;32
519;0
526;0
527;2
528;2
529;1
539;411
540;28
541;238
542;47
543;495
544;0
545;1246
546;996
547;431
548;49
549;0
550;542
551;361
552;263
553;268
554;1050
555;958
556;39
557;740
558;423
559;930
560;223
561;419
562;206
563;113
564;452
565;487
566;98
567;3
568;0
569;0
570;0
571;149
572;0
573;121
574;1000
575;103
576;0
577;0
578;0
579;0
580;0
581;0
582;500
583;0
584;997
585;150
586;318
587;0
588;41
589;2501
590;284,90
591;60
592;151
593;206
594;87
595;25
596;37
597;56
598;37
599;30
600;60
601;203
602;73
603;98
604;41
605;282
606;155
607;0
608;131
609;301
610;323
611;225
612;238
613;0
614;707
615;18748
616;6000
617;0
618;0
619;24000
620;0
621;1540
622;0
623;0
624;0
625;30
626;0
627;0
628;0
629;27158
630;6082
631;0
632;80
633;393
634;241
635;214
636;7430
637;1275
638;0
639;428
640;359
641;0
642;331
643;495
644;500
645;284
646;153
647;256
648;63
649;593
650;0
651;406
652;384
653;389
654;2630
655;83
656;1343
657;88
658;0
659;0
660;163
661;2541
662;110
664;0
665;0
666;0
667;5
668;0
669;0
670;0
671;0
672;0
673;0
674;0
675;0
676;0
677;11
678;0
679;0
680;0
681;0
682;1
683;1
684;1
685;0
686;0
687;0
689;0
691;4
692;0
693;0
694;10
695;17
696;13
697;9
698;7
699;0
700;2
701;2
702;3
703;8
704;1
705;2
706;3
707;2
708;2
709;1
710;2
711;1
712;2
713;2
714;2
715;1
716;2
717;2
718;3
719;3
720;3
721;3
722;2
723;0
724;0
725;0
726;0
727;0
728;1
729;0
730;0
731;0
732;0
733;0
734;0
735;0
736;0
737;0
738;0
739;0
740;0
741;0
742;1383
743;0
744;0
745;0
746;0
747;0
748;0
749;0
750;0
751;0
752;0
753;0
754;0
755;1
756;167
757;222
758;0
759;0
760;163
761;885
762;22
763;61
764;0
765;0
766;174
767;0
768;0
769;0
770;0
771;0
772;0
773;0
774;0
775;0
776;0
777;95
778;0
779;0
780;0
781;0
782;0
783;0
784;0
785;0
786;0
787;355
788;353
789;0
790;0
791;558
792;0
793;0
794;35,883822
795;0
796;0
797;0
798;0
799;0
800;0
801;0
802;0
803;0
804;0
805;0
806;0
807;0
808;0
809;0
810;0
811;0
812;0
813;0
814;0
815;0
816;0
817;0
818;0
819;0
820;0
821;0
822;0
823;0
824;0
825;0
826;0
827;20
828;14
829;20
830;20
831;4
832;5
833;0
834;8
835;173
836;18
837;0
838;71
839;60
840;19
841;13
842;0
843;0
844;0
845;0
846;0
847;19
848;1
849;0
850;0
851;0
852;0
853;0
854;0
855;0
856;0
857;0
858;0
859;0
860;0
861;0
862;0
863;27
864;21
865;0
866;0
867;0
868;0
869;7264
870;0
871;0
872;2815
873;0
874;2000
875;0
876;0
877;4305
879;0
880;0
881;0
882;0
883;0
884;0
885;795
886;0
887;0
888;0
889;0
890;0
891;0
892;0
893;0
894;0
895;0
896;0
897;0
898;0
899;0
900;0
901;0
902;0
903;0
904;0
905;0
906;0
907;0
908;0
909;0
910;0
911;0
912;0
913;0
914;0
915;0
916;0
917;0
918;0
919;0
920;0
921;0
922;0
923;0
924;0
925;0
926;0
939;3
940;269
941;128
942;55
943;21
944;53
945;21
946;49
947;64
948;24
949;21
950;15
951;22
952;97
953;25
954;120
955;88
956;48
957;29
958;16
959;0
960;0
961;0
962;288
963;0
964;120
965;39
966;0
967;3950
968;1182
969;4371
970;470
971;3579
972;2236
973;3500
974;1579
975;984
976;1919
977;0
978;0
979;0
980;8504
981;6015
982;0
983;0
984;0
985;0
986;0
987;0
988;0
989;0
990;0
991;0
992;1
993;0
994;0
995;0
996;0
997;3
998;2
999;3
1000;9
1001;3
1002;3
1003;8
1004;3
1005;1
1006;2
1008;62
1009;50
1010;4069
1011;7229
1012;269
1013;105
1014;95
1015;323
1016;317
1017;130
1018;407
1019;223
1020;3767
1021;623
1022;0
1023;359
1024;85
1025;0
1026;0
1027;0
1028;0
1029;152
1030;44
1031;123
1032;481
1033;0
1034;128
1035;0
1036;1595
1037;0
1038;97
1042;0
1043;1
1044;0
1045;2
1046;2
1047;1
1048;0
1049;1
1050;200
1051;163
1052;203
1053;180
1054;150
1055;135
1056;111
1057;191
1058;80
1059;54
1060;4
1061;99
1062;88
1063;0
1064;0
1065;0
1066;24
1067;0
1068;0
1069;0
1070;0
1071;0
1072;0
1073;7
1074;93
1075;3
1076;33
1077;94
1078;39
1079;35
1080;31
1081;46
1082;0
1083;43
1084;37
1085;166
1086;52
1087;145
1088;0
1089;82
1090;60
1091;82
1092;0
1093;2
1094;0
1095;0
1096;109
1097;11
1098;25
1099;0
1100;0
1101;18
1102;1
1103;16
1104;41
1105;0
1106;2
1107;26
1108;18
1109;24
1110;0
1111;49
1112;0
1113;83
1114;205
1115;133
1125;0
1126;5
1127;1
1128;0
1129;100
1130;0
1131;2
1132;0
1133;84
1134;0
1135;34
1136;0
1137;19
1138;2
1139;4
1141;0
1142;0
1143;0
1144;0
1145;0
1146;0
1147;804
1148;3948
1149;279
1150;0
1151;75,50
1152;3
1153;132
1154;49,50
1155;0
1156;0
1157;0
1158;0
1159;0
1160;0
1161;0
1162;0
1163;50
1165;0
1166;0
1167;0
1168;253
1169;36
1170;369
1171;1
1175;0
1176;0
1179;0
1180;0
1181;18
1182;0
1183;79
1184;0
1185;38
1186;393
1187;894
1188;30
1189;0
1190;10
1191;3
1192;3
1193;211
1194;241
1195;4014
1196;55
1197;88
1198;23
1199;77
1200;70
1201;96
1202;167
1203;131
1204;268
1205;69
1206;45
1207;48
1208;124
1209;77
1210;14
1211;0
1212;169
1213;102
1214;0
1215;2
1216;0
1217;0
1218;0
1219;0
1221;0
1222;0
1223;0
1224;0
1225;0
1226;0
1227;0
1228;0
1229;0
1230;0
1231;0
1232;0
1233;0
1234;0
1235;0
1236;0
1237;0
1238;0
1239;0
1240;0
1241;0
1242;0
1243;0
1244;0
1245;0
1246;0
1247;3350
1248;984
1249;657
1250;0
1251;0
1252;0
1253;0
1254;0
1255;0
1256;0
1257;0
1258;0
1259;0
1260;0
1261;0
1262;0
1263;0
1264;0
1265;0
1266;89
1267;16
1268;3277
1269;1700
1270;2373
1271;0
1272;283
1273;0
1274;541
1275;0
1276;0
1278;0
1279;0
1280;0
1281;0
1282;0
1283;0
1284;0
1285;0
1286;0
1287;0
1288;0
1289;0
1290;0
1291;0
1292;0
1293;0
1295;790
1296;0
1297;0
1298;0
1299;0
1300;0
1301;0
1302;0
1303;0
1304;0
1305;0
1306;0
1307;0
1308;0
1309;0
1310;0
1311;0
1312;0
1313;0
1314;0
1315;0
1316;0
1317;111094
1318;0
1319;0
1320;0
1321;0
1322;3294
1324;5210
1325;0
1326;0
1327;0
1328;0
1329;0
1330;0
1331;0
1332;0
1333;0
1334;0
1335;0
1336;0
1337;0
1338;0
1339;0
1340;0
1341;678
1342;0
1343;0
1344;0
1345;0
1346;0
1347;327
1348;233
1350;0
1351;0
1352;0
1353;0
1355;4064
1356;0
1357;0
1358;0
1359;9
1360;22
1361;39
1362;0
1366;0
1367;1974
1368;0
1369;5884
1370;5317
1371;137
1373;0
1374;0
1376;10
1377;0
1378;0
1379;0
1380;0
1381;0
1382;0
1383;0
1384;0
1385;0
1386;0
1387;0
1388;5
1389;7
1390;3
1391;11
1392;5
1393;2
1394;2
1395;4
1396;3
1397;0
1398;0
1399;0
1400;66
1401;0
1403;1852
1404;709
1405;943
1406;0
1407;694
1408;449
1409;247
1410;895
1411;149
1412;0
1413;0
1414;586
1415;0
1416;500
1417;0
1418;0
1419;42
1420;5054
1421;410
1423;6108
1424;5900
1425;800
1426;0
1427;0
1428;0
1429;0
1430;0
1431;0
1432;0
1433;0
1434;0
1435;0
1436;0
1437;1671
1438;0
1439;0
1440;0
1441;40
1442;0
1443;2
1444;1
1445;66
1446;7
1447;24
1448;221
1449;0
1450;5
1451;498
1452;829
1453;0
1454;0
1455;0
1457;0
1458;0
1459;0
1460;2895
1461;0
1462;0
1463;0
1464;0
1465;119
1466;59
1467;2
1468;100
1469;200
1470;0
1471;9
1472;0
1473;619
1476;0
1477;3
1478;0
1479;188
1480;0
1481;70
1482;0
1484;3021
1485;200
1486;0
1487;0
1488;0
1489;0
1490;0
1491;0
1492;314
1493;10
1494;10
1495;10
1496;12
1497;10
1498;10
1499;12
1500;12
1501;50
1502;50
1503;55
1504;97
1505;2434
1506;0
1507;0
1508;0
1509;0
1510;0
1511;0
1512;0
1513;0
1514;0
1515;0
1516;0
1517;0
1518;0
1519;0
1520;0
1521;0
1522;0
1523;0
1524;0
1525;396
1526;0
1527;0
1528;16
1529;0
1530;4700
1531;14
1532;0
1533;0
1534;0
1535;27
1536;0
1537;29
1538;72
1539;76
1540;10172
1541;8465
1542;6531
1543;7124
1544;1503
1545;3002
1547;583
1548;5035
1549;0
1550;6290
1551;1869
1552;3661
1553;1069
1554;6790
1555;6190
1556;4786
1557;9531
1558;3634
1559;13170
1560;9100
1561;10000
1562;0
1563;13910
1564;13685
1565;4073
1566;0
1567;3374
1568;13831
1569;14400
1570;4129
1571;0
1572;0
1573;19
1574;7952
1575;3900
1576;4300
1577;172
1578;23
1581;184
1582;297
1583;325
1584;285
1585;296
1586;664
1587;0
1588;80
1589;1
1590;75
1591;127
1592;1
1593;82
1594;0
1595;5
1596;3600
1597;143
1598;44
1599;24347
1600;4950
1601;4800
1602;4817
1603;0
1604;4763
1605;339
1606;59
1607;0
1608;0
1609;0
1610;0
1612;374
1613;0
1614;171
1615;15
1616;0
1617;1539
1618;36
1619;25
1620;1
1621;26
1622;33
1623;17
1624;33
1625;67
1626;89
1627;110
1628;1,50
1629;3
1630;1
1631;0
1632;11
1633;0
1634;37
1635;0
1636;52
1637;108
1638;37
1639;16
1641;26
1642;51
1643;32
1644;87
1645;22
1646;32
1647;33
1648;104
1649;54
1650;58
1651;74
1652;35
1653;42
1654;42
1655;136
1656;123
1657;144
1658;144
1659;93
1660;154
1661;14
1662;102
1663;7
1664;73
1665;0
1666;90
1667;48
1668;79
1669;6
1670;0
1671;4260
1672;26
1673;23
1674;0
1675;0
1676;0
1677;2805
1679;0
1680;0
1681;50
1682;3100
1683;0
1684;0
1685;0
1686;0
1687;0
1688;0
1689;0
1691;0
1692;0
1693;0
1694;0
1695;0
1696;0
1697;0
1701;293
1702;0
1703;0
1704;15
1705;0
1706;0
1707;0
1708;0
1709;0
1710;489
1711;3
1712;0
1713;493
1714;0
1715;0
1716;41
1717;30
1718;0
1719;0
1720;0
1721;0
1722;0
1723;0
1724;0
1725;0
1726;0
1727;0
1728;166
1729;153
1730;82
1731;80
1732;122
1733;0
1734;0
1735;0
1736;0
1737;0
1738;0
1739;393
1740;352
1741;0
1745;0
1746;0
1747;929
1748;0
1749;0
1750;0
1751;0
1752;19
1753;500
1754;0
1755;0
1756;0
1757;1
1758;2
1759;0
1760;2
1761;0
1762;0
1763;0
1764;2
1765;2
1766;2
1767;2
1768;0
1769;0
1770;0
1773;0
1774;0
1775;0
1776;0
1777;0
1778;0
1779;0
1780;0
1781;0
1782;0
1783;0
1784;0
1785;0
1786;0
1787;0
1788;0
1789;1212
1790;0
1791;0
1792;78
1793;78
1794;79
1795;65
1796;79
1797;79
1798;63
1799;58
1800;63
1801;46
1802;47
1803;49
1804;49
1805;131
1806;17
1807;0
1808;0
1809;0
1810;0
1811;15
1812;3
1813;3
1814;185
1815;5
1816;100
1817;6
1818;30
1819;0
1820;0
1821;0
1822;1580
1823;0
1824;0
1825;387
1826;0
1827;0
1829;22
1830;0
1831;11
1832;0
1833;32
1834;717
1835;3620
1836;69
1837;152
1838;0
1839;2
1840;10
1841;0
1842;0
1843;0
1844;81
1845;105
1846;85
1847;3920
1848;1
1849;3
1850;4
1851;5
1852;0
1853;0
1854;0
1855;0
1856;0
1857;0
1858;0
1859;0
1861;0
1862;0
1863;0
1864;1
1865;0
1866;0
1867;0
1868;0
1869;290
1870;0
1872;0
1873;0
1874;0
1875;0
1876;0
1877;0
1878;0
1879;0
1880;0
1881;0
1882;31500
1883;0
1884;0
1885;32000
1886;0
1887;0
1888;0
1889;0
1890;0
1891;0
1892;0
1893;0
1894;0
1895;80
1896;0
1897;0
1898;0
1899;200
1900;335
1901;0
1902;8
1903;0
1904;3
1905;5
1906;10
1907;3
1908;5
1909;3
1910;9
1911;2
1912;15
1913;8
1914;2
1915;2
1916;2
1917;0
1918;9
1919;7
1920;163
1921;0
1923;26
1924;176
1925;143
1926;46
1927;27
1928;45
1929;21
1930;99
1932;59
1933;37
1934;31
1935;20
1936;21
1937;31
1938;89
1939;102
1940;43
1941;85
1942;55
1943;5
1944;6
1945;20
1946;20
1947;13
1948;20
1949;13
1950;14
1951;60
1952;7
1953;7
1954;28
1955;100
1956;44
1957;51
1958;32
1959;0
1960;0
1961;0
1962;0
1963;1080
1964;1100
1965;0
1966;0
1967;0
1968;0
1969;0
1972;0
1973;0
1974;0
1975;0
1976;0
1977;0
1978;0
1979;0
1980;0
1981;51
1982;1314
1983;0
1984;0
1985;0
1986;0
1987;0
1988;27
1989;48
1990;93
1991;55
1992;58
1993;28
1994;59
1995;48
1996;24
1997;25
1998;14
1999;33
2000;65
2001;40
2002;17
2008;4
2009;0
2010;0
2011;0
2012;0
2013;3
2014;0
2015;0
2016;0
2017;0
2018;5
2019;0
2020;0
2021;0
2022;0
2023;6
2024;0
2025;0
2026;0
2027;0
2028;2
2029;1
2030;2
2031;3
2032;0
2033;0
2034;0
2035;0
2036;0
2037;5
2038;7
2039;0
2040;0
2041;229
2042;227
2044;353
2045;39
2047;0
2048;0
2049;0
2050;0
2051;130
2052;48
2053;22
2054;68
2055;80
2056;182
2057;0
2058;0
2059;0
2060;0
2061;0
2062;0
2063;0
2064;3689
2065;774
2066;0
2067;0
2068;0
2069;0
2077;539
2078;343
2079;361
2080;0
2081;0
2082;0
2083;0
2084;0
2085;0
2086;0
2087;0
2088;0
2089;0
2090;0
2091;0
2092;0
2093;0
2094;728
2095;0
2096;0
2097;0
2098;0
2099;0
2100;0
2101;0
2102;0
2103;0
2104;0
2105;0
2106;0
2107;0
2108;0
2109;0
2110;0
2111;0
2112;0
2113;0
2114;0
2115;0
2116;0
2117;0
2118;0
2119;0
2120;0
2121;0
2122;0
2123;0
2124;0
2125;0
2126;0
2127;0
2128;0
2129;0
2130;0
2131;0
2132;0
2133;6
2134;0
2135;3
2136;0
2137;0
2138;2
2139;0
2140;2
2141;2
2142;2
2143;5
2144;0
2145;0
2146;3
2147;0
2148;5
2149;6
2150;3
2152;752
2153;389
2154;496
2155;77
2156;80
2157;98
2158;0
2159;24
2160;64
2161;0
2162;4800
2163;0
2164;394
2165;0
2167;1000
2168;327
2169;8336
2170;0
2171;6
2172;0
2173;0
2174;115
2175;0
2176;158
2177;226
2178;1
2179;1
2180;0
2181;0
2182;108
2183;0
2184;1
2185;13
2186;8
2187;8
2188;19
2189;4
2190;0
2191;0
2192;0
2193;19782
2194;0
2195;0
2196;0
2197;10
2198;0
2199;0
2202;0
2203;0
2204;0
2205;15
2206;0
2207;0
2208;0
2210;0
2211;0
2213;1746
2214;2
2215;3
2216;5
2217;5
2219;2
2220;5
2221;2
2222;2
2223;2
2224;3
2225;2
2226;1
2227;2
2228;2
2229;1
2230;1
2231;1
2232;1
2233;1
2234;1
2235;2
2236;2
2237;2
2238;2
2239;2
2240;3
2241;2
2242;2
2243;2
2244;2
2245;1
2246;3
2247;0
2248;0
2249;0
2250;0
2251;0
2252;0
2253;0
2254;0
2255;7
2256;8
2257;1
2258;3
2259;2
2260;4
2261;0
2262;0
2263;11
2264;2
2265;8
2266;1
2267;0
2268;0
2269;1
2270;6
2271;0
2272;7
2273;0
2274;0
2275;0
2276;0
2277;0
2278;5
2279;1
2281;15
2282;100
2283;1005
2284;266
2285;259
2286;210
2287;958
2288;63
2289;313
2290;91
2291;100
2292;558
2293;0
2294;1
2295;10
2296;0
2297;0
2298;0
2299;0
2300;0
2301;0
2302;0
2303;0
2304;0
2305;0
2306;0
2307;0
2308;0
2312;11
2313;35
2314;27
2315;169
2316;297
2317;196
2318;182
2319;294
2320;193
2321;268
2322;61
2323;289
2324;4
2325;4
2326;0
2327;344
2328;148
2329;78
2330;0
2331;8
2332;0
2333;0
2334;10
2335;0
2336;0
2337;0
2338;0
2339;0
2340;0
2341;7321
2342;807
2343;0
2344;0
2345;2
2346;1
2347;1134
2348;10095
2349;14749
2350;5
2351;36
2352;0
2353;0
2354;45
2355;0
2356;118
2357;118
2358;0
2359;418
2360;20
2361;1361
2362;0
2363;0
2364;0
2365;0
2366;30
2367;40
2368;40
2369;50
2370;2
2371;0
2372;0
2373;4
2374;9645
2375;2
2376;3
2377;2
2378;2
2379;1054
2380;7570
2381;0
2382;3319
2383;0
2384;3089
2392;2
2393;1
2394;2
2395;3
2396;2
2397;0
2398;0
2399;0
2400;0
2401;0
2402;0
2403;121
2404;3895
2405;100
2406;418
2407;0
2408;350
2409;142
2410;100
2411;250
2412;6991
2413;0
2414;0
2415;200
2416;0
2417;0
2418;43
2419;0
2420;0
2421;0
2422;448
2423;0
2424;770
2425;0
2426;5
2427;5
2428;591
2429;1
2430;0
2431;146
2432;7
2433;0
2434;835
2435;4
2436;474
2437;626
2438;3080
2439;1
2440;0
2441;113
2442;72
2443;15
2444;12
2445;19
2446;9
2447;30
2448;5
2449;4
2450;14
2451;6
2452;20
2453;1
2454;1
2455;2
2456;2
2457;2
2458;114
2459;98
2460;13
2461;0
2462;0
2463;0
2464;81
2465;292
2466;613
2467;23
2468;83
2469;10
2470;0
2471;37
2473;406
2474;295
2475;1
2476;4
2477;0
2478;70
2479;480
2480;8
2481;172
2482;186
2483;50
2484;0
2485;1
2486;500
2487;2440
2488;4
2489;2
2490;2
2491;1
2492;1
2493;3
2494;4
2495;2
2496;2
2497;2
2498;3
2499;2
2500;2
2501;30
2502;0
2503;229
2504;11
2505;0
2506;240
2507;83
2508;281
2509;0
2510;0
2511;0
2512;0
2514;4663
2516;0
2517;2
2518;10000
2519;20000
2520;20000
2521;20000
2522;10000
2523;0
2524;10000
2525;10000
2526;10000
2527;10000
2528;10000
2529;10000
2530;10000
2531;10000
2532;20000
2533;10000
2534;10000
2536;10000
2537;10000
2538;9999
2539;10000
2540;10000
2541;0
2542;1402
2543;0
2544;601
2545;256
2546;0
2547;5
2548;5
2549;5
2550;5
2551;5
2552;5
2553;5
2554;5
2555;5
2556;5
2557;30
2558;10
2559;10
2560;9
2561;4
2562;4
2563;1
2565;471
2566;166
2567;192
2568;34
2569;2
2570;4000
2571;6
2572;0
2573;0
2575;0
2576;435
2577;830
2579;14
2580;1
2581;1
2582;2
2583;6
2584;16
2585;0
2586;1
2587;1
2588;1
2589;14
2590;20
2591;8
2592;1
2593;1
2594;6
2595;1
2596;1
2597;1
2598;0
2599;188
2600;297
2601;396
2602;1466
2603;0
2604;0
2605;0
2606;0
2607;0
2608;2
2609;0
2612;40
2613;36
2614;0
2615;16
2616;10
2617;1
2618;0
2619;377
2620;0
2621;0
2622;43
2628;0
2629;2
2630;23
2631;0
2632;0
2633;0
2634;0
2635;0
2636;0
2637;0
2638;0
2639;0
2640;7
2641;0
2642;0
2643;0
2644;2
2645;0
2646;0
2647;0
2648;2
2649;0
2650;0
2651;0
2652;0
2653;0
2654;0
2655;10
2656;0
2657;0
2658;1
2659;0
2660;2
2661;0
2662;0
2663;0
2664;2
2665;0
2666;0
2667;0
2668;0
2669;0
2670;1
2671;30
2672;8
2673;0
2674;0
2675;0
2676;0
2677;0
2678;0
2679;0
2680;496
2681;0
2682;521
2683;0
2684;337
2685;0
2686;9
2687;0
2688;18
2689;0
2690;0
2691;0
2692;523
2693;0
2694;521
2695;0
2696;553
2697;0
2698;65
2699;0
2700;486
2701;0
2702;384
2703;0
2704;4
2705;0
2706;3954
2707;0
2708;0
2709;0
2714;3
2715;0
2716;0
2717;9
2718;6
2719;0
2720;2
2721;2
2722;5
2723;12
2724;7
2726;4
2727;0
2728;1
2729;1
2730;2
2731;1
2732;1
2733;0
2734;0
2735;20
2736;25
2737;241
2738;100
2739;171
2740;100
2741;199
2742;34
2743;2179
2744;369
2745;5978
2746;237
2747;240
2748;355
2749;3243
2750;550
2751;16
2752;430
2753;429
2754;821
2755;917
2756;456
2757;1507
2758;1084
2759;910
2760;2924
2761;3428
2762;10360
2763;0
2764;1100
2765;0
2766;13,0860
2767;5000
2768;0
2769;2783
2770;2307
2771;657
2772;169
2773;17
2774;35
2775;5
2779;0
2781;42
2782;0
2783;129
2784;128
2785;42
2786;0
2787;60
2788;368
2789;0
2790;0
2791;1
2792;1
2793;1
2794;2
2795;1
2796;1
2797;3
2798;0
2799;3
2800;0
2801;2
2802;1
2803;1
2804;1
2805;1
2806;1
2807;1
2808;6
2809;8
2810;64
2811;0
2812;0
2813;0
2814;0
2815;0
2816;1
2817;0
2818;0
2819;0
2820;0
2821;0
2822;0
2823;0
2824;0
2825;0
2826;0
2827;0
2828;0
2829;0
2830;1390
2831;0
2832;0
2833;0
2834;0
2835;0
2836;440
2837;88000
2838;0
2839;0
2840;0
2841;0
2842;0
2843;0
2844;2
2845;0
2846;0
2847;0
2848;1
2849;0
2850;0
2851;3
2852;0
2853;0
2854;0
2855;1
2856;0
2857;0
2858;2
2859;0
2860;0
2861;0
2862;3
2863;0
2864;0
2865;0
2866;0
2867;0
2868;0
2869;2
2870;0
2871;0
2872;0
2873;0
2874;0
2875;0
2876;1
2877;0
2878;0
2879;2
2880;0
2881;0
2882;0
2883;0
2884;0
2885;0
2886;3
2887;0
2888;0
2889;0
2890;1
2891;1
2892;0
2893;0
2894;5
2895;0
2896;0
2897;1
2898;0
2899;3
2900;0
2901;1
2902;0
2903;0
2904;0
2905;0
2906;0
2907;0
2908;0
2909;0
2910;0
2911;0
2912;0
2913;0
2914;5
2915;0
2916;0
2917;1
2918;0
2919;4
2920;0
2921;0
2922;0
2923;0
2924;0
2925;0
2926;0
2927;0
2928;0
2929;4
2930;0
2931;0
2932;0
2933;0
2934;0
2935;1889
2936;0
2937;1031
2938;3836
2939;555
2940;3773
2941;0
2942;936
2943;375
2944;2677
2945;2028
2946;1657
2947;0
2948;0
2949;0
2950;0
2951;0
2952;0
2954;0
2955;0
2956;0
2957;0
2958;0
2959;0
2960;0
2961;0
2962;0
2963;0
2965;0
2966;0
2967;0
2968;0
2969;0
2972;0
2973;0
2974;0
2975;0
2976;0
2977;0
2978;0
2979;0
2980;0
2981;0
2982;0
2983;0
2984;0
2985;0
2986;0
2987;0
2988;0
2989;0
2990;0
2991;0
2992;0
2993;0
2994;0
2995;0
2996;0
2997;0
2998;0
2999;4,9960
3000;0
3001;0
3002;0
3003;0
3004;0
3005;0
3006;0
3007;0
3008;0
3009;0
3010;0
3011;0
3012;0
3013;0
3014;0
3015;0
3016;0
3017;0
3018;0
3019;0
3020;0
3021;0
3022;0
3023;0
3024;4
3025;1
3026;0
3027;0
3028;0
3029;0
3030;0
3031;0
3032;0
3033;0
3034;2515
3035;397
3036;200
3037;0
3038;0
3039;66
3040;0
3041;322
3042;0
3043;0
3044;0
3045;4
3046;6
3047;0
3048;0
3049;4
3050;604
3051;417
3052;26
3053;149
3054;0
3055;185
3056;437
3057;100
3058;0
3059;6349
3060;0
3061;0
3062;0
3063;0
3064;0
3065;0
3066;0
3067;510
3068;0
3069;91
3070;0
3071;0
3072;0
3073;0
3074;2000
3075;0
3076;495
3077;0
3078;0
3079;0
3080;0
3081;0
3082;0
3083;0
3084;0
3085;0
3086;1000
3087;0
3088;0
3090;0
3091;0
3092;0
3093;0
3095;323
3096;10
3097;8
3098;3401
3099;15
3100;0
3101;0
3102;62,6440
3103;0
3104;11
3105;49
3106;1018
3107;0
3108;0
3109;0
3110;0
3111;0
3112;0
3113;0
3114;20
3115;0
3116;0
3117;0
3118;0
3119;0
3120;0
3121;0
3122;0
3123;0
3124;0
3125;0
3126;2
3127;11
3128;0
3129;0
3130;0
3131;0
3132;0
3133;0
3134;0
3137;0
3138;0
3139;0
3140;0
3141;0
3142;2,2680
3143;0
3144;0
3145;0
3146;0
3147;0
3148;0
3149;0
3150;0
3151;0
3152;0
3153;0
3154;0
3155;0
3156;10
3157;10
3158;102
3159;0
3160;0
3161;4
3162;7
3163;0
3164;16
3165;200
3166;89
3167;45
3168;148
3169;0
3170;0
3171;0
3172;5
3173;0
3174;0
3175;40
3176;10
3177;5
3178;0
3179;0
3180;0
3181;0
3182;0
3183;0
3184;0
3185;0
3186;0
3187;0
3188;0
3189;0
3190;0
3191;0
3192;0
3193;30
3194;9
3195;0
3196;0
3197;21
3198;22
3199;0
3200;0
3201;0
3202;0
3203;0
3204;0
3205;0
3206;2,60
3207;3,50
3208;45
3209;45
3210;54
3211;60
3212;90
3213;166
3214;45
3215;43
3216;54
3217;56
3218;30
3219;90
3220;90
3221;88
3222;220
3223;386
3224;1618
3225;1718
3226;0
3227;0
3228;34
3229;0
3230;0
3231;0
3232;0
3233;0
3234;118
3235;0
3236;0
3237;0
3238;0
3239;0
3240;0
3241;0
3242;0
3243;384
3244;0
3245;0
3246;0
3247;0
3248;0
3249;0
3250;0
3251;19800
3252;31500
3253;0
3254;0
3255;0
3256;0
3257;0
3258;141
3259;0
3260;0
3261;35
3262;2
3263;0
3264;144
3265;64
3266;15
3267;0
3268;0
3269;0
3270;0
3271;0
3272;0
3273;0
3274;0
3275;0
3276;0
3277;0
3278;0
3279;0
3280;35
3281;35
3282;0
3283;4
3284;4
3285;4
3286;2
3287;500
3288;849
3289;0
3290;0
3291;0
3292;3,90
3293;100
3295;0
3296;0
3297;1
3298;1331
3299;1331
3300;428
3301;0
3302;0
3303;0
3304;300
3305;5,6046
3306;0
3307;0
3308;0
3309;0
3310;0
3311;0
3312;0
3313;0
3314;0
3315;0
3316;0
3317;0
3318;0
3319;0
3320;0
3321;11
3322;0
3323;0
3324;0
3325;0
3326;0
3327;0
3328;0
3329;0
3330;0
3331;0
3332;0
3333;0
3334;0
3335;0
3336;0
3337;50
3338;227
3339;700
3340;500
3341;3
3342;0
3343;0
3344;5
3345;0
3346;660
3347;0
3348;0
3349;0
3350;0
3351;250
3352;0
3353;1000
3354;0
3355;0
3356;0
3357;0
3358;0
3359;0
3360;0
3361;0
3362;0
3363;0
3364;0
3365;0
3366;319
3367;0
3368;0
3369;0
3370;30
3372;0
3373;0
3374;0
3375;0
3376;300
3377;0
3378;0
3379;50
3380;0
3381;26
3382;66
3383;19
3384;1
3385;1
3386;50
3389;10
3390;0
3391;0
3392;0
3393;0
3394;0
3395;0
3396;0
3397;0
3398;5
3399;0
3400;0
3401;0
3402;0
3403;0
3404;0
3405;4
3406;0
3407;0
3408;0
3409;0
3410;0
3411;0
3412;0
3413;0
3414;0
3415;0
3416;0
3417;0
3418;0
3419;0
3420;0
3421;0
3422;0
3423;0
3424;60
3425;30
3427;40
3428;5
3429;0
3430;0
3431;0
3432;0
3433;0
3434;2
3435;0
3436;8
3437;0
3438;0
3440;825
3441;0
3442;0
3443;0
3444;0
3445;0
3446;0
3448;0
3449;0
3450;0
3451;0
3452;3970
3453;0
3454;0
3455;0
3456;0
3457;0
3458;0
3459;0
3460;0
3461;0
3462;0
3463;0
3464;0
3465;0
3466;0
3467;0
3468;0
3469;0
3470;0
3471;0
3472;0
3473;0
3474;0
3475;0
3476;0
3477;300
3478;0
3479;0
3480;600
3481;0
3482;100
3483;0
3484;0
3485;200
3486;0
3487;0
3488;0
3489;100
3490;100
3491;0
3492;0
3493;0
3494;0
3495;0
3496;0
3497;0
3498;0
3499;0
3500;0
3501;0
3502;0
3503;0
3504;0
3506;0
3507;0
3508;0
3509;0
3510;0
3511;0
3512;0
3513;0
3514;0
3515;0
3516;0
3517;0
3518;0
3519;0
3520;0
3521;0
3522;0
3523;0
3524;0
3526;0
3527;0
3528;0
3529;0
3530;0
3531;0
3532;0
3533;0
3534;0
3535;0
3536;0
3537;0
3538;0
3539;0
3540;0
3541;0
3542;0
3543;0
3544;0
3545;0
3546;0
3547;0
3548;0
3549;0
3550;0
3551;0
3552;0
3553;0
3554;0
3555;0
3556;0
3557;0
3558;0
3559;0
3560;0
3561;0
3562;0
3563;0
3564;0
3565;0
3566;0
3567;0
3568;0
3569;0
3570;0
3571;0
3572;0
3573;0
3574;0
3575;0
3576;0
3577;0
3578;0
3579;0
3580;0
3581;0
3582;0
3583;0
3584;0
3585;0
3586;0
3587;0
3588;0
3589;0
3590;0
3591;0
3592;0
3593;0
3594;0
3595;0
3596;0
3597;0
3598;0
3599;0
3600;0
3601;0
