1;0
2;0
3;10
4;5
5;3
6;3
7;5
8;0
9;0
10;0
11;12
12;13
13;13
14;8
15;2
16;20
17;16
18;10
19;5
20;1
21;7
22;17
23;0
25;28
26;1
27;8
28;8
29;2
30;0
31;0
32;0
33;0
34;0
35;0
36;0
37;0
38;13
39;30
40;23
41;55
42;5
43;13
44;140
45;12
46;51
47;26
48;11
49;45
50;0
51;85
52;61
53;19
54;17
55;356
56;42
57;10
58;18
59;0
60;35
61;216
62;10
63;0
64;2
65;2
66;0
67;2
68;3
69;1
70;32
71;0
72;21
73;20
74;6
75;2
76;3
77;5
78;0
79;18
80;0
81;12
82;10
83;7
84;6
85;13
87;0
88;0
89;0
90;1
91;0
92;1
93;41
94;13
95;2
96;1
97;14
98;12
99;13
100;1
101;0
102;0
103;4679
104;812
105;0
106;361
107;939
108;1634
109;537
110;518
111;385
112;0
113;0
114;0
115;0
116;0
117;0
118;0
119;0
120;0
121;0
122;0
123;0
124;0
126;0
127;0
128;0
129;17
130;0
131;980
132;375
133;1000
134;720
135;3543
136;592
137;63
138;839
139;1200
140;2966
141;686
142;0
143;769
144;66
145;899
146;1750
147;205
148;160
149;800
150;511
151;763
152;549
153;0
154;1165
155;870
156;1310
157;860
158;810
159;665
160;325
161;0
162;0
163;0
164;0
166;0
167;0
168;0
169;0
170;0
171;0
172;0
173;0
174;0
175;0
176;0
177;0
178;0
179;0
180;0
181;0
182;0
183;0
185;0
186;0
187;0
188;0
189;0
190;0
191;0
192;0
193;0
195;0
196;0
197;0
198;0
199;0
200;0
201;0
202;0
203;0
204;0
205;0
206;0
207;0
208;0
209;0
210;0
211;0
212;0
213;0
214;0
215;0
216;0
217;0
218;0
219;0
220;0
221;0
222;0
223;0
224;0
225;0
226;0
227;0
228;0
229;0
230;0
231;0
232;0
233;0
234;2114
235;191
236;169
237;589
239;846
240;0
241;0
242;0
243;0
244;0
245;0
246;0
247;0
248;0
249;0
250;0
251;0
253;0
254;0
255;0
256;0
257;0
258;0
259;0
260;0
261;610
262;47
263;128
264;226
265;0
266;75
267;208
268;469
269;308
270;670
271;0
272;0
273;0
274;0
275;0
276;0
277;0
278;0
279;0
280;0
281;0
282;0
283;0
284;0
285;0
286;0
287;0
288;0
289;0
290;0
291;0
292;0
293;0
294;0
295;0
296;0
297;0
298;0
299;0
300;0
301;0
302;0
303;0
304;0
305;0
306;0
307;0
308;0
309;0
310;0
311;0
312;0
313;0
314;0
315;0
318;0
319;0
320;0
321;0
322;0
323;0
324;0
325;0
326;0
327;0
328;0
329;0
330;0
331;0
332;0
333;0
334;0
335;0
336;560
337;720
338;675
339;326
340;0
341;0
342;102
343;0
344;0
345;410
346;18
347;0
348;0
349;0
350;0
351;0
353;0
354;0
355;0
356;0
357;0
358;0
359;0
360;0
361;0
362;0
363;0
364;0
365;0
366;0
367;0
368;0
369;0
370;0
371;0
372;0
373;0
374;0
375;0
376;0
377;0
378;0
379;0
380;0
381;0
382;0
383;0
384;0
385;0
386;0
387;0
388;0
389;0
390;0
391;0
392;0
393;0
394;0
395;0
397;0
398;10
399;3
400;2
401;6
402;0
403;0
404;0
405;0
406;0
407;0
408;0
409;0
410;0
411;0
412;0
413;0
414;0
415;0
416;0
417;0
418;0
419;0
420;0
421;0
422;0
423;0
424;0
425;0
426;0
427;0
428;0
429;0
430;0
431;0
432;0
433;0
434;0
435;0
436;0
437;0
438;0
439;0
442;0
443;0
444;0
445;0
446;0
447;0
448;0
449;0
451;221
452;117
453;134
454;79
455;95
456;184
457;239
458;470
459;152
460;45
461;56
462;253
463;75
464;102
465;234
466;0
467;26
468;85
469;28
470;26
471;151
472;0
473;528
503;0
504;0
505;48
506;0
507;55
508;0
509;82
510;0
511;0
512;0
516;0
517;0
518;32
519;0
526;0
527;2
528;2
529;111
539;575
540;28
541;238
542;47
543;495
544;0
545;1246
546;996
547;431
548;49
549;0
550;475
551;340
552;47
553;313
554;1069
555;958
556;39
557;95
558;423
559;616
560;272
561;359
562;346
563;113
564;206
565;576
566;98
567;3
568;0
569;0
570;0
571;149
572;0
573;121
574;0
575;309
576;0
577;0
578;0
579;0
580;0
581;0
582;500
583;0
584;997
585;100
586;318
587;0
588;178
589;2501
590;284,90
591;60
592;151
593;206
594;87
595;25
596;37
597;56
598;37
599;30
600;60
601;203
602;73
603;98
604;42
605;302
606;155
607;0
608;179
609;161
610;270
611;140
612;240
613;0
614;659
615;972
616;8000
617;0
618;0
619;24000
620;0
621;1540
622;0
623;0
624;0
625;0
626;0
627;0
628;0
629;11320
630;1503
631;0
632;80
633;393
634;301
635;214
636;3000
637;1500
638;0
639;507
640;380
641;0
642;191
643;574
644;500
645;284
646;513
647;256
648;63
649;454
650;0
651;406
652;384
653;272
654;1590
655;80
656;1775
657;88
658;0
659;0
660;211
661;1137
662;110
664;0
665;0
666;0
667;0
668;0
669;0
670;0
671;0
672;0
673;0
674;0
675;0
676;0
677;11
678;0
679;0
680;0
681;0
682;1
683;0
684;1
685;0
686;0
687;0
689;3
691;4
692;0
693;0
694;64
695;6
696;15
697;5
698;9
699;0
700;8
701;2
702;3
703;8
704;1
705;2
706;2
707;0
708;2
709;0
710;2
711;2
712;2
713;3
714;0
715;1
716;2
717;3
718;0
719;1
720;0
721;0
722;1
723;0
724;0
725;0
726;0
727;0
728;1
729;0
730;0
731;0
732;0
733;0
734;0
735;0
736;0
737;0
738;0
739;0
740;0
741;0
742;1625
743;0
744;0
745;0
746;0
747;0
748;0
749;0
750;0
751;0
752;0
753;0
754;0
755;1
756;0
757;0
758;0
759;0
760;0
761;0
762;0
763;0
764;0
765;0
766;0
767;0
768;0
769;0
770;0
771;0
772;0
773;0
774;0
775;0
776;0
777;0
778;0
779;0
780;0
781;0
782;0
783;0
784;0
785;0
786;0
787;0
788;0
789;0
790;0
791;0
792;0
793;0
794;38,250014
795;0
796;0
797;0
798;0
799;0
800;0
801;0
802;0
803;0
804;0
805;0
806;0
807;0
808;0
809;0
810;0
811;0
812;0
813;0
814;0
815;0
816;0
817;0
818;0
819;0
820;0
821;0
822;0
823;0
824;0
825;0
826;0
827;20
828;14
829;20
830;20
831;4
832;5
833;0
834;8
835;173
836;18
837;0
838;71
839;60
840;19
841;13
842;0
843;0
844;0
845;0
846;0
847;3
848;1
849;0
850;0
851;0
852;0