1;0
2;0
3;2
4;10
5;13
6;4
7;5
8;0
9;0
10;0
11;27
12;7
13;14
14;7
15;0
16;14
17;0
18;0
19;2
20;2
21;10
22;7
23;0
25;21
26;5
27;5
28;9
29;3
30;0
31;0
32;0
33;0
34;0
35;0
36;0
37;0
38;12
39;16
40;18
41;40
42;9
43;11
44;135
45;39
46;24
47;14
48;26
49;53
50;30
51;58
52;19
53;18
54;4
55;263
56;56
57;7
58;11
59;2
60;27
61;189
62;6
63;0
64;2
65;4
66;4
67;1
68;3
69;2
70;17
71;26
72;5
73;12
74;6
75;3
76;3
77;5
78;0
79;4
80;0
81;1
82;13
83;2
84;0
85;9
87;0
88;0
89;0
90;0
91;0
92;48
93;0
94;0
95;0
96;0
97;0
98;0
99;0
100;34
101;0
102;0
103;4679
104;812
105;0
106;361
107;939
108;1634
109;537
110;518
111;385
112;136
113;1357
114;1021
115;3378
116;881
117;1284
118;3076
119;1685
120;1599
121;5497
122;0
123;1787
124;0
126;3828
127;526
128;3599
129;17
130;0
131;980
132;375
133;1000
134;720
135;3543
136;592
137;63
138;839
139;1096
140;2966
141;1185
142;0
143;769
144;66
145;899
146;1750
147;265
148;160
149;800
150;411
151;763
152;549
153;2323
154;1165
155;502
156;1310
157;860
158;790
159;665
160;325
161;1805
162;2149
163;2240
164;1330
166;5836
167;5513
168;3300
169;1022
170;2664
171;2932
172;3408
173;7295
174;4630
175;4182
176;3440
177;0
178;5886
179;3881
180;10220
181;14124
182;2097
183;1467
185;11758
186;4828
187;4831
188;3243
189;7434
190;3500
191;1784
192;4786
193;4322
195;4387
196;7103
197;0
198;2835
199;3840
200;8233
201;4942
202;0
203;10326
204;4790
205;4043
206;0
207;0
208;2280
209;4860
210;4949
211;853
212;3432
213;3433
214;3496
215;4999
216;4343
217;2888
218;1173
219;4698
220;4069
221;0
222;0
223;7850
224;754
225;0
226;2751
227;1442
228;2668
229;5012
230;3023
231;2520
232;2405
233;4800
234;2113
235;191
236;397
237;589
239;3846
240;6382
241;4427
242;0
243;12603
244;673
245;0
246;6121
247;0
248;2458
249;0
250;0
251;0
253;0
254;0
255;0
256;0
257;0
258;0
259;0
260;0
261;1283
262;1351
263;1397
264;89
265;0
266;75
267;118
268;469
269;231
270;670
271;0
272;0
273;76
274;0
275;133
276;110
277;832
278;0
279;251
280;1508
281;3115
282;2558
283;1041
284;0
285;138
286;2071
287;529
288;380
289;0
290;0
291;0
292;430
293;904
294;538
295;100
296;1309
297;0
298;0
299;0
300;0
301;0
302;2728
303;1074
304;2341
305;974
306;0
307;0
308;0
309;6356
310;0
311;47
312;120
313;44
314;0
315;87
318;63
319;1500
320;0
321;0
322;445
323;2
324;0
325;720
326;38
327;0
328;0
329;0
330;1696
331;0
332;0
333;0
334;0
335;1240
336;619
337;811
338;706
339;309
340;0
341;0
342;102
343;0
344;0
345;915
346;18
347;0
348;0
349;0
350;0
351;0
353;0
354;0
355;0
356;0
357;0
358;0
359;0
360;0
361;0
362;0
363;0
364;0
365;0
366;0
367;0
368;0
369;0
370;0
371;0
372;0
373;0
374;0
375;0
376;0
377;0
378;0
379;0
380;0
381;0
382;0
383;0
384;0
385;0
386;0
387;0
388;0
389;0
390;0
391;0
392;0
393;0
394;0
395;0
397;0
398;7
399;2
400;0
401;7
402;8627
403;14992
404;11396
405;37106
406;7066
407;2013
408;4063
409;664
410;5082
411;5564
412;10871
413;5000
414;5000
415;4642
416;0
417;45966
418;4199
419;10820
420;9558
421;4868
422;4862
423;9401
424;51720
425;15303
426;1010
427;4274
428;538
429;4821
430;8779
431;3218
432;5283
433;5077
434;3313
435;3769
436;0
437;3287
438;3436
439;4962
442;3000
443;300
444;440
445;299
446;193
447;0
448;399
449;1420
451;221
452;117
453;134
454;79
455;95
456;184
457;239
458;470
459;152
460;45
461;56
462;253
463;75
464;102
465;234
466;0
467;0
468;46
469;82
470;77
471;47
472;4
473;546
503;0
504;0
505;39
506;0
507;59
508;0
509;2
510;0
511;0
512;0
516;40
517;40
518;31
519;0
526;0
527;80
528;79
529;199
539;3
540;28
541;238
542;47
543;495
544;0
545;1245
546;996
547;431
548;49
549;0
550;437
551;181
552;288
553;89
554;1054
555;958
556;39
557;1031
558;729
559;534
560;94
561;797
562;148
563;113
564;295
565;98
566;98
567;3
568;0
569;21
570;25
571;149
572;0
573;121
574;0
575;182
576;0
577;0
578;0
579;0
580;0
581;0
582;500
583;5
584;871
585;200
586;190
587;0
588;44
589;0
590;284,90
591;0
592;0
593;0
594;0
595;0
596;0
597;0
598;0
599;0
600;0
601;0
602;0
603;98
604;50
605;60
606;181
607;0
608;77
609;248
610;92
611;332
612;183
613;0
614;849
615;8
616;0
617;0
618;0
619;70
620;50
621;529
622;0
623;0
624;0
625;29
626;0
627;0
628;0
629;16000
630;2425
631;0
632;80
633;393
634;325
635;214
636;7367
637;1008
638;0
639;223
640;315
641;0
642;249
643;266
644;500
645;103
646;395
647;122
648;63
649;372
650;0
651;406
652;384
653;361
654;752
655;25
656;1212
657;88
658;0
659;0
660;93
661;3708
662;110
664;0
665;0
666;0
667;0
668;0
669;0
670;0
671;0
672;0
673;0
674;0
675;0
676;0
677;10
678;0
679;0
680;0
681;0
682;1
683;1
684;1
685;0
686;0
687;0
689;1
691;10
692;0
693;0
694;84
695;9
696;7
697;4
698;5
699;0
700;4
701;2
702;2
703;8
704;1
705;3
706;2
707;2
708;2
709;1
710;1
711;1
712;2
713;3
714;2
715;1
716;2
717;2
718;3
719;2
720;3
721;1
722;2
723;0
724;0
725;0
726;0
727;0
728;1
729;0
730;0
731;0
732;0
733;0
734;0
735;0
736;0
737;0
738;0
739;0
740;0
741;0
742;719
743;0
744;0
745;0
746;0
747;0
748;0
749;0
750;0
751;0
752;0
753;0
754;0
755;1
756;46
757;128
758;0
759;0
760;163
761;1266
762;108
763;61
764;0
765;0
766;0
767;0
768;0
769;0
770;0
771;0
772;0
773;0
774;0
775;0
776;0
777;95
778;0
779;0
780;0
781;0
782;0
783;0
784;0
785;0
786;0
787;98
788;94
789;0
790;0
791;521
792;0
793;0
794;34,077298
795;0
796;0
797;0
798;0
799;0
800;0
801;0
802;0
803;0
804;0
805;0
806;0
807;0
808;0
809;0
810;0
811;0
812;0
813;0
814;0
815;0
816;0
817;0
818;0
819;0
820;0
821;0
822;0
823;0
824;0
825;0
826;0
827;20
828;14
829;20
830;20
831;4
832;5
833;0
834;8
835;173
836;18
837;0
838;71
839;60
840;19
841;13
842;0
843;0
844;0
845;0
846;0
847;50
848;1
849;0
850;0
851;0
852;0
853;0
854;0
855;0
856;0
857;0
858;0
859;0
860;0
861;0
862;0
863;27
864;17
865;0
866;0
867;0
868;0
869;7477
870;0
871;0
872;2815
873;0
874;1980
875;0
876;0
877;4305
879;0
880;0
881;0
882;0
883;0
884;0
885;305
886;0
887;0
888;0
889;0
890;0
891;0
892;0
893;0
894;0
895;0
896;0
897;0
898;0
899;0
900;0
901;0
902;0
903;0
904;0
905;0
906;0
907;0
908;0
909;0
910;0
911;0
912;0
913;17
914;0
915;0
916;0
917;0
918;0
919;0
920;0
921;0
922;0
923;0
924;0
925;0
926;0
939;3
940;269
941;47
942;39
943;21
944;53
945;21
946;48
947;40
948;24
949;16
950;15
951;22
952;69
953;25
954;117
955;95
956;37
957;22
958;16
959;0
960;0
961;0
962;17
963;0
964;65
965;33
966;0
967;3950
968;3102
969;6042
970;6108
971;486
972;1126
973;3500
974;4526
975;1078
976;1514
977;0
978;0
979;0
980;3554
981;6015
982;0
983;0
984;0
985;0
986;0
987;0
988;0
989;0
990;0
991;0
992;1
993;0
994;0
995;0
996;0
997;3
998;2
999;1
1000;9
1001;1
1002;3
1003;8
1004;2
1005;1
1006;1
1008;62
1009;20
1010;2087
1011;1243
1012;0
1013;97
1014;61
1015;753
1016;317
1017;528
1018;526
1019;784
1020;3767
1021;623
1022;0
1023;47
1024;0
1025;0
1026;0
1027;0
1028;0
1029;120
1030;33
1031;100
1032;33
1033;0
1034;128
1035;0
1036;319
1037;0
1038;97
1042;0
1043;1
1044;0
1045;2
1046;2
1047;1
1048;0
1049;1
1050;189
1051;177
1052;184
1053;156
1054;119
1055;124
1056;93
1057;218
1058;66
1059;54
1060;67
1061;87
1062;62
1063;73
1064;0
1065;57
1066;110
1067;0
1068;0
1069;0
1070;0
1071;0
1072;12
1073;20
1074;74
1075;34
1076;25
1077;200
1078;68
1079;73
1080;33
1081;17
1082;107
1083;39
1084;54
1085;73
1086;30
1087;255
1088;42
1089;0
1090;0
1091;77
1092;40
1093;28
1094;160
1095;12
1096;0
1097;0
1098;25
1099;11
1100;33
1101;124
1102;9
1103;2
1104;20
1105;13
1106;47
1107;6
1108;45
1109;50
1110;2
1111;0
1112;0
1113;64
1114;188
1115;115
1125;0
1126;0
1127;0
1128;24
1129;146
1130;0
1131;0
1132;0
1133;0
1134;0
1135;0
1136;14
1137;21
1138;2
1139;4
1141;0
1142;0
1143;0
1144;0
1145;0
1146;0
1147;1134
1148;1294
1149;700
1150;0
1151;52,50
1152;139
1153;87
1154;113,50
1155;0
1156;0
1157;0
1158;0
1159;0
1160;0
1161;0
1162;0
1163;0
1165;0
1166;0
1167;0
1168;145
1169;123
1170;113
1171;0
1175;0
1176;6
1179;0
1180;0
1181;0
1182;0
1183;0
1184;0
1185;55
1186;576
1187;799
1188;30
1189;0
1190;10
1191;3
1192;3
1193;280
1194;437
1195;1509
1196;0
1197;0
1198;1
1199;58
1200;61
1201;128
1202;0
1203;86
1204;0
1205;19
1206;0
1207;34
1208;0
1209;81
1210;0
1211;0
1212;160
1213;117
1214;0
1215;0
1216;0
1217;0
1218;0
1219;0
1221;0
1222;0
1223;0
1224;0
1225;0
1226;0
1227;0
1228;0
1229;0
1230;0
1231;0
1232;0
1233;0
1234;0
1235;0
1236;0
1237;0
1238;0
1239;0
1240;0
1241;0
1242;0
1243;0
1244;0
1245;0
1246;0
1247;0
1248;2410
1249;518
1250;0
1251;0
1252;0
1253;0
1254;0
1255;0
1256;0
1257;0
1258;0
1259;0
1260;0
1261;0
1262;0
1263;0
1264;0
1265;0
1266;34
1267;6
1268;2788
1269;1366
1270;2874
1271;0
1272;186
1273;0
1274;533
1275;0
1276;0
1278;0
1279;0
1280;0
1281;0
1282;0
1283;0
1284;0
1285;0
1286;0
1287;0
1288;0
1289;0
1290;0
1291;0
1292;0
1293;0
1295;0
1296;0
1297;0
1298;0
1299;0
1300;0
1301;0
1302;0
1303;0
1304;0
1305;0
1306;0
1307;0
1308;0
1309;0
1310;0
1311;0
1312;0
1313;0
1314;0
1315;0
1316;0
1317;12200
1318;0
1319;0
1320;0
1321;0
1322;2898
1324;6250
1325;0
1326;0
1327;0
1328;0
1329;0
1330;0
1331;0
1332;0
1333;0
1334;0
1335;0
1336;0
1337;0
1338;0
1339;0
1340;0
1341;863
1342;0
1343;0
1344;0
1345;0
1346;108
1347;116
1348;233
1350;0
1351;0
1352;0
1353;0
1355;1030
1356;0
1357;0
1358;0
1359;12
1360;19
1361;37
1362;0
1366;0
1367;175
1368;0
1369;1328
1370;2421
1371;0
1373;0
1374;0
1376;7
1377;0
1378;0
1379;0
1380;0
1381;0
1382;0
1383;0
1384;0
1385;0
1386;0
1387;11
1388;4
1389;4
1390;5
1391;5
1392;6
1393;2
1394;2
1395;3
1396;6
1397;0
1398;0
1399;0
1400;78
1401;0
1403;5092
1404;826
1405;929
1406;0
1407;846
1408;589
1409;438
1410;844
1411;107
1412;0
1413;0
1414;86
1415;105
1416;10
1417;60
1418;0
1419;0
1420;10028
1421;0
1423;5374
1424;5977
1425;322
1426;0
1427;0
1428;0
1429;0
1430;0
1431;0
1432;0
1433;0
1434;0
1435;0
1436;0
1437;8
1438;0
1439;0
1440;0
1441;28
1442;200
1443;0
1444;0
1445;0
1446;6
1447;22
1448;0
1449;0
1450;5
1451;298
1452;461
1453;0
1454;0
1455;0
1457;0
1458;0
1459;0
1460;2895
1461;0
1462;0
1463;0
1464;0
1465;91
1466;0
1467;0
1468;0
1469;0
1470;0
1471;9
1472;0
1473;287
1476;0
1477;2
1478;0
1479;106
1480;0
1481;70
1482;0
1484;2509
1485;202
1486;0
1487;0
1488;0
1489;0
1490;0
1491;0
1492;34
1493;10
1494;10
1495;10
1496;12
1497;10
1498;10
1499;12
1500;12
1501;50
1502;50
1503;79
1504;91
1505;474
1506;0
1507;0
1508;0
1509;0
1510;0
1511;0
1512;0
1513;0
1514;0
1515;0
1516;0
1517;0
1518;0
1519;0
1520;0
1521;0
1522;0
1523;0
1524;0
1525;110
1526;0
1527;0
1528;18
1529;0
1530;4845
1531;27
1532;0
1533;0
1534;0
1535;0
1536;0
1537;29
1538;46
1539;57
1540;7261
1541;4029
1542;5812
1543;2721
1544;4344
1545;2318
1547;6707
1548;3648
1549;1446
1550;5337
1551;4042
1552;8620
1553;8672
1554;4116
1555;6190
1556;9021
1557;9762
1558;716
1559;12229
1560;9100
1561;9897
1562;0
1563;13908
1564;13766
1565;3749
1566;0
1567;3072
1568;13675
1569;14378
1570;4033
1571;0
1572;0
1573;18
1574;6412
1575;3900
1576;4300
1577;0
1578;0
1581;130
1582;283
1583;1195
1584;482
1585;206
1586;843
1587;0
1588;80
1589;0
1590;63
1591;90
1592;1
1593;219
1594;0
1595;0
1596;0
1597;51
1598;43
1599;23880
1600;4798
1601;4648
1602;0
1603;9850
1604;5206
1605;340
1606;59
1607;0
1608;0
1609;0
1610;0
1612;165
1613;0
1614;40
1615;0
1616;0
1617;1758
1618;16
1619;18
1620;1
1621;30
1622;0
1623;1
1624;19
1625;36
1626;67
1627;69
1628;0
1629;40
1630;26
1631;69
1632;83
1633;61
1634;72
1635;13
1636;54
1637;74
1638;17
1639;27
1641;0
1642;19
1643;3
1644;68
1645;2
1646;4
1647;156
1648;86
1649;1
1650;4
1651;47
1652;28
1653;88
1654;27
1655;128
1656;132
1657;140
1658;140
1659;86
1660;142
1661;21
1662;87
1663;8
1664;173
1665;20
1666;100
1667;76
1668;59
1669;7
1670;0
1671;3360
1672;51
1673;0
1674;0
1675;0
1676;0
1677;1406
1679;0
1680;0
1681;0
1682;3100
1683;0
1684;0
1685;0
1686;0
1687;0
1688;0
1689;0
1691;0
1692;0
1693;0
1694;0
1695;0
1696;0
1697;0
1701;366
1702;0
1703;0
1704;0
1705;0
1706;0
1707;0
1708;0
1709;0
1710;756
1711;0
1712;0
1713;4045
1714;0
1715;0
1716;0
1717;30
1718;0
1719;0
1720;0
1721;0
1722;0
1723;0
1724;0
1725;0
1726;0
1727;0
1728;168
1729;1
1730;82
1731;19
1732;26
1733;0
1734;0
1735;0
1736;0
1737;0
1738;36
1739;840
1740;352
1741;0
1745;0
1746;0
1747;782
1748;0
1749;0
1750;589
1751;0
1752;19
1753;500
1754;0
1755;0
1756;0
1757;1
1758;2
1759;0
1760;1
1761;0
1762;0
1763;0
1764;0
1765;2
1766;2
1767;2
1768;0
1769;0
1770;0
1773;0
1774;0
1775;0
1776;0
1777;0
1778;0
1779;0
1780;0
1781;0
1782;0
1783;0
1784;0
1785;0
1786;0
1787;0
1788;0
1789;731
1790;0
1791;0
1792;78
1793;78
1794;79
1795;65
1796;79
1797;79
1798;63
1799;58
1800;63
1801;46
1802;29
1803;241
1804;30
1805;3126
1806;0
1807;0
1808;0
1809;0
1810;0
1811;10
1812;0
1813;0
1814;0
1815;0
1816;100
1817;39
1818;30
1819;0
1820;0
1821;0
1822;648
1823;0
1824;0
1825;428
1826;0
1827;0
1829;0
1830;0
1831;8
1832;0
1833;25
1834;717
1835;1173
1836;69
1837;125
1838;0
1839;2
1840;0
1841;0
1842;0
1843;0
1844;52
1845;34
1846;41
1847;3560
1848;0
1849;3
1850;4
1851;2
1852;0
1853;0
1854;0
1855;0
1856;0
1857;0
1858;0
1859;0
1861;0
1862;0
1863;0
1864;1
1865;0
1866;0
1867;0
1868;0
1869;38
1870;0
1872;0
1873;0
1874;0
1875;0
1876;0
1877;0
1878;0
1879;0
1880;0
1881;0
1882;0
1883;0
1884;0
1885;0
1886;0
1887;0
1888;0
1889;0
1890;0
1891;0
1892;0
1893;0
1894;10
1895;89
1896;0
1897;0
1898;0
1899;599
1900;0
1901;0
1902;17
1903;45
1904;15
1905;4
1906;9
1907;1
1908;1
1909;2
1910;4
1911;6
1912;0
1913;15
1914;2
1915;2
1916;2
1917;0
1918;15
1919;9
1920;112
1921;2
1923;26
1924;25
1925;103
1926;41
1927;25
1928;37
1929;20
1930;67
1932;43
1933;37
1934;28
1935;20
1936;21
1937;31
1938;89
1939;57
1940;32
1941;55
1942;4
1943;5
1944;6
1945;20
1946;20
1947;13
1948;10
1949;13
1950;14
1951;60
1952;7
1953;7
1954;22
1955;100
1956;44
1957;51
1958;32
1959;0
1960;0
1961;0
1962;0
1963;1050
1964;1100
1965;0
1966;0
1967;0
1968;0
1969;0
1972;1
1973;0
1974;0
1975;0
1976;0
1977;0
1978;0
1979;0
1980;0
1981;0
1982;894
1983;0
1984;0
1985;0
1986;0
1987;0
1988;0
1989;0
1990;3
1991;1
1992;40
1993;1
1994;0
1995;0
1996;0
1997;1
1998;6
1999;10
2000;0
2001;9
2002;9
2008;4
2009;0
2010;0
2011;0
2012;0
2013;3
2014;0
2015;0
2016;0
2017;0
2018;5
2019;0
2020;0
2021;0
2022;0
2023;6
2024;0
2025;0
2026;0
2027;0
2028;2
2029;1
2030;1
2031;3
2032;0
2033;0
2034;0
2035;0
2036;0
2037;5
2038;7
2039;0
2040;0
2041;0
2042;0
2044;252
2045;45
2047;4
2048;0
2049;0
2050;0
2051;16
2052;33
2053;11
2054;441
2055;28
2056;0
2057;0
2058;0
2059;0
2060;0
2061;0
2062;0
2063;0
2064;851
2065;0
2066;0
2067;0
2068;205
2069;1422
2077;974
2078;1084
2079;462
2080;0
2081;0
2082;0
2083;0
2084;0
2085;0
2086;0
2087;0
2088;0
2089;0
2090;0
2091;0
2092;0
2093;0
2094;0
2095;0
2096;0
2097;0
2098;0
2099;0
2100;0
2101;0
2102;0
2103;0
2104;0
2105;0
2106;0
2107;0
2108;0
2109;0
2110;0
2111;0
2112;0
2113;0
2114;0
2115;0
2116;0
2117;0
2118;0
2119;0
2120;0
2121;0
2122;0
2123;0
2124;0
2125;0
2126;0
2127;0
2128;0
2129;0
2130;0
2131;0
2132;0
2133;6
2134;0
2135;3
2136;0
2137;0
2138;2
2139;0
2140;2
2141;2
2142;2
2143;5
2144;0
2145;0
2146;2
2147;0
2148;5
2149;5
2150;3
2152;0
2153;1
2154;0
2155;43
2156;0
2157;0
2158;0
2159;0
2160;0
2161;0
2162;4746
2163;0
2164;250
2165;0
2167;1000
2168;606
2169;3822
2170;0
2171;7
2172;0
2173;0
2174;99
2175;0
2176;50
2177;45
2178;1
2179;1
2180;0
2181;0
2182;108
2183;0
2184;0
2185;5
2186;3
2187;4
2188;19
2189;4
2190;0
2191;0
2192;0
2193;19782
2194;0
2195;0
2196;0
2197;10
2198;0
2199;0
2202;0
2203;0
2204;0
2205;15
2206;0
2207;0
2208;0
2210;0
2211;0
2213;2443
2214;2
2215;2
2216;5
2217;5
2219;1
2220;5
2221;2
2222;2
2223;2
2224;2
2225;2
2226;1
2227;2
2228;2
2229;1
2230;1
2231;1
2232;1
2233;1
2234;1
2235;1
2236;2
2237;2
2238;2
2239;2
2240;2
2241;2
2242;3
2243;2
2244;2
2245;1
2246;3
2247;0
2248;0
2249;0
2250;0
2251;0
2252;0
2253;0
2254;0
2255;1
2256;2
2257;0
2258;0
2259;0
2260;2
2261;0
2262;0
2263;0
2264;1
2265;0
2266;0
2267;0
2268;0
2269;0
2270;0
2271;0
2272;0
2273;0
2274;0
2275;0
2276;0
2277;0
2278;2
2279;1
2281;0
2282;890
2283;652
2284;244
2285;366
2286;124
2287;403
2288;51
2289;227
2290;86
2291;103
2292;197
2293;0
2294;134
2295;2
2296;12
2297;0
2298;0
2299;0
2300;0
2301;0
2302;0
2303;0
2304;0
2305;0
2306;0
2307;0
2308;0
2312;9
2313;9
2314;22
2315;47
2316;59
2317;195
2318;177
2319;129
2320;55
2321;144
2322;40
2323;191
2324;6
2325;2
2326;0
2327;371
2328;163
2329;78
2330;0
2331;44
2332;0
2333;0
2334;10
2335;0
2336;0
2337;0
2338;0
2339;0
2340;0
2341;3715
2342;224
2343;0
2344;0
2345;2
2346;1
2347;1301
2348;6396
2349;3749
2350;10
2351;18
2352;0
2353;0
2354;15
2355;0
2356;220
2357;220
2358;0
2359;397
2360;20
2361;252
2362;0
2363;0
2364;0
2365;0
2366;0
2367;0
2368;0
2369;0
2370;15
2371;0
2372;0
2373;1
2374;6285
2375;2
2376;4
2377;2
2378;1
2379;627
2380;2870
2381;0
2382;3608
2383;0
2384;1123
2392;2
2393;1
2394;2
2395;3
2396;6
2397;0
2398;0
2399;0
2400;0
2401;0
2402;0
2403;274
2404;4000
2405;100
2406;418
2407;0
2408;399
2409;143
2410;100
2411;250
2412;6990
2413;0
2414;0
2415;0
2416;64
2417;3
2418;0
2419;0
2420;1
2421;0
2422;157
2423;0
2424;180
2425;0
2426;12
2427;0
2428;422
2429;0
2430;0
2431;132
2432;157
2433;0
2434;476
2435;0
2436;0
2437;0
2438;648
2439;0
2440;0
2441;89
2442;30
2443;35
2444;27
2445;16
2446;26
2447;25
2448;14
2449;20
2450;24
2451;22
2452;34
2453;0
2454;1
2455;2
2456;1
2457;1
2458;109
2459;101
2460;0
2461;0
2462;13
2463;9
2464;137
2465;51
2466;162
2467;12
2468;0
2469;10
2470;0
2471;34
2473;0
2474;222
2475;1
2476;5
2477;0
2478;165
2479;0
2480;0
2481;0
2482;0
2483;50
2484;0
2485;1
2486;500
2487;2440
2488;3
2489;1
2490;2
2491;2
2492;2
2493;2
2494;2
2495;4
2496;1
2497;2
2498;2
2499;2
2500;1
2501;30
2502;0
2503;67
2504;11
2505;0
2506;77
2507;83
2508;285
2509;0
2510;0
2511;0
2512;0
2514;3764
2516;0
2517;0
2518;10000
2519;20000
2520;20000
2521;20000
2522;10000
2523;0
2524;10000
2525;9958
2526;10000
2527;10000
2528;10000
2529;10000
2530;10000
2531;10000
2532;20000
2533;10000
2534;10000
2536;10000
2537;10000
2538;9999
2539;10000
2540;10000
2541;0
2542;1000
2543;0
2544;342
2545;0
2546;0
2547;5
2548;5
2549;5
2550;5
2551;5
2552;5
2553;5
2554;5
2555;5
2556;5
2557;30
2558;10
2559;10
2560;9
2561;4
2562;4
2563;1
2565;371
2566;67
2567;562
2568;194
2569;2
2570;5000
2571;3
2572;0
2573;0
2575;0
2576;1420
2577;650
2579;0
2580;0
2581;0
2582;0
2583;0
2584;0
2585;0
2586;0
2587;0
2588;0
2589;0
2590;0
2591;0
2592;0
2593;0
2594;0
2595;0
2596;0
2597;0
2598;0
2599;486
2600;1458
2601;447
2602;3842
2603;0
2604;0
2605;0
2606;0
2607;0
2608;2
2609;0
2612;31
2613;29
2614;33
2615;45
2616;38
2617;1
2618;0
2619;283
2620;60
2621;0
2622;2
2628;0
2629;2
2630;9
2631;0
2632;1
2633;0
2634;0
2635;0
2636;0
2637;0
2638;0
2639;0
2640;3
2641;0
2642;0
2643;0
2644;2
2645;0
2646;0
2647;0
2648;0
2649;0
2650;0
2651;0
2652;0
2653;0
2654;0
2655;16
2656;15
2657;21
2658;3
2659;0
2660;5
2661;4
2662;5
2663;2
2664;12
2665;6
2666;20
2667;0
2668;5
2669;0
2670;14
2671;14
2672;264
2673;0
2674;0
2675;0
2676;0
2677;0
2678;7
2679;0
2680;491
2681;0
2682;511
2683;0
2684;228
2685;0
2686;204
2687;0
2688;7
2689;0
2690;0
2691;0
2692;79
2693;0
2694;512
2695;0
2696;328
2697;0
2698;20
2699;0
2700;477
2701;0
2702;184
2703;0
2704;0
2705;10
2706;4687
2707;0
2708;0
2709;0
2714;10
2715;5
2716;1
2717;2
2718;9
2719;13
2720;0
2721;0
2722;0
2723;9
2724;6
2726;0
2727;0
2728;1
2729;1
2730;1
2731;1
2732;1
2733;0
2734;0
2735;0
2736;0
2737;0
2738;0
2739;0
2740;0
2741;0
2742;0
2743;913
2744;392
2745;10773
2746;237
2747;249
2748;697
2749;2032
2750;815
2751;16
2752;0
2753;293
2754;492
2755;200
2756;132
2757;1100
2758;1647
2759;676
2760;3762
2761;3283
2762;10258
2763;0
2764;1100
2765;0
2766;6,8836
2767;4945
2768;0
2769;1500
2770;2409
2771;238
2772;75
2773;33
2774;0
2775;0
2779;30
2781;24
2782;0
2783;0
2784;309
2785;447
2786;0
2787;0
2788;121
2789;0
2790;0
2791;1
2792;1
2793;1
2794;1
2795;0
2796;1
2797;0
2798;1
2799;3
2800;0
2801;2
2802;1
2803;1
2804;1
2805;0
2806;0
2807;0
2808;8
2809;0
2810;12
2811;0
2812;0
2813;1
2814;0
2815;0
2816;0
2817;0
2818;0
2819;0
2820;0
2821;0
2822;0
2823;0
2824;0
2825;0
2826;0
2827;0
2828;0
2829;0
2830;0
2831;0
2832;0
2833;0
2834;0
2835;0
2836;468
2837;88000
2838;4
2839;6
2840;0
2841;0
2842;0
2843;0
2844;0
2845;1
2846;1
2847;1
2848;0
2849;0
2850;0
2851;3
2852;0
2853;1
2854;0
2855;1
2856;0
2857;0
2858;1
2859;0
2860;1
2861;0
2862;4
2863;4
2864;0
2865;0
2866;3
2867;4
2868;3
2869;0
2870;0
2871;0
2872;1
2873;0
2874;1
2875;1
2876;0
2877;0
2878;0
2879;3
2880;0
2881;1
2882;3
2883;0
2884;0
2885;0
2886;4
2887;2
2888;1
2889;2
2890;0
2891;6
2892;0
2893;0
2894;5
2895;1
2896;0
2897;2
2898;0
2899;2
2900;0
2901;1
2902;0
2903;0
2904;0
2905;0
2906;1
2907;2
2908;0
2909;0
2910;0
2911;0
2912;0
2913;1
2914;5
2915;1
2916;0
2917;9
2918;0
2919;4
2920;0
2921;0
2922;0
2923;0
2924;0
2925;0
2926;0
2927;3
2928;0
2929;37
2930;0
2931;0
2932;0
2933;0
2934;0
2935;649
2936;0
2937;546
2938;5076
2939;428
2940;973
2941;0
2942;460
2943;305
2944;1098
2945;638
2946;366
2947;0
2948;0
2949;0
2950;0
2951;0
2952;0
2954;0
2955;0
2956;0
2957;0
2958;0
2959;0
2960;0
2961;0
2962;0
2963;0
2965;0
2966;0
2967;0
2968;0
2969;0
2972;0
2973;0
2974;0
2975;0
2976;0
2977;0
2978;0
2979;0
2980;0
2981;0
2982;0
2983;0
2984;0
2985;0
2986;0
2987;0
2988;0
2989;0
2990;0
2991;0
2992;0
2993;0
2994;0
2995;0
2996;0
2997;0
2998;0
2999;4,9960
3000;0
3001;0
3002;0
3003;0
3004;0
3005;0
3006;0
3007;0
3008;0
3009;0
3010;0
3011;0
3012;0
3013;0
3014;0
3015;0
3016;0
3017;0
3018;0
3019;0
3020;0
3021;0
3022;0
3023;0
3024;8
3025;0
3026;0
3027;0
3028;0
3029;0
3030;0
3031;0
3032;0
3033;0
3034;2664
3035;0
3036;0
3037;0
3038;0
3039;442
3040;0
3041;262
3042;0
3043;0
3044;0
3045;0
3046;6
3047;0
3048;0
3049;0
3050;685
3051;0
3052;20
3053;291
3054;0
3055;171
3056;0
3057;0
3058;0
3059;3060
3060;0
3061;0
3062;0
3063;0
3064;0
3065;0
3066;0
3067;333
3068;0
3069;93
3070;0
3071;0
3072;0
3073;0
3074;2016
3075;0
3076;207
3077;0
3078;0
3079;0
3080;0
3081;0
3082;0
3083;0
3084;0
3085;0
3086;1000
3087;0
3088;0
3090;0
3091;0
3092;0
3093;0
3095;0
3096;72
3097;0
3098;1817
3099;10
3100;0
3101;0
3102;62,1490
3103;0
3104;11
3105;49
3106;49
3107;0
3108;0
3109;0
3110;0
3111;0
3112;0
3113;0
3114;20
3115;0
3116;0
3117;0
3118;0
3119;0
3120;0
3121;0
3122;0
3123;0
3124;0
3125;0
3126;0
3127;3
3128;0
3129;0
3130;0
3131;0
3132;0
3133;0
3134;0
3137;0
3138;0
3139;0
3140;0
3141;0
3142;1,52
3143;0
3144;0
3145;0
3146;0
3147;0
3148;0
3149;0
3150;0
3151;0
3152;0
3153;0
3154;0
3155;0
3156;10
3157;10
3158;76
3159;0
3160;0
3161;5
3162;4
3163;0
3164;12
3165;239
3166;67
3167;72
3168;0
3169;0
3170;0
3171;0
3172;3
3173;0
3174;0
3175;21
3176;0
3177;0
3178;0
3179;0
3180;0
3181;0
3182;0
3183;0
3184;0
3185;0
3186;0
3187;0
3188;0
3189;0
3190;0
3191;0
3192;0
3193;30
3194;9
3195;0
3196;0
3197;336
3198;258
3199;0
3200;0
3201;0
3202;0
3203;0
3204;0
3205;0
3206;0
3207;0
3208;0
3209;0
3210;10
3211;0
3212;1
3213;50
3214;0
3215;0
3216;0
3217;0
3218;1
3219;30
3220;0
3221;0
3222;0
3223;86
3224;5544
3225;4654
3226;0
3227;0
3228;0
3229;0
3230;0
3231;0
3232;0
3233;0
3234;44
3235;0
3236;0
3237;0
3238;0
3239;0
3240;0
3241;0
3242;0
3243;245
3244;9
3245;10
3246;7
3247;5
3248;1
3249;0
3250;0
3251;17600
3252;31500
3253;0
3254;0
3255;0
3256;0
3257;0
3258;0
3259;0
3260;0
3261;11
3262;2
3263;0
3264;428
3265;32
3266;18
3267;0
3268;0
3269;0
3270;0
3271;0
3272;0
3273;0
3274;0
3275;0
3276;0
3277;0
3278;0
3279;27
3280;10
3281;0
3282;0
3283;4
3284;4
3285;4
3286;2
3287;0
3288;885
3289;41
3290;0
3291;1,80
3292;0
3293;66
3295;0
3296;0
3297;0
3298;1797
3299;1843
3300;668
3301;7
3302;0
3303;0
3304;0
3305;2,0131
3306;0
3307;0
3308;5
3309;0
3310;0
3311;0
3312;0
3313;0
3314;2
3315;0
3316;0
3317;4
3318;0
3319;0
3320;0
3321;0
3322;0
3323;3
3324;0
3325;3
3326;0
3327;2
3328;0
3329;2
3330;0
3331;0
3332;0
3333;0
3334;0
3335;0
3336;0
3337;55
3338;1227
3339;143
3340;600
3341;0
3342;0
3343;0
3344;20
3345;8
3346;453
3347;0
3348;0
3349;0
3350;70
3351;250
3352;0
3353;0
3354;0
3355;0
3356;0
3357;0
3358;0
3359;0
3360;0
3361;0
3362;0
3363;0
3364;0
3365;0
3366;455
3367;0
3368;0
3369;0
3370;7
3372;0
3373;0
3374;0
3375;0
3376;170
3377;0
3378;0
3379;50
3380;0
3381;0
3382;0
3383;0
3384;0
3385;3
3386;300
3389;10
3390;0
3391;0
3392;0
3393;0
3394;0
3395;0
3396;0
3397;0
3398;0
3399;0
3400;0
3401;40
3402;400
3403;0
3404;40
3405;0
3406;0
3407;0
3408;0
3409;0
3410;0
3411;0
3412;0
3413;0
3414;0
3415;0
3416;0
3417;0
3418;0
3419;0
3420;0
3421;0
3422;0
3423;300
3424;10000
3425;307
3427;250
3428;5
3429;0
3430;0
3431;0
3432;0
3433;500
3434;0
3435;0
3436;0
3437;0
3438;0
3440;2091
3441;0
3442;0
3443;0
3444;0
3445;0
3446;0
3448;0
3449;0
3450;0
3451;0
3452;3400
3453;0
3454;0
3455;0
3456;0
3457;0
3458;0
3459;0
3460;0
3461;0
3462;0
3463;0
3464;0
3465;0
3466;0
3467;0
3468;0
3469;0
3470;0
3471;0
3472;0
3473;0
3474;0
3475;42
3476;30
3477;172
3478;214
3479;233
3480;0
3481;50
3482;109
3483;0
3484;207
3485;337
3486;398
3487;270
3488;601
3489;223
3490;188
3491;25
3492;262
3493;431
3494;0
3495;0
3496;0
3497;0
3498;0
3499;0
3500;0
3501;0
3502;0
3503;0
3504;0
3506;0
3507;0
3508;0
3509;0
3510;0
3511;0
3512;0
3513;0
3514;0
3515;0
3516;0
3517;0
3518;0
3519;0
3520;0
3521;0
3522;0
3523;0
3524;0
3526;0
3527;0
3528;0
3529;0
3530;0
3531;0
3532;0
3533;0
3534;0
3535;0
3536;0
3537;0
3538;0
3539;0
3540;0
3541;0
3542;0
3543;0
3544;0
3545;0
3546;0
3547;0
3548;0
3549;0
3550;0
3551;0
3552;0
3553;0
3554;0
3555;0
3556;0
3557;0
3558;0
3559;0
3560;0
3561;0
3562;0
3563;0
3564;0
3565;0
3566;0
3567;0
3568;0
3569;0
3570;0
3571;0
3572;0
3573;0
3574;0
3575;0
3576;0
3577;0
3578;0
3579;0
3580;0
3581;0
3582;0
3583;0
3584;0
3585;0
3586;0
3587;0
3588;0
3589;0
3590;0
3591;0
3592;0
3593;0
3594;0
3595;0
3596;0
3597;0
3598;0
3599;0
3600;0
3601;0
3602;0
3603;0
3604;0
3605;0
3606;0
3607;0
3608;0
3609;0
3610;0
3611;0
3612;5000
3613;0
3614;0
3615;0
3616;0
3617;0
3618;0
3619;0
3620;0
3621;0
3622;0
3623;0
3624;0
3625;19
3626;0
3627;0
3628;0
3629;0
3630;0
3631;0
3632;0
3633;0
3634;108
3635;0
3636;4960
3637;0
3638;0
3639;0
3640;0
3641;0
3642;0
3643;0
3644;0
3645;0
3646;0
3647;92
3648;0
3649;0
3650;0
3651;0
3652;0
3653;0
3654;0
3655;0
3656;0
3657;0
3658;0
3659;0
3660;0
3661;0
3662;0
3663;0
3664;0
3665;0
3666;0
3667;0
3668;0
3669;0
3670;0
3671;0
3672;0
3673;30
3674;11
3675;46
3676;0
3677;0
3678;0
3679;0
3680;0
3681;0
3682;0
3683;0
3684;0
3685;0
3686;0
3687;0
3688;10
3689;0
3690;0
3691;0
3692;0
3693;0
3694;0
3695;0
3696;0
3697;27
3698;0
3699;0
3700;0
3701;0
3702;0
3703;0
3704;0
3705;0
3706;0
3707;0
3708;0
3709;0
3710;0
3711;0
3712;0
3714;0
3715;287
3716;0
3717;0
3718;4
3719;0
3720;0
3721;0
3722;1001
3723;0
3724;0
3725;11
3726;21
3727;51
3728;12
3729;25
3730;13
3731;21
3732;27
3733;10
3734;23
3735;13
3736;10
3737;28
3738;7
3739;18
3740;18
3741;35
3742;28
3743;7
3744;0
3745;14
3746;17
3747;51
3748;35
3749;18
3750;51
3751;12
3752;10
3753;44
3754;24
3755;0
3756;0
3757;0
3758;0
3759;0
3760;0
3761;0
3762;0
3763;0
3764;0
3765;100
3766;0
3767;0
3768;0
3769;0
3770;0
3771;0
3772;0
3773;0
3774;0
3775;0
3776;0
3777;0
3778;0
3779;0
3780;0
3781;0
3782;0
3783;0
3784;0
3785;0
3786;0
3787;0
3788;0
3789;0
3790;0
3791;0
3792;0
3793;101
3794;500
3795;0
3796;0
3797;0
3798;0
3799;0
3800;0
3801;0
3802;0
3803;0
3804;16
3805;15
3806;0
3807;0
3808;0
3809;0
3810;95
3811;124
3812;0
3813;0
3814;0
3815;0
3816;0
3817;0
3818;0
3819;0
3820;0
3821;0
3822;0
3823;0
3824;0
3825;0
3826;0
3827;0
3828;0
3829;0
3830;0
3831;65
3832;65
3833;0
3834;0
3835;17
3836;0
3837;0
3838;0
3839;0
3840;0
3841;0
3842;0
3843;0
3844;149
3845;400
3846;0
3847;50
3848;0
3849;10
3850;50
3851;905
3852;949
3853;8288
3854;0
3855;0
3856;0
3857;0
3858;110
3859;126
3860;127
3861;50
3862;5
3863;5
3864;5
3865;40
3866;0
3867;0
3868;4
3869;18
3870;6
3871;32
3872;46
3873;54
3874;29
3875;10
3876;9
3877;11
3878;16
3879;16
3880;27
3881;32
3882;30
3883;39
3884;14
3885;8
3886;1
3887;4
3888;1
3889;6
3890;4
3891;11
3892;8
3893;47
3894;44
3895;4
3896;8
3897;3
3898;2
3899;13
3900;5
3901;2
3902;3
3903;5
3904;5
3905;3
3906;5
3907;51
3908;0
3909;0
3910;0
3911;0
3912;0
3913;9
3914;0
3915;0
3916;0
3917;0
3918;0
3919;0
3920;0
3921;1
3922;0
3923;0
3924;0
3925;2
3926;8
3927;0
3928;0
3929;465
3930;0
3931;0
3932;0
3933;0
3934;0
3935;0
3936;177
3937;746
3938;0
3939;0
3940;0
3941;0
3942;0
3943;0
3944;0
3945;0
3946;0
3947;0
3948;0
3949;24
3950;0
3951;0
3952;0
3953;5
3954;2
3955;2
3956;0
3957;0
3958;0
3959;0
3960;0
3961;0
3962;0
3963;0
3964;0
3965;0
3966;0
3967;0
3968;0
3969;0
3970;0
3971;0
3972;30
3973;0
3974;0
3975;0
3976;0
3977;0
3978;0
3979;382
3980;0
3981;0
3982;0
3983;0
3984;0
3985;0
3986;0
3987;0
3988;0
3989;0
3990;30
3991;0
3992;0
3993;0
3994;0
3995;0
3996;0
3997;0
3998;0
3999;0
4000;0
4001;0
4002;0
4003;0
4004;0
4005;0
4006;887
4007;0
4008;0
4009;0
4010;0
4011;0
4012;0
4013;0
4014;0
4015;0
4016;0
4017;0
4018;0
4019;0
4020;0
4021;0
4022;0
4023;0
4024;0
4025;0
4026;0
4027;0
4028;0
4029;0
4030;0
4031;0
4032;0
4033;0
4034;0
4035;0
4036;0
4037;0
4038;0
4039;0
4040;0
4041;0
4042;0
