1;0
2;0
3;1
4;5
5;11
6;3
7;4
8;0
9;0
10;0
11;11
12;3
13;8
14;0
15;0
16;5
17;7
18;5
19;6
20;0
21;4
22;8
23;0
25;32
26;5
27;7
28;7
29;3
30;0
31;0
32;0
33;0
34;0
35;0
36;0
37;0
38;12
39;23
40;37
41;43
42;24
43;11
44;119
45;57
46;72
47;28
48;44
49;90
50;52
51;96
52;13
53;46
54;13
55;228
56;95
57;14
58;17
59;2
60;75
61;267
62;7
63;0
64;2
65;3
66;4
67;2
68;3
69;3
70;21
71;0
72;10
73;18
74;6
75;3
76;3
77;5
78;0
79;14
80;2
81;0
82;48
83;16
84;9
85;22
87;0
88;0
89;0
90;15
91;0
92;13
93;10
94;66
95;28
96;0
97;12
98;7
99;17
100;28
101;0
102;0
103;4679
104;812
105;0
106;361
107;939
108;1634
109;537
110;518
111;385
112;1568
113;2250
114;1369
115;3378
116;1792
117;1284
118;3515
119;3663
120;1599
121;7052
122;0
123;1787
124;0
126;3828
127;526
128;7188
129;17
130;0
131;980
132;375
133;1000
134;720
135;3543
136;592
137;63
138;839
139;1196
140;2966
141;1185
142;0
143;769
144;66
145;899
146;1750
147;205
148;160
149;800
150;511
151;763
152;549
153;3923
154;1165
155;562
156;1310
157;860
158;790
159;665
160;325
161;1782
162;2149
163;824
164;1731
166;5836
167;5840
168;3300
169;1418
170;2664
171;3329
172;1844
173;7606
174;4630
175;4182
176;3440
177;0
178;5886
179;3881
180;10270
181;14124
182;2097
183;1467
185;11758
186;4828
187;4831
188;3243
189;7434
190;3500
191;1784
192;4786
193;4322
195;4387
196;7103
197;0
198;3252
199;3840
200;8233
201;4942
202;0
203;10326
204;4790
205;4043
206;0
207;0
208;2280
209;4860
210;4949
211;853
212;3432
213;3433
214;3496
215;4999
216;1200
217;2888
218;3160
219;4698
220;5029
221;0
222;0
223;7850
224;2797
225;0
226;2751
227;3537
228;2770
229;5012
230;3023
231;2520
232;4454
233;4800
234;2114
235;191
236;477
237;589
239;3846
240;6437
241;1786
242;0
243;12603
244;673
245;0
246;4130
247;0
248;2458
249;524
250;0
251;0
253;0
254;0
255;0
256;0
257;0
258;0
259;0
260;0
261;1332
262;810
263;849
264;225
265;0
266;75
267;126
268;469
269;177
270;670
271;0
272;0
273;42
274;0
275;265
276;155
277;1578
278;0
279;404
280;2437
281;3147
282;2850
283;1244
284;0
285;145
286;2702
287;529
288;532
289;0
290;0
291;0
292;430
293;1538
294;1043
295;100
296;415
297;0
298;0
299;0
300;0
301;0
302;1867
303;997
304;1879
305;1181
306;0
307;0
308;0
309;3786
310;0
311;128
312;133
313;20
314;0
315;101
318;68
319;1232
320;0
321;0
322;375
323;2
324;0
325;484
326;30
327;0
328;0
329;0
330;1332
331;0
332;0
333;0
334;0
335;1037
336;675
337;762
338;766
339;309
340;0
341;0
342;102
343;0
344;0
345;894
346;18
347;0
348;0
349;0
350;0
351;0
353;0
354;0
355;0
356;200
357;0
358;0
359;5
360;0
361;0
362;0
363;0
364;0
365;0
366;0
367;0
368;0
369;0
370;0
371;0
372;0
373;0
374;0
375;0
376;0
377;0
378;0
379;0
380;0
381;0
382;0
383;0
384;0
385;0
386;0
387;0
388;0
389;0
390;0
391;0
392;0
393;0
394;200
395;0
397;0
398;2
399;3
400;40
401;48
402;9984
403;17577
404;1758
405;25581
406;6835
407;1844
408;5527
409;1676
410;7619
411;4083
412;7479
413;5000
414;5000
415;4642
416;0
417;26199
418;4434
419;9482
420;10537
421;12549
422;4862
423;13926
424;46926
425;7462
426;1660
427;7506
428;2684
429;4821
430;6019
431;3355
432;13859
433;3925
434;497
435;778
436;1013
437;18998
438;5166
439;5615
442;3000
443;300
444;692
445;299
446;75
447;0
448;494
449;891
451;221
452;117
453;134
454;79
455;95
456;184
457;239
458;470
459;152
460;45
461;56
462;253
463;75
464;102
465;234
466;0
467;24
468;86
469;143
470;135
471;114
472;4
473;831
503;0
504;0
505;54
506;0
507;0
508;0
509;2
510;0
511;0
512;0
516;44
517;44
518;31
519;0
526;0
527;3
528;36
529;1
539;303
540;28
541;238
542;47
543;495
544;0
545;1246
546;996
547;431
548;49
549;0
550;516
551;261
552;263
553;268
554;1049
555;958
556;39
557;740
558;423
559;879
560;238
561;419
562;206
563;113
564;347
565;380
566;98
567;3
568;0
569;0
570;0
571;149
572;0
573;121
574;0
575;103
576;0
577;0
578;0
579;0
580;0
581;0
582;500
583;0
584;1047
585;150
586;318
587;0
588;41
589;2501
590;284,90
591;60
592;151
593;206
594;87
595;25
596;37
597;56
598;37
599;30
600;60
601;203
602;73
603;98
604;41
605;6
606;155
607;0
608;131
609;309
610;316
611;276
612;328
613;0
614;741
615;18748
616;6000
617;0
618;0
619;6000
620;0
621;1540
622;0
623;0
624;0
625;29
626;0
627;0
628;0
629;20676
630;5809
631;0
632;80
633;393
634;241
635;214
636;6000
637;1052
638;0
639;322
640;356
641;0
642;330
643;390
644;500
645;279
646;653
647;256
648;63
649;489
650;0
651;406
652;384
653;275
654;2130
655;83
656;1279
657;88
658;0
659;0
660;163
661;829
662;110
664;0
665;0
666;0
667;5
668;0
669;0
670;8
671;0
672;24
673;114
674;0
675;0
676;0
677;11
678;0
679;0
680;0
681;0
682;45
683;1
684;1
685;0
686;86
687;0
689;0
691;4
692;0
693;0
694;138
695;20
696;6
697;9
698;7
699;0
700;9
701;2
702;3
703;8
704;1
705;1
706;2
707;0
708;0
709;1
710;2
711;1
712;2
713;4
714;1
715;2
716;2
717;1
718;3
719;1
720;3
721;3
722;2
723;0
724;0
725;0
726;0
727;0
728;1
729;0
730;0
731;0
732;0
733;0
734;0
735;0
736;0
737;0
738;0
739;0
740;0
741;0
742;1149
743;0
744;0
745;0
746;0
747;0
748;0
749;0
750;0
751;0
752;0
753;0
754;0
755;1
756;166
757;168
758;0
759;0
760;163
761;1556
762;108
763;61
764;0
765;0
766;174
767;0
768;0
769;0
770;0
771;0
772;0
773;0
774;0
775;0
776;0
777;95
778;0
779;0
780;0
781;0
782;0
783;0
784;0
785;0
786;0
787;235
788;252
789;0
790;0
791;747
792;0
793;0
794;52,603821
795;0
796;0
797;0
798;0
799;0
800;0
801;0
802;0
803;0
804;0
805;0
806;0
807;0
808;0
809;0
810;0
811;0
812;0
813;0
814;0
815;0
816;0
817;0
818;0
819;0
820;0
821;0
822;0
823;0
824;0
825;0
826;0
827;20
828;14
829;20
830;20
831;4
832;5
833;0
834;8
835;173
836;18
837;0
838;71
839;60
840;19
841;13
842;0
843;0
844;0
845;0
846;0
847;58
848;1
849;0
850;0
851;0
852;0
853;0
854;0
855;0
856;0
857;0
858;0
859;0
860;0
861;0
862;0
863;27
864;13
865;0
866;0
867;0
868;0
869;7477
870;0
871;0
872;2815
873;0
874;1980
875;0
876;0
877;4305
879;0
880;0
881;0
882;0
883;0
884;0
885;512
886;0
887;0
888;0
889;0
890;0
891;0
892;0
893;0
894;0
895;0
896;0
897;0
898;0
899;0
900;0
901;0
902;0
903;0
904;0
905;0
906;0
907;0
908;0
909;0
910;0
911;0
912;0
913;0
914;0
915;0
916;0
917;0
918;0
919;0
920;0
921;0
922;0
923;0
924;0
925;0
926;0
939;3
940;269
941;136
942;55
943;21
944;53
945;21
946;48
947;55
948;24
949;20
950;15
951;22
952;93
953;25
954;120
955;125
956;45
957;27
958;16
959;0
960;0
961;0
962;146
963;0
964;322
965;58
966;0
967;3950
968;665
969;987
970;7862
971;3922
972;2823
973;3500
974;1320
975;643
976;1271
977;0
978;0
979;0
980;6734
981;6015
982;0
983;0
984;0
985;0
986;0
987;0
988;0
989;0
990;0
991;0
992;1
993;0
994;0
995;0
996;0
997;3
998;2
999;2
1000;9
1001;2
1002;3
1003;8
1004;2
1005;1
1006;1
1008;62
1009;40
1010;5112
1011;4747
1012;269
1013;105
1014;87
1015;164
1016;317
1017;469
1018;350
1019;1044
1020;3767
1021;623
1022;0
1023;350
1024;84
1025;0
1026;0
1027;0
1028;0
1029;164
1030;83
1031;131
1032;197
1033;0
1034;128
1035;0
1036;1704
1037;0
1038;97
1042;0
1043;1
1044;0
1045;3
1046;2
1047;1
1048;0
1049;1
1050;200
1051;163
1052;201
1053;178
1054;143
1055;132
1056;106
1057;191
1058;72
1059;52
1060;2
1061;79
1062;85
1063;0
1064;0
1065;0
1066;7
1067;0
1068;0
1069;0
1070;0
1071;0
1072;0
1073;0
1074;91
1075;1
1076;32
1077;94
1078;39
1079;13
1080;18
1081;45
1082;0
1083;43
1084;8
1085;164
1086;38
1087;102
1088;0
1089;54
1090;19
1091;46
1092;0
1093;0
1094;0
1095;0
1096;66
1097;7
1098;11
1099;0
1100;0
1101;0
1102;1
1103;6
1104;0
1105;0
1106;0
1107;26
1108;3
1109;21
1110;0
1111;34
1112;0
1113;83
1114;203
1115;122
1125;0
1126;9
1127;2
1128;47
1129;240
1130;0
1131;2
1132;1
1133;149
1134;0
1135;16
1136;28
1137;5
1138;2
1139;4
1141;0
1142;0
1143;0
1144;0
1145;0
1146;0
1147;666
1148;3587
1149;261
1150;0
1151;46,50
1152;0
1153;7
1154;0,50
1155;0
1156;0
1157;0
1158;0
1159;0
1160;0
1161;0
1162;0
1163;50
1165;0
1166;0
1167;0
1168;239
1169;86
1170;262
1171;1
1175;0
1176;23
1179;96
1180;0
1181;18
1182;0
1183;79
1184;0
1185;66
1186;587
1187;915
1188;30
1189;0
1190;10
1191;3
1192;3
1193;183
1194;638
1195;0
1196;55
1197;88
1198;0
1199;70
1200;70
1201;78
1202;91
1203;69
1204;268
1205;47
1206;0
1207;19
1208;70
1209;75
1210;0
1211;0
1212;166
1213;80
1214;0
1215;2
1216;0
1217;0
1218;0
1219;0
1221;0
1222;0
1223;0
1224;0
1225;0
1226;0
1227;0
1228;0
1229;0
1230;0
1231;0
1232;0
1233;0
1234;0
1235;0
1236;0
1237;0
1238;0
1239;0
1240;0
1241;0
1242;0
1243;0
1244;0
1245;0
1246;0
1247;3350
1248;1823
1249;1136
1250;0
1251;0
1252;0
1253;0
1254;0
1255;0
1256;0
1257;0
1258;0
1259;0
1260;0
1261;0
1262;0
1263;0
1264;0
1265;0
1266;123
1267;27
1268;2762
1269;1023
1270;1522
1271;0
1272;200
1273;0
1274;541
1275;0
1276;0
1278;0
1279;0
1280;0
1281;0
1282;0
1283;0
1284;0
1285;0
1286;0
1287;0
1288;0
1289;0
1290;0
1291;0
1292;0
1293;0
1295;0
1296;0
1297;0
1298;0
1299;0
1300;0
1301;0
1302;0
1303;0
1304;0
1305;0
1306;0
1307;0
1308;0
1309;0
1310;0
1311;0
1312;0
1313;0
1314;0
1315;0
1316;0
1317;63094
1318;0
1319;0
1320;0
1321;0
1322;3294
1324;4343
1325;0
1326;0
1327;0
1328;0
1329;0
1330;0
1331;0
1332;0
1333;0
1334;0
1335;0
1336;0
1337;0
1338;0
1339;0
1340;0
1341;926
1342;0
1343;0
1344;0
1345;0
1346;0
1347;295
1348;233
1350;0
1351;0
1352;0
1353;0
1355;3193
1356;0
1357;0
1358;0
1359;32
1360;22
1361;38
1362;0
1366;0
1367;1894
1368;0
1369;5434
1370;4838
1371;137
1373;0
1374;0
1376;10
1377;0
1378;0
1379;0
1380;0
1381;0
1382;0
1383;0
1384;0
1385;0
1386;0
1387;7
1388;4
1389;4
1390;2
1391;10
1392;5
1393;4
1394;3
1395;4
1396;3
1397;0
1398;0
1399;0
1400;51
1401;0
1403;5076
1404;659
1405;418
1406;0
1407;918
1408;748
1409;630
1410;1395
1411;149
1412;0
1413;0
1414;478
1415;0
1416;500
1417;0
1418;0
1419;42
1420;8551
1421;26
1423;5620
1424;6273
1425;560
1426;0
1427;0
1428;0
1429;0
1430;0
1431;0
1432;0
1433;0
1434;0
1435;0
1436;0
1437;1917
1438;0
1439;0
1440;0
1441;35
1442;0
1443;2
1444;1
1445;63
1446;8
1447;30
1448;221
1449;0
1450;5
1451;498
1452;816
1453;0
1454;0
1455;0
1457;0
1458;0
1459;0
1460;2895
1461;0
1462;0
1463;0
1464;0
1465;88
1466;59
1467;2
1468;100
1469;200
1470;0
1471;9
1472;0
1473;580
1476;0
1477;3
1478;0
1479;138
1480;0
1481;70
1482;0
1484;2768
1485;320
1486;0
1487;0
1488;0
1489;0
1490;0
1491;0
1492;2
1493;10
1494;10
1495;10
1496;12
1497;10
1498;10
1499;12
1500;12
1501;50
1502;50
1503;55
1504;92
1505;0
1506;0
1507;0
1508;0
1509;0
1510;0
1511;0
1512;0
1513;0
1514;0
1515;0
1516;0
1517;0
1518;0
1519;0
1520;0
1521;0
1522;0
1523;0
1524;0
1525;336
1526;0
1527;40
1528;74
1529;0
1530;4845
1531;34
1532;0
1533;0
1534;0
1535;27
1536;0
1537;29
1538;72
1539;68
1540;8601
1541;8031
1542;7352
1543;3326
1544;4616
1545;2699
1547;6707
1548;4781
1549;9587
1550;5614
1551;1457
1552;2825
1553;5257
1554;7720
1555;6190
1556;9555
1557;13695
1558;2894
1559;13282
1560;9100
1561;9897
1562;0
1563;14030
1564;13766
1565;4020
1566;0
1567;3197
1568;13809
1569;14378
1570;4033
1571;0
1572;0
1573;19
1574;8303
1575;3900
1576;4300
1577;115
1578;23
1581;184
1582;305
1583;318
1584;306
1585;382
1586;698
1587;0
1588;80
1589;1
1590;72
1591;111
1592;1
1593;332
1594;0
1595;5
1596;3600
1597;95
1598;44
1599;24032
1600;4950
1601;4800
1602;4811
1603;0
1604;8279
1605;339
1606;59
1607;0
1608;0
1609;0
1610;0
1612;471
1613;0
1614;171
1615;15
1616;0
1617;3849
1618;34
1619;10
1620;1
1621;11
1622;31
1623;16
1624;24
1625;58
1626;81
1627;95
1628;0
1629;3
1630;1
1631;0
1632;10
1633;0
1634;15
1635;0
1636;52
1637;101
1638;27
1639;7
1641;17
1642;51
1643;32
1644;85
1645;18
1646;20
1647;25
1648;104
1649;54
1650;57
1651;74
1652;25
1653;42
1654;40
1655;136
1656;123
1657;144
1658;144
1659;92
1660;154
1661;4
1662;99
1663;0
1664;71
1665;0
1666;66
1667;48
1668;73
1669;8
1670;0
1671;4260
1672;26
1673;0
1674;0
1675;0
1676;0
1677;2615
1679;0
1680;0
1681;50
1682;3100
1683;0
1684;0
1685;0
1686;0
1687;0
1688;0
1689;0
1691;0
1692;0
1693;0
1694;0
1695;0
1696;0
1697;0
1701;166
1702;0
1703;0
1704;15
1705;0
1706;0
1707;0
1708;0
1709;0
1710;389
1711;3
1712;0
1713;1000
1714;0
1715;0
1716;41
1717;30
1718;0
1719;0
1720;0
1721;0
1722;0
1723;0
1724;0
1725;0
1726;0
1727;0
1728;166
1729;153
1730;82
1731;80
1732;132
1733;0
1734;0
1735;0
1736;0
1737;0
1738;114
1739;119
1740;352
1741;0
1745;0
1746;0
1747;578
1748;0
1749;0
1750;30
1751;50
1752;19
1753;500
1754;0
1755;0
1756;0
1757;1
1758;2
1759;0
1760;2
1761;0
1762;0
1763;0
1764;2
1765;2
1766;2
1767;2
1768;0
1769;0
1770;0
1773;0
1774;0
1775;0
1776;0
1777;1
1778;0
1779;0
1780;0
1781;0
1782;0
1783;0
1784;0
1785;0
1786;0
1787;0
1788;0
1789;1094
1790;0
1791;0
1792;78
1793;78
1794;79
1795;65
1796;79
1797;79
1798;63
1799;58
1800;63
1801;46
1802;43
1803;47
1804;45
1805;601
1806;7
1807;0
1808;0
1809;0
1810;0
1811;15
1812;3
1813;3
1814;185
1815;5
1816;100
1817;72
1818;30
1819;0
1820;0
1821;0
1822;1347
1823;0
1824;0
1825;387
1826;0
1827;0
1829;22
1830;0
1831;17
1832;0
1833;30
1834;717
1835;3219
1836;69
1837;136
1838;0
1839;2
1840;10
1841;0
1842;0
1843;0
1844;77
1845;92
1846;79
1847;3802
1848;1
1849;3
1850;2
1851;2
1852;0
1853;0
1854;0
1855;0
1856;0
1857;0
1858;0
1859;0
1861;0
1862;0
1863;0
1864;1
1865;0
1866;0
1867;0
1868;0
1869;426
1870;0
1872;0
1873;0
1874;0
1875;0
1876;0
1877;0
1878;0
1879;0
1880;0
1881;0
1882;31500
1883;0
1884;0
1885;32000
1886;0
1887;0
1888;0
1889;0
1890;0
1891;0
1892;0
1893;0
1894;0
1895;79
1896;0
1897;0
1898;0
1899;599
1900;179
1901;0
1902;0
1903;0
1904;0
1905;5
1906;3
1907;3
1908;1
1909;3
1910;5
1911;3
1912;11
1913;4
1914;2
1915;2
1916;2
1917;0
1918;5
1919;17
1920;90
1921;0
1923;26
1924;173
1925;147
1926;46
1927;27
1928;45
1929;21
1930;85
1932;56
1933;37
1934;31
1935;20
1936;21
1937;31
1938;89
1939;160
1940;60
1941;92
1942;54
1943;5
1944;6
1945;20
1946;20
1947;13
1948;20
1949;13
1950;14
1951;60
1952;7
1953;7
1954;38
1955;100
1956;44
1957;51
1958;32
1959;0
1960;0
1961;0
1962;0
1963;1080
1964;1100
1965;0
1966;0
1967;0
1968;0
1969;0
1972;0
1973;0
1974;0
1975;0
1976;0
1977;0
1978;0
1979;0
1980;0
1981;20
1982;1163
1983;0
1984;0
1985;0
1986;0
1987;0
1988;19
1989;27
1990;68
1991;36
1992;58
1993;23
1994;38
1995;29
1996;37
1997;25
1998;6
1999;18
2000;36
2001;23
2002;10
2008;4
2009;0
2010;0
2011;0
2012;0
2013;3
2014;0
2015;0
2016;0
2017;0
2018;5
2019;0
2020;0
2021;0
2022;0
2023;6
2024;0
2025;0
2026;0
2027;0
2028;2
2029;1
2030;2
2031;3
2032;0
2033;0
2034;0
2035;0
2036;0
2037;5
2038;7
2039;0
2040;0
2041;229
2042;227
2044;328
2045;39
2047;0
2048;0
2049;0
2050;0
2051;97
2052;87
2053;6
2054;582
2055;41
2056;182
2057;0
2058;0
2059;0
2060;0
2061;0
2062;0
2063;0
2064;2115
2065;774
2066;0
2067;0
2068;0
2069;0
2077;644
2078;627
2079;438
2080;0
2081;0
2082;0
2083;0
2084;0
2085;0
2086;0
2087;0
2088;0
2089;0
2090;0
2091;0
2092;0
2093;0
2094;0
2095;0
2096;0
2097;0
2098;0
2099;0
2100;0
2101;0
2102;0
2103;0
2104;0
2105;0
2106;0
2107;0
2108;0
2109;0
2110;0
2111;0
2112;0
2113;0
2114;0
2115;0
2116;0
2117;0
2118;0
2119;0
2120;0
2121;0
2122;0
2123;0
2124;0
2125;0
2126;0
2127;0
2128;0
2129;0
2130;0
2131;0
2132;0
2133;6
2134;0
2135;3
2136;0
2137;0
2138;2
2139;0
2140;2
2141;2
2142;2
2143;5
2144;0
2145;0
2146;3
2147;0
2148;5
2149;6
2150;3
2152;752
2153;380
2154;496
2155;75
2156;80
2157;98
2158;0
2159;24
2160;64
2161;0
2162;4746
2163;0
2164;451
2165;0
2167;1000
2168;587
2169;5877
2170;0
2171;13
2172;0
2173;0
2174;99
2175;0
2176;83
2177;170
2178;1
2179;1
2180;0
2181;0
2182;108
2183;0
2184;1
2185;0
2186;7
2187;7
2188;19
2189;4
2190;0
2191;0
2192;0
2193;19782
2194;0
2195;0
2196;0
2197;10
2198;0
2199;0
2202;0
2203;0
2204;0
2205;15
2206;0
2207;0
2208;0
2210;0
2211;0
2213;5636
2214;2
2215;2
2216;5
2217;5
2219;2
2220;5
2221;2
2222;2
2223;1
2224;3
2225;2
2226;1
2227;2
2228;2
2229;1
2230;1
2231;1
2232;1
2233;1
2234;1
2235;1
2236;2
2237;2
2238;2
2239;2
2240;3
2241;2
2242;1
2243;2
2244;2
2245;1
2246;3
2247;0
2248;0
2249;0
2250;0
2251;0
2252;0
2253;0
2254;0
2255;6
2256;7
2257;1
2258;2
2259;1
2260;3
2261;0
2262;0
2263;11
2264;2
2265;5
2266;0
2267;0
2268;0
2269;0
2270;6
2271;0
2272;2
2273;0
2274;0
2275;0
2276;0
2277;0
2278;4
2279;1
2281;15
2282;100
2283;793
2284;266
2285;174
2286;210
2287;894
2288;63
2289;313
2290;91
2291;100
2292;1296
2293;0
2294;100
2295;5
2296;0
2297;0
2298;0
2299;0
2300;0
2301;0
2302;0
2303;0
2304;0
2305;0
2306;0
2307;0
2308;0
2312;11
2313;13
2314;27
2315;168
2316;288
2317;136
2318;182
2319;207
2320;192
2321;265
2322;61
2323;282
2324;7
2325;4
2326;0
2327;371
2328;148
2329;78
2330;0
2331;43
2332;0
2333;0
2334;10
2335;0
2336;0
2337;0
2338;0
2339;0
2340;0
2341;7901
2342;552
2343;0
2344;0
2345;2
2346;1
2347;591
2348;8072
2349;13645
2350;5
2351;36
2352;0
2353;0
2354;43
2355;0
2356;260
2357;260
2358;0
2359;418
2360;20
2361;1875
2362;0
2363;0
2364;0
2365;0
2366;30
2367;40
2368;40
2369;50
2370;2
2371;0
2372;0
2373;4
2374;4523
2375;2
2376;3
2377;2
2378;2
2379;1479
2380;7100
2381;0
2382;2376
2383;0
2384;6432
2392;2
2393;1
2394;2
2395;3
2396;2
2397;0
2398;0
2399;0
2400;0
2401;0
2402;0
2403;274
2404;4000
2405;100
2406;418
2407;0
2408;399
2409;142
2410;100
2411;250
2412;6990
2413;0
2414;0
2415;200
2416;0
2417;6
2418;43
2419;0
2420;0
2421;0
2422;312
2423;0
2424;587
2425;1
2426;26
2427;2
2428;389
2429;1
2430;0
2431;535
2432;55
2433;0
2434;736
2435;4
2436;95
2437;73
2438;2354
2439;0
2440;0
2441;101
2442;57
2443;12
2444;8
2445;16
2446;7
2447;26
2448;2
2449;1
2450;12
2451;3
2452;18
2453;1
2454;1
2455;2
2456;2
2457;2
2458;114
2459;98
2460;8
2461;0
2462;0
2463;0
2464;275
2465;243
2466;580
2467;23
2468;83
2469;10
2470;0
2471;47
2473;258
2474;225
2475;1
2476;19
2477;0
2478;55
2479;405
2480;53
2481;172
2482;186
2483;50
2484;0
2485;1
2486;500
2487;2440
2488;4
2489;1
2490;2
2491;1
2492;1
2493;3
2494;3
2495;1
2496;2
2497;2
2498;3
2499;1
2500;2
2501;30
2502;0
2503;229
2504;11
2505;0
2506;240
2507;83
2508;281
2509;0
2510;0
2511;0
2512;0
2514;3936
2516;0
2517;2
2518;10000
2519;20000
2520;20000
2521;20000
2522;10000
2523;0
2524;10000
2525;10000
2526;10000
2527;10000
2528;10000
2529;10000
2530;10000
2531;10000
2532;20000
2533;10000
2534;10000
2536;10000
2537;10000
2538;9999
2539;10000
2540;10000
2541;0
2542;1110
2543;0
2544;386
2545;0
2546;0
2547;5
2548;5
2549;5
2550;5
2551;5
2552;5
2553;5
2554;5
2555;5
2556;5
2557;30
2558;10
2559;10
2560;9
2561;4
2562;4
2563;1
2565;396
2566;143
2567;942
2568;24
2569;2
2570;5000
2571;5
2572;0
2573;0
2575;0
2576;1874
2577;0
2579;14
2580;1
2581;1
2582;2
2583;6
2584;16
2585;0
2586;1
2587;1
2588;1
2589;14
2590;20
2591;8
2592;1
2593;1
2594;6
2595;1
2596;1
2597;2
2598;0
2599;245
2600;554
2601;396
2602;849
2603;0
2604;0
2605;0
2606;0
2607;0
2608;2
2609;0
2612;39
2613;36
2614;0
2615;16
2616;10
2617;1
2618;0
2619;277
2620;0
2621;6
2622;25
2628;0
2629;1
2630;0
2631;0
2632;0
2633;0
2634;0
2635;0
2636;0
2637;0
2638;0
2639;0
2640;0
2641;0
2642;0
2643;0
2644;3
2645;0
2646;0
2647;0
2648;0
2649;0
2650;0
2651;0
2652;0
2653;0
2654;0
2655;9
2656;0
2657;0
2658;0
2659;0
2660;2
2661;0
2662;0
2663;0
2664;1
2665;0
2666;0
2667;0
2668;0
2669;0
2670;1
2671;4
2672;244
2673;0
2674;0
2675;0
2676;0
2677;0
2678;7
2679;0
2680;495
2681;0
2682;515
2683;0
2684;320
2685;0
2686;233
2687;0
2688;13
2689;0
2690;0
2691;0
2692;406
2693;0
2694;517
2695;0
2696;521
2697;0
2698;65
2699;0
2700;486
2701;0
2702;338
2703;0
2704;0
2705;0
2706;4687
2707;0
2708;0
2709;0
2714;1
2715;9
2716;1
2717;0
2718;5
2719;0
2720;0
2721;1
2722;1
2723;13
2724;7
2726;4
2727;0
2728;1
2729;1
2730;2
2731;1
2732;1
2733;0
2734;0
2735;0
2736;8
2737;130
2738;100
2739;34
2740;100
2741;66
2742;26
2743;2018
2744;529
2745;5435
2746;237
2747;249
2748;232
2749;3060
2750;997
2751;16
2752;410
2753;208
2754;570
2755;661
2756;585
2757;1549
2758;90
2759;668
2760;2322
2761;2014
2762;6718
2763;0
2764;1100
2765;0
2766;9,8940
2767;5000
2768;0
2769;2197
2770;3002
2771;513
2772;132
2773;43
2774;35
2775;5
2779;10
2781;32
2782;0
2783;69
2784;102
2785;639
2786;0
2787;60
2788;329
2789;0
2790;0
2791;1
2792;1
2793;1
2794;2
2795;1
2796;1
2797;1
2798;0
2799;3
2800;0
2801;2
2802;1
2803;1
2804;1
2805;1
2806;1
2807;1
2808;6
2809;8
2810;28
2811;0
2812;0
2813;0
2814;0
2815;0
2816;2
2817;0
2818;0
2819;0
2820;0
2821;0
2822;0
2823;0
2824;0
2825;0
2826;0
2827;0
2828;0
2829;0
2830;1390
2831;0
2832;0
2833;0
2834;0
2835;0
2836;573
2837;88000
2838;0
2839;0
2840;0
2841;0
2842;0
2843;0
2844;2
2845;0
2846;0
2847;0
2848;1
2849;0
2850;0
2851;3
2852;0
2853;0
2854;0
2855;1
2856;0
2857;0
2858;2
2859;0
2860;0
2861;0
2862;3
2863;0
2864;0
2865;0
2866;0
2867;0
2868;0
2869;2
2870;0
2871;0
2872;0
2873;0
2874;0
2875;0
2876;1
2877;0
2878;0
2879;2
2880;0
2881;0
2882;0
2883;0
2884;0
2885;0
2886;3
2887;0
2888;0
2889;0
2890;1
2891;1
2892;0
2893;0
2894;5
2895;0
2896;0
2897;1
2898;0
2899;3
2900;0
2901;1
2902;0
2903;0
2904;0
2905;0
2906;0
2907;0
2908;0
2909;0
2910;0
2911;0
2912;0
2913;0
2914;5
2915;0
2916;0
2917;1
2918;0
2919;4
2920;0
2921;0
2922;0
2923;0
2924;0
2925;0
2926;0
2927;0
2928;0
2929;4
2930;0
2931;0
2932;0
2933;0
2934;0
2935;1586
2936;0
2937;725
2938;1799
2939;250
2940;3184
2941;0
2942;939
2943;183
2944;2132
2945;1517
2946;1383
2947;0
2948;0
2949;0
2950;0
2951;0
2952;0
2954;0
2955;0
2956;0
2957;0
2958;0
2959;0
2960;0
2961;0
2962;0
2963;0
2965;0
2966;0
2967;0
2968;0
2969;0
2972;0
2973;0
2974;0
2975;0
2976;0
2977;0
2978;0
2979;0
2980;0
2981;0
2982;0
2983;0
2984;0
2985;0
2986;0
2987;0
2988;0
2989;0
2990;0
2991;0
2992;0
2993;0
2994;0
2995;0
2996;0
2997;0
2998;0
2999;4,9960
3000;0
3001;0
3002;0
3003;0
3004;0
3005;0
3006;0
3007;0
3008;0
3009;0
3010;0
3011;0
3012;0
3013;0
3014;0
3015;0
3016;0
3017;0
3018;0
3019;0
3020;0
3021;0
3022;0
3023;0
3024;10
3025;1
3026;0
3027;0
3028;0
3029;0
3030;0
3031;0
3032;0
3033;0
3034;1515
3035;188
3036;200
3037;0
3038;0
3039;342
3040;0
3041;312
3042;0
3043;0
3044;0
3045;4
3046;1
3047;0
3048;0
3049;4
3050;324
3051;388
3052;25
3053;290
3054;0
3055;172
3056;271
3057;100
3058;0
3059;2701
3060;0
3061;0
3062;0
3063;0
3064;0
3065;0
3066;0
3067;261
3068;0
3069;262
3070;0
3071;0
3072;0
3073;0
3074;2000
3075;0
3076;184
3077;0
3078;0
3079;0
3080;0
3081;0
3082;0
3083;0
3084;0
3085;0
3086;1000
3087;0
3088;0
3090;0
3091;0
3092;0
3093;0
3095;84
3096;10
3097;8
3098;3112
3099;15
3100;0
3101;0
3102;51,3220
3103;0
3104;11
3105;49
3106;779
3107;0
3108;0
3109;0
3110;0
3111;0
3112;0
3113;0
3114;20
3115;0
3116;0
3117;0
3118;0
3119;0
3120;0
3121;0
3122;0
3123;0
3124;0
3125;0
3126;3
3127;17
3128;0
3129;0
3130;0
3131;0
3132;0
3133;0
3134;0
3137;0
3138;0
3139;0
3140;0
3141;0
3142;1,24
3143;0
3144;0
3145;0
3146;0
3147;0
3148;0
3149;0
3150;0
3151;0
3152;0
3153;0
3154;0
3155;0
3156;10
3157;10
3158;102
3159;0
3160;0
3161;2
3162;4
3163;0
3164;9
3165;200
3166;87
3167;44
3168;148
3169;0
3170;0
3171;0
3172;5
3173;0
3174;0
3175;40
3176;10
3177;5
3178;0
3179;0
3180;0
3181;0
3182;0
3183;0
3184;0
3185;0
3186;0
3187;0
3188;0
3189;0
3190;0
3191;0
3192;0
3193;30
3194;9
3195;0
3196;0
3197;421
3198;342
3199;0
3200;0
3201;0
3202;0
3203;0
3204;0
3205;121,92
3206;368,36
3207;917,90
3208;45
3209;39
3210;54
3211;55
3212;90
3213;66
3214;45
3215;37
3216;54
3217;51
3218;30
3219;40
3220;90
3221;76
3222;210
3223;36
3224;1473
3225;1573
3226;0
3227;0
3228;34
3229;0
3230;0
3231;0
3232;0
3233;0
3234;91
3235;0
3236;0
3237;0
3238;0
3239;0
3240;0
3241;0
3242;0
3243;720
3244;0
3245;0
3246;0
3247;1
3248;0
3249;0
3250;0
3251;17600
3252;31500
3253;0
3254;0
3255;0
3256;0
3257;0
3258;141
3259;0
3260;0
3261;19
3262;2
3263;0
3264;144
3265;77
3266;60
3267;0
3268;0
3269;0
3270;0
3271;0
3272;0
3273;0
3274;0
3275;0
3276;0
3277;0
3278;0
3279;0
3280;18
3281;35
3282;0
3283;4
3284;4
3285;4
3286;2
3287;500
3288;115
3289;0
3290;381
3291;381
3292;3,90
3293;69
3295;0
3296;0
3297;1
3298;1160
3299;1160
3300;371
3301;0
3302;0
3303;0
3304;300
3305;1,5810
3306;0
3307;0
3308;0
3309;0
3310;0
3311;0
3312;0
3313;0
3314;0
3315;0
3316;0
3317;0
3318;0
3319;0
3320;0
3321;0
3322;0
3323;0
3324;0
3325;0
3326;0
3327;0
3328;0
3329;0
3330;0
3331;0
3332;0
3333;0
3334;0
3335;0
3336;0
3337;50
3338;227
3339;400
3340;700
3341;3
3342;0
3343;0
3344;1
3345;1
3346;569
3347;0
3348;0
3349;0
3350;0
3351;250
3352;0
3353;602
3354;0
3355;0
3356;0
3357;0
3358;0
3359;0
3360;0
3361;0
3362;0
3363;0
3364;0
3365;0
3366;808
3367;0
3368;0
3369;0
3370;26
3372;0
3373;0
3374;0
3375;0
3376;0
3377;0
3378;0
3379;50
3380;0
3381;26
3382;66
3383;19
3384;1
3385;1
3386;50
3389;10
3390;0
3391;0
3392;0
3393;0
3394;300
3395;0
3396;0
3397;0
3398;0
3399;0
3400;0
3401;0
3402;0
3403;0
3404;0
3405;4
3406;0
3407;0
3408;0
3409;0
3410;0
3411;0
3412;0
3413;0
3414;0
3415;0
3416;1295,40
3417;0
3418;0
3419;0
3420;0
3421;0
3422;0
3423;0
3424;60
3425;30
3427;40
3428;5
3429;0
3430;0
3431;0
3432;0
3433;600
3434;2
3435;2
3436;0
3437;0
3438;0
3440;305
3441;0
3442;0
3443;0
3444;0
3445;0
3446;0
3448;0
3449;0
3450;0
3451;0
3452;3530
3453;0
3454;0
3455;0
3456;0
3457;0
3458;0
3459;0
3460;0
3461;0
3462;0
3463;0
3464;0
3465;0
3466;0
3467;0
3468;0
3469;0
3470;0
3471;0
3472;0
3473;0
3474;0
3475;0
3476;0
3477;297
3478;0
3479;0
3480;580
3481;0
3482;100
3483;0
3484;0
3485;200
3486;0
3487;0
3488;0
3489;100
3490;100
3491;0
3492;0
3493;0
3494;0
3495;0
3496;0
3497;0
3498;0
3499;0
3500;0
3501;0
3502;0
3503;0
3504;0
3506;0
3507;0
3508;0
3509;0
3510;0
3511;0
3512;0
3513;0
3514;0
3515;0
3516;0
3517;0
3518;0
3519;0
3520;0
3521;0
3522;0
3523;0
3524;0
3526;0
3527;0
3528;0
3529;0
3530;0
3531;0
3532;0
3533;0
3534;0
3535;0
3536;0
3537;0
3538;0
3539;0
3540;0
3541;0
3542;0
3543;0
3544;0
3545;0
3546;0
3547;0
3548;0
3549;0
3550;0
3551;0
3552;0
3553;0
3554;0
3555;0
3556;0
3557;0
3558;0
3559;0
3560;0
3561;0
3562;0
3563;0
3564;0
3565;0
3566;0
3567;0
3568;0
3569;0
3570;0
3571;0
3572;0
3573;0
3574;0
3575;0
3576;0
3577;0
3578;0
3579;0
3580;0
3581;0
3582;0
3583;0
3584;0
3585;0
3586;0
3587;0
3588;0
3589;0
3590;0
3591;0
3592;0
3593;0
3594;0
3595;0
3596;0
3597;0
3598;0
3599;0
3600;0
3601;0
3602;0
3603;0
3604;0
3605;0
3606;0
3607;0
3608;0
3609;0
3610;0
3611;0
3612;5000
3613;0
3614;0
3615;0
3616;0
3617;0
3618;0
3619;0
3620;0
3621;0
3622;0
3623;0
3624;0
3625;0
3626;0
3627;0
3628;0
3629;0
3630;0
3631;0
3632;0
3633;0
3634;108
3635;0
3636;0
3637;0
3638;0
3639;0
3640;0
3641;0
3642;0
3643;800
3644;800
3645;1600
3646;0
3647;0
3648;0
3649;0
3650;0
3651;0
3652;0
3653;0
3654;0
3655;0
3656;0
3657;0
3658;0
3659;0
3660;0
3661;0
3662;0
3663;0
3664;0
3665;0
3666;0
3667;0
3668;0
3669;0
3670;0
3671;0
3672;78
3673;35
3674;15
3675;50
3676;0
3677;0
3678;0
3679;0
3680;0
3681;0
3682;0
3683;0
3684;0
3685;0
3686;0
3687;0
3688;10
3689;0
3690;0
3691;0
3692;0
3693;0
3694;0
3695;0
3696;0
