;;;;
;;;;
;;;;
;;;;
;;;;
;;;;
;;;;
;;;;
3308;1290,00;;;
2416;1390,00;;;
3311;1590,00;;;
1135;1690,00;;;
3314;2690,00;;;
2426;2790,00;;;
3317;3750,00;;;
1136;3990,00;;;
3920;3750,00;;;
3921;3990,00;;;
3948;5150,00;;;
3949;5390,00;;;
3307;1390,00;;;
1443;1490,00;;;
1446;1890,00;;;
7;1090,00;;;
6;1090,00;;;
3323;520,00;;;
11;590,00;;;
3324;550,00;;;
12;620,00;;;
3325;610,00;;;
13;670,00;;;
16;390,00;;;
3327;440,00;;;
17;480,00;;;
18;550,00;;;
3329;590,00;;;
19;650,00;;;
20;710,00;;;
21;780,00;;;
3161;940,00;;;
3336;510,00;;;
401;650,00;;;
3841;510,00;;;
3840;650,00;;;
4;290,00;;;
22;1390,00;;;
1777;1390,00;;;
14;1490,00;;;
2350;1090,00;;;
2053;1690,00;;;
399;1190,00;;;
4060;2950,00;;;
5;250,00;;;
3;250,00;;;
1137;290,00;;;
1029;170,00;;;
1266;230,00;;;
1669;250,00;;;
1031;140,00;;;
1267;160,00;;;
2171;170,00;;;
1831;100,00;;;
2772;330,00;;;
2773;400,00;;;
3024;400,00;;;
398;140,00;;;
38;140,00;;;
42;115,00;;;
43;130,00;;;
44;80,00;;;
46;150,00;;;
47;190,00;;;
48;45,00;;;
49;60,00;;;
50;70,00;;;
51;85,00;;;
52;100,00;;;
53;110,00;;;
3164;120,00;;;
54;110,00;;;
57;45,00;;;
58;60,00;;;
70;140,00;;;
3052;155,00;;;
3053;160,00;;;
60;180,00;;;
1573;140,00;;;
1531;170,00;;;
1537;180,00;;;
39;120,00;;;
2052;135,00;;;
3991;140,00;;;
56;110,00;;;
45;170,00;;;
2354;150,00;;;
40;50,00;;;
55;90,00;;;
3625;190,00;;;
3839;220,00;;;
61;25,00;;;
1030;70,00;;;
79;200,00;;;
72;130,00;;;
73;130,00;;;
1359;200,00;;;
1360;220,00;;;
1361;275,00;;;
1376;150,00;;;
66;780,00;;;
69;830,00;;;
64;980,00;;;
65;940,00;;;
67;1100,00;;;
68;980,00;;;
74;980,00;;;
75;880,00;;;
76;1050,00;;;
77;970,00;;;
1387;790,00;;;
1388;840,00;;;
1391;1020,00;;;
1389;970,00;;;
1392;1090,00;;;
1390;1020,00;;;
1395;980,00;;;
1393;930,00;;;
1396;1070,00;;;
1394;980,00;;;
1436;1070,00;;;
2571;840,00;;;
2488;970,00;;;
847;150,00;;;
965;475,00;;;
696;130,00;;;
1441;165,00;;;
1817;330,00;;;
697;60,00;;;
698;150,00;;;
695;230,00;;;
694;340,00;;;
2781;390,00;;;
3288;3,00;;;
691;170,00;;;
700;1300,00;;;
2189;210,00;;;
4079;220,00;;;
4080;330,00;;;
25;340,00;;;
26;140,00;;;
27;250,00;;;
28;170,00;;;
29;320,00;;;
3676;580,00;;;
3677;580,00;;;
3678;580,00;;;
3244;55,00;;;
3245;80,00;;;
3246;115,00;;;
3247;125,00;;;
3248;160,00;;;
3249;220,00;;;
941;8,00;;;
944;30,00;;;
955;15,00;;;
956;17,00;;;
945;7,00;;;
943;15,00;;;
954;23,00;;;
957;16,00;;;
953;16,00;;;
949;16,00;;;
946;16,00;;;
947;13,00;;;
940;18,00;;;
952;25,00;;;
1833;11,00;;;
1923;17,00;;;
1924;7,00;;;
1925;8,00;;;
1926;16,00;;;
1927;40,00;;;
1928;6,00;;;
1929;18,00;;;
1930;15,00;;;
1932;15,00;;;
1933;23,00;;;
1934;17,00;;;
1935;27,00;;;
1936;25,00;;;
1937;18,00;;;
1938;27,00;;;
1939;13,00;;;
1940;15,00;;;
1941;15,00;;;
1942;15,00;;;
1943;40,00;;;
1944;50,00;;;
1945;25,00;;;
1946;30,00;;;
1947;110,00;;;
1948;25,00;;;
1949;40,00;;;
1950;38,00;;;
1951;38,00;;;
1952;18,00;;;
1953;20,00;;;
1954;17,00;;;
1955;17,00;;;
1956;23,00;;;
1957;27,00;;;
1958;38,00;;;
4086;290,00;;;
1919;50,00;;;
1918;90,00;;;
2476;8,00;;;
2477;10,00;;;
1921;50,00;;;
4029;24,00;;;
1920;29,00;;;
2331;17,00;;;
1902;467,20;;;
1903;526,40;;;
1904;616,00;;;
1905;414,94;;;
2185;616,00;;;
1906;502,40;;;
1907;502,40;;;
1908;502,40;;;
1909;502,40;;;
1910;502,40;;;
1911;88,00;;;
1912;88,00;;;
1913;115,20;;;
2186;195,20;;;
2187;195,20;;;
1634;29,00;;;
1092;29,00;;;
1093;29,00;;;
1094;39,00;;;
1095;49,00;;;
1096;69,00;;;
1635;89,00;;;
1636;69,00;;;
1097;69,00;;;
1098;79,00;;;
1099;89,00;;;
1100;99,00;;;
1101;105,00;;;
1637;119,00;;;
1638;79,00;;;
1102;79,00;;;
1103;85,00;;;
1104;95,00;;;
1105;99,00;;;
1106;119,00;;;
1639;139,00;;;
1107;95,00;;;
1108;149,00;;;
1109;169,00;;;
1641;95,00;;;
1642;115,00;;;
1643;129,00;;;
1110;149,00;;;
1111;189,00;;;
1644;95,00;;;
1645;115,00;;;
1646;129,00;;;
1072;159,00;;;
1073;189,00;;;
1074;145,00;;;
1075;159,00;;;
1076;179,00;;;
1077;11,00;;;
1078;15,00;;;
1079;18,00;;;
1080;23,00;;;
1081;26,00;;;
1647;10,00;;;
1082;12,00;;;
1083;13,00;;;
1084;14,00;;;
1085;14,00;;;
1086;22,00;;;
1087;23,00;;;
1088;25,00;;;
1089;29,00;;;
1090;45,00;;;
1091;45,00;;;
1648;25,00;;;
1112;25,00;;;
1113;28,00;;;
1649;43,00;;;
1650;49,00;;;
1651;55,00;;;
1652;59,00;;;
1653;65,00;;;
1114;72,00;;;
1115;89,00;;;
1654;35,00;;;
1050;43,00;;;
1655;49,00;;;
1656;65,00;;;
1657;79,00;;;
1658;85,00;;;
1659;35,00;;;
1051;45,00;;;
1660;59,00;;;
1052;18,00;;;
1053;21,00;;;
1054;25,00;;;
1055;29,00;;;
1056;35,00;;;
1057;15,00;;;
1058;23,00;;;
1059;25,00;;;
1060;29,00;;;
1061;33,00;;;
1661;43,00;;;
1062;35,00;;;
1662;35,00;;;
1063;39,00;;;
1663;42,00;;;
1064;43,00;;;
1664;49,00;;;
1065;49,00;;;
1665;75,00;;;
1066;75,00;;;
1666;79,00;;;
1667;89,00;;;
1668;89,00;;;
2443;65,00;;;
2444;65,00;;;
2445;69,00;;;
2446;69,00;;;
2447;75,00;;;
2448;75,00;;;
2449;79,00;;;
2450;79,00;;;
2451;85,00;;;
2452;85,00;;;
1626;69,00;;;
1150;75,00;;;
1151;85,00;;;
1152;89,00;;;
1153;129,00;;;
1154;139,00;;;
1627;149,00;;;
1628;75,00;;;
1629;79,00;;;
1630;89,00;;;
1631;119,00;;;
1632;135,00;;;
1633;145,00;;;
2612;79,00;;;
2613;79,00;;;
2614;239,00;;;
2620;185,00;;;
2615;639,00;;;
2616;679,00;;;
1618;699,00;;;
3370;899,00;;;
1619;859,00;;;
2441;549,00;;;
2442;549,00;;;
1624;939,00;;;
1625;1390,00;;;
1621;69,00;;;
1622;79,00;;;
1623;89,00;;;
2714;250,00;;;
2715;250,00;;;
2716;250,00;;;
2717;250,00;;;
2718;250,00;;;
2719;250,00;;;
2720;250,00;;;
2721;250,00;;;
2722;250,00;;;
2723;250,00;;;
2724;250,00;;;
3750;120,00;;;
3751;120,00;;;
3752;120,00;;;
3753;120,00;;;
3754;120,00;;;
3868;90,00;;;
3869;90,00;;;
3870;90,00;;;
3871;90,00;;;
3872;90,00;;;
3907;90,00;;;
3873;90,00;;;
3874;90,00;;;
3875;90,00;;;
4044;50,00;;;
4045;50,00;;;
4046;50,00;;;
4047;50,00;;;
4048;50,00;;;
4049;50,00;;;
4050;50,00;;;
4051;50,00;;;
4052;50,00;;;
4053;50,00;;;
4054;50,00;;;
4055;50,00;;;
3886;50,00;;;
3887;50,00;;;
3888;50,00;;;
3889;50,00;;;
3890;50,00;;;
3891;50,00;;;
3892;50,00;;;
3893;50,00;;;
3894;50,00;;;
3895;50,00;;;
3896;50,00;;;
3897;50,00;;;
3898;50,00;;;
3899;50,00;;;
3900;50,00;;;
3901;50,00;;;
3902;50,00;;;
3903;50,00;;;
2460;40,00;;;
2461;40,00;;;
2462;40,00;;;
2463;40,00;;;
3877;40,00;;;
3878;40,00;;;
3879;40,00;;;
3725;60,00;;;
3726;60,00;;;
3727;60,00;;;
3728;60,00;;;
3729;60,00;;;
3906;60,00;;;
3730;60,00;;;
3731;60,00;;;
3732;60,00;;;
3733;60,00;;;
3734;60,00;;;
3905;60,00;;;
3735;60,00;;;
3736;60,00;;;
3737;60,00;;;
3738;60,00;;;
3739;60,00;;;
3904;60,00;;;
3880;60,00;;;
3881;60,00;;;
3882;60,00;;;
3883;60,00;;;
3884;60,00;;;
3885;60,00;;;
3745;60,00;;;
3746;60,00;;;
3747;60,00;;;
3748;60,00;;;
3749;60,00;;;
3876;60,00;;;
1147;30,00;;;
3715;30,00;;;
1590;5,00;;;
1538;20,00;;;
1844;45,00;;;
1591;5,00;;;
1539;20,00;;;
1504;45,00;;;
1845;5,00;;;
1846;20,00;;;
1503;45,00;;;
3096;49,00;;;
3076;29,00;;;
4006;30,00;;;
;;;;
;;;;
;;;;
;;;;
