1960;290,00
1756;309,00
1757;309,00
1758;309,00
1759;309,00
2362;309,00
2363;309,00
2364;309,00
2365;309,00
1760;119,00
1761;119,00
1762;119,00
1763;119,00
1850;329,00
1851;329,00
2214;329,00
2215;329,00
3269;329,00
3270;329,00
3271;329,00
3272;329,00
3273;329,00
2221;279,00
2222;279,00
2223;279,00
2224;279,00
2345;549,00
2346;549,00
2028;2399,00
2029;2399,00
2030;2599,00
2031;2599,00
2370;389,00
3783;249,00
712;634,00
1046;634,00
713;634,00
714;634,00
709;634,00
1138;634,00
710;634,00
711;634,00
2489;569,00
2490;569,00
2491;569,00
2492;569,00
1856;549,00
1857;549,00
1858;549,00
1859;549,00
706;519,00
1045;519,00
707;519,00
708;519,00
703;519,00
1139;519,00
704;519,00
705;519,00
3614;539,00
3615;539,00
3616;539,00
3617;539,00
701;999,00
998;999,00
997;999,00
702;999,00
3854;1049,00
3855;1049,00
3856;1049,00
3857;1049,00
1914;499,00
1915;499,00
1916;499,00
1917;499,00
718;579,00
1002;579,00
1001;579,00
719;579,00
716;549,00
1000;549,00
999;549,00
717;549,00
2453;549,00
2454;549,00
2455;549,00
2456;549,00
3091;499,00
3092;499,00
3093;499,00
3787;509,00
3785;509,00
3784;509,00
3786;509,00
3791;264,00
3789;264,00
3788;264,00
3790;264,00
722;289,00
720;289,00
715;289,00
721;289,00
1003;269,00
1005;269,00
1006;269,00
1004;269,00
2133;549,00
2135;609,00
2140;609,00
2141;609,00
2142;609,00
2138;936,00
2143;609,00
2148;609,00
2149;609,00
2150;609,00
2146;936,00
2239;349,00
2240;349,00
2241;349,00
2242;349,00
2375;329,00
2376;329,00
2377;329,00
2378;329,00
2243;339,00
2244;339,00
2245;339,00
2246;339,00
2728;799,00
2729;799,00
2730;799,00
2731;799,00
1764;809,00
1765;809,00
1766;809,00
1767;809,00
2216;869,00
2217;869,00
2219;869,00
2220;869,00
2392;1089,00
2393;1089,00
2394;1089,00
2395;1089,00
2373;279,00
2396;329,00
2563;239,00
2569;329,00
2233;2849,00
2234;2849,00
3775;2849,00
2229;2749,00
2230;2749,00
3776;2749,00
2231;2749,00
2232;2749,00
3777;2749,00
2225;2749,00
2226;2749,00
3778;2749,00
2227;2749,00
2228;2749,00
3779;2749,00
3159;2099,00
3192;2099,00
3274;2099,00
3367;2099,00
3368;2099,00
3369;2099,00
3799;2399,00
3800;2399,00
3801;2399,00
2457;229,00
3275;139,00
2499;269,00
2236;1199,00
2496;1099,00
2237;999,00
2238;999,00
3792;999,00
2495;699,00
2546;1599,00
3276;1049,00
3774;1049,00
2493;659,00
3277;659,00
2494;459,00
3278;459,00
3467;569,00
3468;569,00
2497;439,00
2498;499,00
2500;269,00
