701;969
702;969
703;449
704;449
705;449
706;449
707;449
708;449
709;549
710;549
711;549
712;549
713;549
714;549
715;249
716;499
717;499
718;499
719;499
720;249
721;249
722;249
997;969
998;969
999;499
1000;499
1001;499
1002;499
1003;239
1004;239
1005;239
1006;239
1045;449
1046;549
1138;549
1139;449
1756;279
1757;279
1758;279
1759;279
1760;109
1761;109
1762;109
1763;109
1764;699
1765;699
1766;699
1767;699
1850;299
1851;299
1856;499
1857;499
1858;499
1859;499
1914;459
1915;459
1916;459
1917;459
2028;2199
2029;2199
2030;2399
2031;2399
2133;499
2135;549
2138;849
2140;549
2141;549
2142;549
2143;549
2146;849
2148;549
2149;549
2150;549
2214;299
2215;299
2216;749
2217;749
2219;749
2220;749
2221;249
2222;249
2223;249
2224;249
2225;2499
2226;2499
2227;2499
2228;2499
2229;2499
2230;2499
2231;2499
2232;2499
2233;2599
2234;2599
2236;1079
2237;899
2238;899
2239;299
2240;299
2241;299
2242;299
2243;289
2244;289
2245;289
2246;289
2345;499
2346;499
2362;279
2363;279
2364;279
2365;279
2370;349
2373;259
2375;299
2376;299
2377;299
2378;299
2392;989
2393;989
2394;989
2395;989
2396;299
2453;489
2454;489
2455;489
2456;489
2457;199
2489;489
2490;489
2491;489
2492;489
2493;599
2494;399
2495;699
2496;999
2497;379
2498;429
2499;239
2500;239
2546;1499
2563;209
2569;299
2728;689
2729;689
2730;689
2731;689
3091;449
3092;449
3093;449
3159;1899
3192;1899
3269;299
3270;299
3271;299
3272;299
3273;299
3274;1899
3275;99
3276;949
3277;629
3278;429
3367;1899
3368;1899
3369;1899
3467;519
3468;549
3614;489
3615;489
3616;489
3617;489
3774;979
3775;2599
3776;2499
3777;2499
3778;2499
3779;2499
3780;2299
3781;2299
3782;2299
3783;200
3784;449
3785;449
3786;449
3787;449
3788;319
3789;319
3790;319
3791;319
3792;899
