3308;1590
2416;1690
3311;1890
1135;1990
3314;2490
2426;2590
3317;2990
1136;3190
3320;4280
2814;4480
3307;1590
1443;1690
1446;1690
7;890
6;890
3323;450
11;510
3324;470
12;530
3325;520
13;570
3326;310
16;340
3327;380
17;410
3328;440
18;480
3329;510
19;560
3330;560
20;620
3331;630
21;690
3332;740
3161;820
3336;410
401;560
4;280
22;1250
1777;1250
14;1250
2350;890
2053;1460
399;890
15;220
5;220
3;220
1137;240
3419;3700
3421;3980
1029;150
1266;200
1669;215
1031;120
1267;135
2171;150
1831;90
2772;285
2773;350
3024;350
398;120
38;120
42;100
43;115
44;70
46;130
47;170
48;40
49;50
50;55
51;70
52;85
53;90
3164;85
54;95
57;40
58;55
70;130
3052;145
3053;150
60;170
1573;130
1531;155
1537;170
39;98
2052;110
1528;115
56;90
45;130
2354;130
40;45
55;70
61;24
1030;70
79;180
72;115
73;115
1359;145
1360;195
1361;240
1376;130
62;355
1477;415
2324;715
2325;605
66;680
69;725
64;910
65;815
67;945
68;860
74;870
75;785
76;925
77;845
1387;690
1388;730
1391;890
1389;840
1392;950
1390;890
1395;870
1393;810
1396;935
1394;860
1436;925
2571;730
2488;845
3263;220
3289;380
847;125
965;340
696;130
1441;165
1817;165
697;55
698;135
695;190
694;290
2781;350
2622;350
3288;2,8
691;170
700;990
2189;210
1400;260
25;340
26;140
27;250
28;170
29;320
3244;55
3245;80
3246;115
3247;125
3248;160
3249;220
941;8
944;30
955;15
956;17
945;7
943;15
954;23
957;16
953;16
949;16
946;16
947;13
940;18
952;25
1833;11
1923;17
1924;7
1925;8
1926;16
1927;40
1928;6
1929;18
1930;15
1932;15
1933;23
1934;17
1935;27
1936;25
1937;18
1938;27
1939;13
1940;15
1941;15
1942;15
1943;40
1944;50
1945;25
1946;30
1947;110
1948;25
1949;40
1950;38
1951;38
1952;18
1953;20
1954;17
1955;17
1956;23
1957;27
1958;38
1919;40
1918;90
2476;8
2477;10
1921;50
1920;25
2331;17
1902;467,2
1903;526,4
1904;616
1905;414,94
2185;616
1906;502,4
1907;502,4
1908;502,4
1909;502,4
1910;502,4
1911;88
1912;88
1913;115,2
2186;195,2
2187;195,2
1634;20
1092;20
1093;20
1094;28
1095;35
1096;48
1635;63
1636;50
1097;50
1098;55
1099;58
1100;70
1101;73
1637;85
1638;55
1102;55
1103;60
1104;65
1105;70
1106;85
1639;100
1107;65
1108;105
1109;120
1641;65
1642;80
1643;90
1110;105
1111;135
1644;65
1645;80
1646;90
1072;110
1073;135
1074;100
1075;110
1076;125
1077;8
1078;10
1079;12
1080;16
1081;18
1647;7
1082;8
1083;9
1084;10
1085;10
1086;15
1087;16
1088;18
1089;20
1090;32
1091;32
1648;18
1112;18
1113;19
1649;30
1650;33
1651;38
1652;42
1653;45
1114;50
1115;65
1654;25
1050;30
1655;35
1656;45
1657;55
1658;60
1659;25
1051;32
1660;40
1052;12
1053;14
1054;17
1055;20
1056;25
1057;11
1058;16
1059;18
1060;20
1061;23
1661;30
1062;25
1662;25
1063;26
1663;29
1064;30
1664;35
1065;36
1665;52
1066;52
1666;55
1667;60
1668;60
2443;42
2444;42
2445;45
2446;45
2447;47
2448;47
2449;50
2450;50
2451;53
2452;53
1626;45
1150;50
1151;55
1152;60
1153;85
1154;95
1627;100
1628;48
1629;52
1630;58
1631;78
1632;90
1633;95
2612;58
2613;58
2614;180
2620;140
2615;490
2616;520
1618;540
3370;690
1619;660
2441;420
2442;420
1624;720
1625;1080
1621;50
1622;55
1623;60
863;60
864;60
865;60
2714;250
2715;250
2716;250
2717;250
2718;250
2719;250
2720;250
2721;250
2722;250
2723;250
2724;250
3750;120
3751;120
3752;120
3753;120
3754;120
1988;40
1989;40
1990;40
1991;40
1992;40
1993;40
1994;40
1995;40
1996;40
1997;40
1998;40
1999;40
2000;40
2001;40
2002;40
2460;40
2461;40
2462;40
2463;40
3725;60
3726;60
3727;60
3728;60
3729;60
3730;60
3731;60
3732;60
3733;60
3734;60
3735;60
3736;60
3737;60
3738;60
3739;60
3740;60
3741;60
3742;60
3743;60
3744;60
3745;60
3746;60
3747;60
3748;60
3749;60
1147;30
3715;30
1590;4
1538;15
1844;35
1591;4
1539;15
1504;35
1845;4
1846;15
1503;35
1148;4
2077;5
2078;10
2079;15
1248;6
1805;6
3096;45
3076;29
