3308;1290,00;;
2416;1390,00;;
3311;1590,00;;
1135;1690,00;;
3314;2490,00;;
2426;2590,00;;
3317;2990,00;;
1136;3190,00;;
3920;3090,00;;
3921;3290,00;;
3948;4280,00;;
3949;4480,00;;
3307;1590,00;;
1443;1690,00;;
1446;1690,00;;
7;890,00;;
6;890,00;;
3323;450,00;;
11;510,00;;
3324;470,00;;
12;530,00;;
3325;520,00;;
13;570,00;;
3326;310,00;;
16;340,00;;
3327;380,00;;
17;410,00;;
3328;440,00;;
18;480,00;;
3329;510,00;;
19;560,00;;
3330;560,00;;
20;620,00;;
3331;630,00;;
21;690,00;;
3332;740,00;;
3161;820,00;;
3336;410,00;;
401;560,00;;
4;280,00;;
22;1250,00;;
1777;1250,00;;
14;1250,00;;
2350;890,00;;
2053;1460,00;;
399;890,00;;
15;220,00;;
5;220,00;;
3;220,00;;
1137;240,00;;
3419;3700,00;;
3421;3980,00;;
1029;150,00;;
1266;200,00;;
1669;215,00;;
1031;120,00;;
1267;135,00;;
2171;150,00;;
1831;90,00;;
2772;285,00;;
2773;350,00;;
3024;350,00;;
398;120,00;;
38;120,00;;
42;100,00;;
43;115,00;;
44;70,00;;
46;130,00;;
47;170,00;;
48;40,00;;
49;50,00;;
50;55,00;;
51;70,00;;
52;85,00;;
53;90,00;;
3164;85,00;;
54;95,00;;
57;40,00;;
58;55,00;;
70;130,00;;
3052;145,00;;
3053;150,00;;
60;170,00;;
1573;130,00;;
1531;155,00;;
1537;170,00;;
39;98,00;;
2052;110,00;;
1528;115,00;;
56;90,00;;
45;130,00;;
2354;130,00;;
40;45,00;;
55;70,00;;
61;24,00;;
1030;70,00;;
79;180,00;;
72;115,00;;
73;115,00;;
1359;145,00;;
1360;195,00;;
1361;240,00;;
1376;130,00;;
62;355,00;;
1477;415,00;;
2324;715,00;;
2325;605,00;;
66;680,00;;
69;725,00;;
64;910,00;;
65;815,00;;
67;945,00;;
68;860,00;;
74;870,00;;
75;785,00;;
76;925,00;;
77;845,00;;
1387;690,00;;
1388;730,00;;
1391;890,00;;
1389;840,00;;
1392;950,00;;
1390;890,00;;
1395;870,00;;
1393;810,00;;
1396;935,00;;
1394;860,00;;
1436;925,00;;
2571;730,00;;
2488;845,00;;
3289;380,00;;
847;125,00;;
965;475,00;;
696;130,00;;
1441;165,00;;
1817;290,00;;
697;55,00;;
698;135,00;;
695;190,00;;
694;320,00;;
2781;370,00;;
2622;370,00;;
3288;2,80;;
691;170,00;;
700;1200,00;;
2189;210,00;;
1400;330,00;;
25;340,00;;
26;140,00;;
27;250,00;;
28;170,00;;
29;320,00;;
3676;490,00;;
3677;490,00;;
3678;490,00;;
3244;55,00;;
3245;80,00;;
3246;115,00;;
3247;125,00;;
3248;160,00;;
3249;220,00;;
941;8,00;;
944;30,00;;
955;15,00;;
956;17,00;;
945;7,00;;
943;15,00;;
954;23,00;;
957;16,00;;
953;16,00;;
949;16,00;;
946;16,00;;
947;13,00;;
940;18,00;;
952;25,00;;
1833;11,00;;
1923;17,00;;
1924;7,00;;
1925;8,00;;
1926;16,00;;
1927;40,00;;
1928;6,00;;
1929;18,00;;
1930;15,00;;
1932;15,00;;
1933;23,00;;
1934;17,00;;
1935;27,00;;
1936;25,00;;
1937;18,00;;
1938;27,00;;
1939;13,00;;
1940;15,00;;
1941;15,00;;
1942;15,00;;
1943;40,00;;
1944;50,00;;
1945;25,00;;
1946;30,00;;
1947;110,00;;
1948;25,00;;
1949;40,00;;
1950;38,00;;
1951;38,00;;
1952;18,00;;
1953;20,00;;
1954;17,00;;
1955;17,00;;
1956;23,00;;
1957;27,00;;
1958;38,00;;
1919;40,00;;
1918;90,00;;
2476;8,00;;
2477;10,00;;
1921;50,00;;
1920;25,00;;
2331;17,00;;
1902;467,20;;
1903;526,40;;
1904;616,00;;
1905;414,94;;
2185;616,00;;
1906;502,40;;
1907;502,40;;
1908;502,40;;
1909;502,40;;
1910;502,40;;
1911;88,00;;
1912;88,00;;
1913;115,20;;
2186;195,20;;
2187;195,20;;
1634;26,00;;
1092;26,00;;
1093;26,00;;
1094;36,40;;
1095;45,50;;
1096;62,40;;
1635;81,90;;
1636;65,00;;
1097;65,00;;
1098;71,50;;
1099;75,40;;
1100;91,00;;
1101;94,90;;
1637;110,50;;
1638;71,50;;
1102;71,50;;
1103;78,00;;
1104;84,50;;
1105;91,00;;
1106;110,50;;
1639;130,00;;
1107;84,50;;
1108;136,50;;
1109;156,00;;
1641;84,50;;
1642;104,00;;
1643;117,00;;
1110;136,50;;
1111;175,50;;
1644;84,50;;
1645;104,00;;
1646;117,00;;
1072;143,00;;
1073;175,50;;
1074;130,00;;
1075;143,00;;
1076;162,50;;
1077;10,40;;
1078;13,00;;
1079;15,60;;
1080;20,80;;
1081;23,40;;
1647;9,10;;
1082;10,40;;
1083;11,70;;
1084;13,00;;
1085;13,00;;
1086;19,50;;
1087;20,80;;
1088;23,40;;
1089;26,00;;
1090;41,60;;
1091;41,60;;
1648;23,40;;
1112;23,40;;
1113;24,70;;
1649;39,00;;
1650;42,90;;
1651;49,40;;
1652;54,60;;
1653;58,50;;
1114;65,00;;
1115;84,50;;
1654;32,50;;
1050;39,00;;
1655;45,50;;
1656;58,50;;
1657;71,50;;
1658;78,00;;
1659;32,50;;
1051;41,60;;
1660;52,00;;
1052;15,60;;
1053;18,20;;
1054;22,10;;
1055;26,00;;
1056;32,50;;
1057;14,30;;
1058;20,80;;
1059;23,40;;
1060;26,00;;
1061;29,90;;
1661;39,00;;
1062;32,50;;
1662;32,50;;
1063;33,80;;
1663;37,70;;
1064;39,00;;
1664;45,50;;
1065;46,80;;
1665;67,60;;
1066;67,60;;
1666;71,50;;
1667;78,00;;
1668;78,00;;
2443;56,70;;
2444;56,70;;
2445;60,75;;
2446;60,75;;
2447;63,45;;
2448;63,45;;
2449;67,50;;
2450;67,50;;
2451;71,55;;
2452;71,55;;
1626;60,75;;
1150;67,50;;
1151;74,25;;
1152;81,00;;
1153;114,75;;
1154;128,25;;
1627;135,00;;
1628;64,80;;
1629;70,20;;
1630;78,30;;
1631;105,30;;
1632;121,50;;
1633;128,25;;
2612;75,40;;
2613;75,40;;
2614;234,00;;
2620;182,00;;
2615;637,00;;
2616;676,00;;
1618;702,00;;
3370;897,00;;
1619;858,00;;
2441;546,00;;
2442;546,00;;
1624;936,00;;
1625;1404,00;;
1621;65,00;;
1622;71,50;;
1623;78,00;;
863;78,00;;
864;78,00;;
865;78,00;;
2714;250,00;;
2715;250,00;;
2716;250,00;;
2717;250,00;;
2718;250,00;;
2719;250,00;;
2720;250,00;;
2721;250,00;;
2722;250,00;;
2723;250,00;;
2724;250,00;;
3750;120,00;;
3751;120,00;;
3752;120,00;;
3753;120,00;;
3754;120,00;;
3868;90,00;;
3869;90,00;;
3870;90,00;;
3871;90,00;;
3872;90,00;;
3907;90,00;;
3873;90,00;;
3874;90,00;;
3875;90,00;;
3886;40,00;;
3887;40,00;;
3888;40,00;;
3889;40,00;;
3890;40,00;;
3891;40,00;;
3892;40,00;;
3893;40,00;;
3894;40,00;;
3895;40,00;;
3896;40,00;;
3897;40,00;;
3898;40,00;;
3899;40,00;;
3900;40,00;;
3901;40,00;;
3902;40,00;;
3903;40,00;;
2460;40,00;;
2461;40,00;;
2462;40,00;;
2463;40,00;;
3877;40,00;;
3878;40,00;;
3879;40,00;;
3725;60,00;;
3726;60,00;;
3727;60,00;;
3728;60,00;;
3729;60,00;;
3730;60,00;;
3731;60,00;;
3732;60,00;;
3733;60,00;;
3734;60,00;;
3735;60,00;;
3736;60,00;;
3737;60,00;;
3738;60,00;;
3739;60,00;;
3880;60,00;;
3881;60,00;;
3882;60,00;;
3883;60,00;;
3884;60,00;;
3885;60,00;;
3740;60,00;;
3741;60,00;;
3742;60,00;;
3743;60,00;;
3744;60,00;;
3745;60,00;;
3746;60,00;;
3747;60,00;;
3748;60,00;;
3749;60,00;;
1147;30,00;;
3715;30,00;;
1590;4,00;;
1538;15,00;;
1844;35,00;;
1591;4,00;;
1539;15,00;;
1504;35,00;;
1845;4,00;;
1846;15,00;;
1503;35,00;;
1148;4,00;;
2077;5,00;;
2078;10,00;;
2079;15,00;;
1248;6,00;;
1805;6,00;;
3096;45,00;;
3076;29,00;;
